Division,WeightClassKg,Place,Name,Team,BodyweightKg,Best3SquatKg,Best3BenchKg,Best3DeadliftKg,TotalKg,Equipment,Event,Sex,BirthDate
Boys,51.71,1,Izajah Aguirre,Lubbock,49.8,79.38,52.16,83.91,215.46,Single-ply,SBD,M,
Boys,55.79,1,Santos Figueroa,Plainview,52.84,136.08,70.31,151.95,358.34,Single-ply,SBD,M,
Boys,55.79,2,Vincent Ybarra,Lubbock Monterey,52.66,97.52,52.16,122.47,272.16,Single-ply,SBD,M,
Boys,59.87,1,Seunghak Lee,Lubbock Cooper,58.97,147.42,88.45,158.76,394.63,Single-ply,SBD,M,
Boys,59.87,2,Isaac Orbregon,Lubbock,59.87,113.4,83.91,108.86,306.17,Single-ply,SBD,M,
Boys,59.87,3,Gage Graves,Plainview,58.56,90.72,61.23,97.52,249.48,Single-ply,SBD,M,
Boys,67.13,1,Tanner Eade,Lubbock,67.13,138.35,104.33,170.1,412.77,Single-ply,SBD,M,
Boys,67.13,2,Gavin Parrott,Lubbock Cooper,64.32,151.95,65.77,151.95,369.68,Single-ply,SBD,M,
Boys,67.13,3,Jeremiah Gonzalez,Plainview,66.27,136.08,83.91,115.67,335.66,Single-ply,SBD,M,
Boys,67.13,DQ,David White,Lubbock Cooper,63.96,,,,,Single-ply,SBD,M,
Boys,74.84,1,Nolan Carabajal,Lubbock Monterey,67.9,174.63,129.27,185.97,489.88,Single-ply,SBD,M,
Boys,74.84,2,Ethan Morton,Lubbock,74.84,151.95,88.45,147.42,387.82,Single-ply,SBD,M,
Boys,74.84,3,Hamilton Mitchell,Lubbock Cooper,67.63,131.54,90.72,151.95,374.21,Single-ply,SBD,M,
Boys,74.84,4,Roger Marquez,Plainview,68.27,142.88,72.57,145.15,360.61,Single-ply,SBD,M,
Boys,74.84,5,Isaiah Esquivel,Plainview,70.9,138.35,86.18,120.2,344.73,Single-ply,SBD,M,
Boys,74.84,6,Joel Flores,Plainview,69.63,124.74,68.04,140.61,333.39,Single-ply,SBD,M,
Boys,74.84,7,Diego Mendoza,Plainview,68.76,97.52,56.7,111.13,265.35,Single-ply,SBD,M,
Boys,82.1,1,Alan Lopez,Plainview,77.07,213.19,131.54,201.85,546.58,Single-ply,SBD,M,
Boys,82.1,2,Stephano Espejo,Plainview,78.47,195.04,117.93,190.51,503.49,Single-ply,SBD,M,
Boys,82.1,3,Manuel Lopez,Plainview,76.38,181.44,108.86,179.17,469.47,Single-ply,SBD,M,
Boys,82.1,4,Marcos Del Fierro,Canyon Randall,81.92,151.95,142.88,172.37,467.2,Single-ply,SBD,M,
Boys,82.1,5,Josh Ford,Lubbock,80.06,113.4,104.33,172.37,390.09,Single-ply,SBD,M,
Boys,82.1,6,Cedar Davis,Lubbock Cooper,80.15,124.74,72.57,154.22,351.53,Single-ply,SBD,M,
Boys,82.1,7,Harrison Sheppler,Lubbock,79.33,129.27,83.91,124.74,337.93,Single-ply,SBD,M,
Boys,89.81,1,Slade Harris,Canyon Randall,87.32,319.78,201.85,281.23,802.86,Single-ply,SBD,M,
Boys,89.81,2,Evan Height,Plainview,83.32,183.7,97.52,174.63,455.86,Single-ply,SBD,M,
Boys,99.79,1,Devlin Offutt,Lubbock Monterey,98.93,235.87,188.24,238.14,662.24,Single-ply,SBD,M,
Boys,99.79,2,Jordyn Vasquez,Plainview,95.03,181.44,129.27,183.7,494.42,Single-ply,SBD,M,
Boys,99.79,3,Jacob Landeros,Plainview,97.43,195.04,113.4,185.97,494.42,Single-ply,SBD,M,
Boys,99.79,4,Jaquim Rodriguez,Lubbock Cooper,97.34,172.37,124.74,176.9,474,Single-ply,SBD,M,
Boys,99.79,5,Dominic Narvaez,Canyon Randall,92.71,142.88,111.13,165.56,419.57,Single-ply,SBD,M,
Boys,109.77,1,Aiden Drerup,Canyon Randall,100.56,124.74,124.74,142.88,392.36,Single-ply,SBD,M,
Boys,109.77,2,Jaidon Garzes,Lubbock Monterey,104.24,142.88,90.72,129.27,362.87,Single-ply,SBD,M,
Boys,109.77,NS,Trenton White,Lubbock Monterey,,,,,,Single-ply,SBD,M,
Boys,124.74,1,Dillon Seaton,Canyon Randall,111.86,136.08,115.67,151.95,403.7,Single-ply,SBD,M,
Boys,124.74,NS,Laterrien McCullough,Lubbock Monterey,,,,,,Single-ply,SBD,M,
Boys,139.71,1,John Peralez,Lubbock Cooper,139.62,185.97,174.63,185.97,546.58,Single-ply,SBD,M,
Boys,139.71+,1,Chase Rodriguez,Lubbock Cooper,154.22,244.94,154.22,208.65,607.81,Single-ply,SBD,M,
Boys,139.71+,2,Brayan Olvera,Lubbock Monterey,149.28,249.48,124.74,215.46,589.67,Single-ply,SBD,M,
Boys,139.71+,3,Rocky Perez,Lubbock Monterey,155.49,204.12,138.35,197.31,539.77,Single-ply,SBD,M,
