Place,Name,Sex,BirthDate,Age,Country,Equipment,Division,BodyweightKg,WeightClassKg,Squat1Kg,Squat2Kg,Squat3Kg,Squat4Kg,Best3SquatKg,Bench1Kg,Bench2Kg,Bench3Kg,Bench4Kg,Best3BenchKg,Deadlift1Kg,Deadlift2Kg,Deadlift3Kg,Deadlift4Kg,Best3DeadliftKg,TotalKg,Event
1,Anita Miakisz,F,,21,Poland,Wraps,Juniors 20-23,53.4,56,70,75,-80,,75,45,50,-52.5,,50,-95,100,105,,105,230,SBD
1,Sara Šobak,F,,23,Croatia,Wraps,Juniors 20-23,75,75,-175,180,-200,,180,105,112.5,-120,,112.5,180,190,200,,200,492.5,SBD
1,Monika Świrska,F,,44,Poland,Wraps,Masters 40-49,57.3,60,115,122.5,125,,125,67.5,75,-77.5,,75,140,150,155,,155,355,SBD
2,Małgorzata Krzyżanowska,F,,41,Poland,Wraps,Masters 40-49,58.8,60,125,-132.5,132.5,,132.5,40,45,-52.5,,45,135,142.5,150,,150,327.5,SBD
1,Dorota Durczak,F,,32,Poland,Wraps,Open,53.5,56,-70,70,77.5,,77.5,50,55,-57.5,,55,90,95,100,,100,232.5,SBD
1,Anita Rygał,F,,30,Poland,Wraps,Open,66.8,67.5,-145,150,157.5,,157.5,-85,92.5,-97.5,,92.5,160,172.5,180,,180,430,SBD
1,Magda Koza,F,,26,Poland,Wraps,Open,74.9,75,-155,-155,160,,160,75,-82.5,-82.5,,75,160,170,-177.5,,170,405,SBD
1,Alicja Rojek,F,,15,Poland,Wraps,Teen 13-15,55.8,56,70,75,-77.5,,75,35,-40,-40,,35,100,110,-115,,110,220,SBD
1,Karolina Fafińska,F,,19,Poland,Wraps,Teen 18-19,55,56,70,-75,75,,75,27.5,30,32.5,,32.5,90,95,100,103,100,207.5,SBD
1,Daria Zielińska,F,,18,Poland,Wraps,Teen 18-19,60,60,-120,120,-130,,120,60,65,-70,,65,140,150,155,,155,340,SBD
1,Anna Kubaszewska,F,,25,Poland,Raw,Paralympic,56,56,,,,,,60,67.5,72.5,75,72.5,,,,,,72.5,B
1,Carmena Luty,F,,21,Poland,Raw,Juniors 20-23,58.4,60,,,,,,60,62.5,-65,-65.5,62.5,,,,,,62.5,B
1,Jagoda Owczarek,F,,18,Poland,Raw,Teen 18-19,60.4,67.5,,,,,,30,35,-37.5,,35,,,,,,35,B
1,Sara Šobak,F,,,Croatia,Raw,Juniors 20-23,75,75,,,,,,105,-115,115,-120,115,,,,,,115,B
1,Malgorzata Nitecka,F,,51,Poland,Raw,Masters 50-59,75.3,82.5,,,,,,42.5,47.5,52.5,-55,52.5,,,,,,52.5,B
1,Carmena Luty,F,,21,Poland,Raw,MPF,58.4,60,,,,,,60,62.5,-65,-65.5,62.5,,,,,,62.5,B
1,Aldona Kopeć,F,,26,Poland,Raw,Open,57.9,60,,,,,,57.5,-62.5,62.5,,62.5,,,,,,62.5,B
1,Joanna Kosik,F,,38,Poland,Raw,Open,63,67.5,,,,,,85,90,95,,95,,,,,,95,B
1,Marta Chachuła,F,,33,Poland,Raw,Open,70.5,75,,,,,,100,105,107.5,,107.5,,,,,,107.5,B
1,Anita Rygał,F,,30,Poland,Unlimited,Open,66.8,67.5,,,,,,110,120,-127.5,,120,,,,,,120,B
1,Elżbieta Kardaś,F,,20,Poland,Raw,Juniors 20-23,57.3,60,,,,,,,,,,,130,140,-145,,140,140,D
1,Renata Zapała,F,,26,Poland,Raw,Open,74.6,75,,,,,,,,,,,-115,115,130,,130,130,D
1,Alicja Rojek,F,,15,Poland,Raw,Teen 13-15,55.8,56,,,,,,,,,,,100,110,115,,115,115,D
1,Angelika Gryc,F,,17,Poland,Raw,Teen 16-17,75,75,,,,,,,,,,,130,140,150,,150,150,D
1,Magdalena Szpila,F,,18,Poland,Raw,Teen 18-19,47.6,48,,,,,,,,,,,110,120,122.5,,122.5,122.5,D
1,Kamil Kubicki,M,,21,Poland,Wraps,Juniors 20-23,59.4,60,-115,-115,115,,115,70,72.5,77.5,,77.5,115,120,-130,,120,312.5,SBD
1,Lukasz Jablonski,M,,21,Poland,Wraps,Juniors 20-23,62,67.5,170,175,-180,,175,95,100,-105,-105,100,190,202.5,207.5,-210,207.5,482.5,SBD
2,Kamil Sacharczuk,M,,22,Poland,Wraps,Juniors 20-23,66.7,67.5,145,155,170,,170,95,100,-105,,100,190,-210,-215,,190,460,SBD
DQ,Dawid Ożga,M,,21,Poland,Wraps,Juniors 20-23,77.5,82.5,-200,-200,-200,,,,,,,,,,,,,,SBD
1,Jakub Pączkowski,M,,23,Poland,Wraps,Juniors 20-23,86.5,90,240,250,260,,260,152.5,-160,160,,160,-260,260,-270,,260,680,SBD
DQ,Paweł Just,M,,21,Poland,Wraps,Juniors 20-23,83.2,90,-210,-225,-225,,,115,122.5,125,,125,190,205,-220,,205,,SBD
1,Kajetan Nakonieczny,M,,20,Poland,Wraps,Juniors 20-23,99.1,100,260,-275,275,,275,165,-172.5,-172.5,,165,245,260,275,,275,715,SBD
2,Michał Łopata,M,,22,Poland,Wraps,Juniors 20-23,97.8,100,185,200,215,,215,135,150,155,,155,220,-240,250,,250,620,SBD
1,Wojciech Walania,M,,44,Poland,Wraps,Masters 40-49,81.8,82.5,155,-165,-170,,155,115,125,130,,130,170,190,205,,205,490,SBD
1,Wojciech Szerszniew,M,,41,Poland,Wraps,Masters 40-49,87.1,90,175,190,195,,195,120,130,-137.5,,130,200,205,207.5,,207.5,532.5,SBD
2,Arkadiusz Kalinowski,M,,44,Poland,Wraps,Masters 40-49,89.8,90,150,165,175,,175,100,107.5,112.5,,112.5,210,225,-240,,225,512.5,SBD
1,Grzegorz Drewniany,M,,43,Poland,Wraps,Masters 40-49,100.4,110,-230,230,245,,245,155,-160,160,,160,230,240,245,,245,650,SBD
DQ,Sylwester Bigall,M,,41,Poland,Wraps,Masters 40-49,130.6,140,-280,-280,-280,,,150,-160,162.5,,162.5,240,250,260,,260,,SBD
1,Krzysztof Tur,M,,53,Poland,Wraps,Masters 50-59,85.9,90,-217.5,-217.5,217.5,,217.5,130,140,-145,,140,225,235,240,250,240,597.5,SBD
2,Peter Herák,M,,59,Slovakia,Wraps,Masters 50-59,89.3,90,-220,220,-240,,220,125,130,132.5,,132.5,220,235,-247.5,,235,587.5,SBD
1,Mariusz Rufkiewicz,M,,53,Poland,Wraps,Masters 50-59,97.6,100,180,200,-220,,200,130,140,145,,145,225,245,-255,,245,590,SBD
1,Przemysław Kawczyński,M,,26,Poland,Wraps,MPF,85.5,90,185,-205,215,,215,110,117.5,120,,120,230,245,-260,,245,580,SBD
1,Kamil Kidon,M,,32,Poland,Wraps,MPF,98.3,100,-235,235,-247.5,,235,155,162.5,165,,165,245,255,-262.5,,255,655,SBD
2,Jacek Tyma,M,,39,Poland,Wraps,MPF,97.5,100,180,-200,-200,,180,80,-100,-100,,80,190,200,-212.5,,200,460,SBD
1,Dariusz Korniak,M,,28,Poland,Wraps,MPF,109.2,110,250,265,-275,,265,150,-155,-155,,150,250,270,,,270,685,SBD
1,Tomasz Borowczyk,M,,32,Poland,Wraps,Open,74.7,75,-215,215,-222.5,223.5,215,125,130,137.5,,137.5,235,245,252.5,,252.5,605,SBD
2,Filip Dec,M,,27,Poland,Wraps,Open,75,75,-170,170,200,,200,120,130,-140,,130,200,220,235,,235,565,SBD
3,Patryk Wysocki,M,,25,Poland,Wraps,Open,72.9,75,190,195,-200,,195,110,117.5,122.5,,122.5,200,-205,-207.5,,200,517.5,SBD
4,Bartosz Wojcik,M,,37,Poland,Wraps,Open,74.3,75,150,-155,-155,,150,115,-120,120,,120,190,205,-210,,205,475,SBD
1,Mateusz Piórkowski,M,,29,Poland,Wraps,Open,81.9,82.5,220,230,242.5,,242.5,155,160,162.5,,162.5,255,-270,-270,,255,660,SBD
2,Patryk Duraj,M,,27,Poland,Wraps,Open,81.5,82.5,200,220,-250,,220,170,180,-190,,180,230,245,250,,250,650,SBD
3,Jakub Boczarski,M,,27,Poland,Wraps,Open,82.5,82.5,150,170,-180,,170,102.5,110,115,,115,190,210,-220,,210,495,SBD
1,Marcus Rosmalm,M,,28,Sweden,Wraps,Open,88.4,90,-260,-270,270,,270,185,-192.5,-192.5,,185,270,-290,290,,290,745,SBD
2,Piotr Popko,M,,25,Poland,Wraps,Open,89.2,90,-230,230,-245,,230,145,152.5,157.5,,157.5,235,245,255,,255,642.5,SBD
3,Przemysław Kawczyński,M,,26,Poland,Wraps,Open,85.5,90,185,-205,215,,215,110,117.5,120,,120,230,245,-260,,245,580,SBD
4,Łukasz Dobrowolski,M,,36,Poland,Wraps,Open,85.5,90,-190,190,-205,,190,125,132.5,137.5,,137.5,200,210,225,,225,552.5,SBD
DQ,Michał Lis,M,,31,Poland,Wraps,Open,89,90,260,-270,-270,,260,-145,-145,-145,,,,,,,,,SBD
DQ,Kamil Formella,M,,29,Poland,Wraps,Open,89.8,90,-215,-227.5,-230,,,-160,160,-170,,160,220,232.5,237.5,,237.5,,SBD
1,Szymon Pacholek,M,,24,Poland,Wraps,Open,99.3,100,245,252.5,260,,260,145,152.5,-160,,152.5,260,275,-287.5,,275,687.5,SBD
2,Adam Kozarski,M,,33,Poland,Wraps,Open,92.8,100,220,240,250,,250,160,-170,170,,170,230,240,-250,,240,660,SBD
3,Kamil Kidon,M,,32,Poland,Wraps,Open,98.3,100,-235,235,-247.5,,235,155,162.5,165,,165,245,255,-262.5,,255,655,SBD
4,Jakub Borkowski,M,,24,Poland,Wraps,Open,98.8,100,-200,200,205,,205,155,160,-162.5,,160,240,250,260,,260,625,SBD
5,Dawid Drężek,M,,24,Poland,Wraps,Open,95.5,100,195,205,215,,215,117.5,-122.5,,,117.5,180,192.5,200,,200,532.5,SBD
6,Marek Szymanski,M,,32,Poland,Wraps,Open,93.8,100,-185,185,195,,195,105,-110,110,,110,155,167.5,180,,180,485,SBD
7,Jacek Tyma,M,,39,Poland,Wraps,Open,97.5,100,180,-200,-200,,180,80,-100,-100,,80,190,200,-212.5,,200,460,SBD
1,Karol Frąckowiak,M,,28,Poland,Wraps,Open,109.9,110,-280,280,-300,,280,155,160,165,,165,275,285,-295,,285,730,SBD
2,Daniel Skalny,M,,25,Poland,Wraps,Open,109.5,110,250,260,-265,,260,162.5,167.5,-175,,167.5,275,290,-302.5,,290,717.5,SBD
3,Dariusz Korniak,M,,28,Poland,Wraps,Open,109.2,110,250,265,-275,,265,150,-155,-155,,150,250,270,,,270,685,SBD
4,Kamil Garski,M,,24,Poland,Wraps,Open,105.1,110,182.5,195,-205,,195,142.5,147.5,-152.5,,147.5,-190,190,-202.5,,190,532.5,SBD
1,Mateusz Sobczak,M,,25,Poland,Wraps,Open,129.1,140,-300,300,317.5,,317.5,140,150,157.5,,157.5,270,285,-300,,285,760,SBD
1,Filip Zajicek,M,,15,Czechia,Wraps,Teen 13-15,84.2,90,-150,150,-160,-170,150,100,-105,-105,,100,190,200,207.5,-210,207.5,457.5,SBD
1,Jakub Makosz,M,,17,Poland,Wraps,Teen 16-17,66.5,67.5,130,140,150,,150,100,110,-115,,110,170,-190,-190,,170,430,SBD
1,Patrik Pánis,M,,17,Slovakia,Wraps,Teen 16-17,77.6,82.5,170,190,200,,200,107.5,-115,115,-120,115,205,220,232.5,-237.5,232.5,547.5,SBD
1,Samuel Hojer,M,,17,Poland,Wraps,Teen 16-17,89.3,90,180,195,205,-210,205,145,152.5,155,-160,155,225,235,-242.5,,235,595,SBD
1,Sebastian Bogdan,M,,19,Poland,Wraps,Teen 18-19,73.4,75,-195,-200,200,,200,100,105,110,,110,195,202.5,207.5,,207.5,517.5,SBD
1,Konrad Saweczko,M,,19,Poland,Wraps,Teen 18-19,79.5,82.5,180,-190,190,,190,100,105,110,,110,190,200,210,,210,510,SBD
1,Filip Owczarek,M,,18,Poland,Wraps,Teen 18-19,84.7,90,170,180,-190,,180,105,110,-120,,110,180,190,200,,200,490,SBD
1,Alan Walkowiak,M,,18,Poland,Wraps,Teen 18-19,98.4,100,-182.5,182.5,202.5,,202.5,92.5,100,105,,105,190,205,215,,215,522.5,SBD
1,Jan Szopa,M,,18,Poland,Wraps,Teen 18-19,114.1,125,-215,-230,240,,240,125,132.5,-140,,132.5,235,-247.5,-255,,235,607.5,SBD
1,Bartosz Szczepankiewicz,M,,21,Poland,Single-ply,Juniors 20-23,91.4,100,240,270,-280,,270,180,200,-207.5,,200,215,-240,250,,250,720,SBD
1,Mieczysłąw Maczka,M,,66,Germany,Single-ply,Masters 60-69,86.4,90,120,140,155,,155,95,105,110,,110,135,152.5,165,,165,430,SBD
1,Mieczysłąw Maczka,M,,66,Germany,Single-ply,MPF,86.4,90,120,140,155,,155,95,105,110,,110,135,152.5,165,,165,430,SBD
DQ,Paweł Likus,M,,29,Poland,Single-ply,Open,82.5,82.5,220,-232.5,-240,,220,150,157.5,-165,,157.5,-220,-220,-220,,,,SBD
1,Sylwester Bigall,M,,41,Poland,Wraps,Masters 40-49,130.6,140,250,260,-270,,260,,,,,,,,,,,260,S
1,Peter Herák,M,,,,Wraps,Masters 50-59,89.3,90,210,-230,-240,,210,,,,,,,,,,,210,S
1,Mariusz Rufkiewicz,M,,53,Poland,Wraps,Masters 50-59,97.6,100,180,200,-220,,200,,,,,,,,,,,200,S
1,Przemysław Kawczyński,M,,26,Poland,Wraps,MPF,85.5,90,185,-205,215,,215,,,,,,,,,,,215,S
1,Jacek Tyma,M,,39,Poland,Wraps,MPF,97.5,100,180,-200,-200,,180,,,,,,,,,,,180,S
1,Maciej Kreczmer,M,,26,Poland,Wraps,Open,74,75,-150,150,-180,,150,,,,,,,,,,,150,S
1,Przemysław Kawczyński,M,,26,Poland,Wraps,Open,85.5,90,185,-205,215,,215,,,,,,,,,,,215,S
1,Jacek Tyma,M,,39,Poland,Wraps,Open,97.5,100,180,-200,-200,,180,,,,,,,,,,,180,S
1,Karol Frąckowiak,M,,28,Poland,Wraps,Open,109.9,110,-280,280,-300,,280,,,,,,,,,,,280,S
DQ,Dariusz Luniewski,M,,33,Poland,Wraps,Open,112.5,125,-225,-225,-225,,,,,,,,,,,,,,S
1,Remigiusz Zwoliński,M,,17,Poland,Single-ply,Teen 16-17,101.3,110,140,150,,,150,,,,,,,,,,,150,S
1,Bartłomiej Rogoziński,M,,38,Poland,Raw,Paralympic,105.5,110,,,,,,165,170,-175,,170,,,,,,170,B
1,Jakub Chrzanowski,M,,23,Poland,Raw,Juniors 20-23,74.6,75,,,,,,-190,200,207.5,,207.5,,,,,,207.5,B
1,Piotr Garbaczewski,M,,22,Poland,Raw,Juniors 20-23,94,100,,,,,,-185,187.5,-195,,187.5,,,,,,187.5,B
DQ,Kacper Klos,M,,22,Poland,Raw,Juniors 20-23,102.4,110,,,,,,-185,-185,-185,,,,,,,,,B
1,Oleksandr Klokov,M,,23,Poland,Raw,Juniors 20-23,132,140,,,,,,195,202.5,207.5,,207.5,,,,,,207.5,B
1,Szymon Gehrke,M,,41,Poland,Raw,Masters 40-49,65.6,67.5,,,,,,75,82.5,90,,90,,,,,,90,B
1,Norbert Hajas,M,,48,Hungary,Raw,Masters 40-49,69.3,75,,,,,,155,165,-172.5,,165,,,,,,165,B
1,Jacek Krysiuk,M,,47,Poland,Raw,Masters 40-49,81.1,82.5,,,,,,155,160,-165,,160,,,,,,160,B
1,Michał Kopiec,M,,45,Poland,Raw,Masters 40-49,89.2,90,,,,,,160,170,-175,,170,,,,,,170,B
1,Mihails Rekaiknis,M,,,,Raw,Masters 40-49,97.3,100,,,,,,150,160,-165,,160,,,,,,160,B
2,Dariusz Zwoliński,M,,,,Raw,Masters 40-49,90.8,100,,,,,,125,130,135,,135,,,,,,135,B
1,Marek Sadowski,M,,41,Poland,Raw,Masters 40-49,107.6,110,,,,,,197.5,205,210,,210,,,,,,210,B
2,Krzysztof Golendzinowski,M,,49,Poland,Raw,Masters 40-49,107.3,110,,,,,,145,155,170,,170,,,,,,170,B
1,Paweł Liszcz,M,,42,Poland,Raw,Masters 40-49,116.8,125,,,,,,250,255,257.5,260,257.5,,,,,,257.5,B
2,Rafał Pałubicki,M,,44,Poland,Raw,Masters 40-49,115.5,125,,,,,,220,230,-240,,230,,,,,,230,B
3,Maciek Kiślewski,M,,41,Poland,Raw,Masters 40-49,118,125,,,,,,190,202.5,-207.5,,202.5,,,,,,202.5,B
DQ,Robert Pastuszka,M,,49,Poland,Raw,Masters 40-49,113.6,125,,,,,,-185,-185,-185,,,,,,,,,B
1,Mats Eriksson,M,,,,Raw,Masters 50-59,95.8,100,,,,,,130,145,152.5,,152.5,,,,,,152.5,B
1,Roman Raczykowski,M,,59,Poland,Raw,Masters 50-59,104.4,110,,,,,,135,140,142.5,143.5,142.5,,,,,,142.5,B
DQ,Przemysław Szałas,M,,,Poland,Raw,Masters 50-59,115.4,125,,,,,,-200,-200,-200,,,,,,,,,B
1,Ryszard Wilczak,M,,65,Poland,Raw,Masters 60-69,101.9,110,,,,,,135,140,145,145.5,145,,,,,,145,B
2,Henryk Świerzy,M,,64,Poland,Raw,Masters 60-69,107.3,110,,,,,,135,-140,-140,,135,,,,,,135,B
1,Roman Wanot,M,,72,Poland,Raw,Masters 70+,81.9,82.5,,,,,,80,85,-90,,85,,,,,,85,B
DQ,Stefan Sochaňski,M,,,Poland,Raw,Masters 70+,89.2,90,,,,,,-80,-80,-80,,,,,,,,,B
1,Jan Cenkiel,M,,72,Poland,Raw,Masters 70+,96.1,100,,,,,,140,-145,-145,,140,,,,,,140,B
1,Jacek Krysiuk,M,,47,Poland,Raw,MPF,81.1,82.5,,,,,,155,160,-165,,160,,,,,,160,B
DQ,Grzegorz Kopaniarz,M,,32,Poland,Raw,MPF,88.8,90,,,,,,-195,-195,-195,,,,,,,,,B
DQ,Stefan Sochaňski,M,,,Poland,Raw,MPF,89.2,90,,,,,,-80,-80,-80,,,,,,,,,B
1,Tomasz Trzciński,M,,38,Poland,Raw,MPF,99.9,100,,,,,,215,222.5,-227.5,,222.5,,,,,,222.5,B
1,Marek Sadowski,M,,41,Poland,Raw,MPF,107.6,110,,,,,,197.5,205,210,,210,,,,,,210,B
1,Paweł Liszcz,M,,42,Poland,Raw,MPF,116.8,125,,,,,,250,255,257.5,260,257.5,,,,,,257.5,B
2,Maciek Kiślewski,M,,41,Poland,Raw,MPF,118,125,,,,,,190,202.5,-207.5,,202.5,,,,,,202.5,B
DQ,Kamil Bałdyga,M,,32,Poland,Raw,MPF,111.8,125,,,,,,-200,-200,-200,,,,,,,,,B
1,Marcin Jankowski,M,,36,Poland,Raw,MPF,140,140,,,,,,190,-200,-200,,190,,,,,,190,B
1,Łukasz Kozłowski,M,,37,Poland,Raw,Open,73.5,75,,,,,,-160,160,165,,165,,,,,,165,B
2,Maciej Kreczmer,M,,26,Poland,Raw,Open,74,75,,,,,,160,-165,-165,,160,,,,,,160,B
1,Łukasz Szczerba,M,,27,Poland,Raw,Open,82.5,82.5,,,,,,160,-170,170,,170,,,,,,170,B
2,Kamil Kuś,M,,30,Poland,Raw,Open,82,82.5,,,,,,155,162.5,165,,165,,,,,,165,B
1,Jakub Łabaj,M,,27,Poland,Raw,Open,89.8,90,,,,,,180,187.5,-190,,187.5,,,,,,187.5,B
2,Krystian Zięba,M,,26,Poland,Raw,Open,88.6,90,,,,,,170,180,-187.5,,180,,,,,,180,B
3,Patryk Kaczmarek,M,,25,Poland,Raw,Open,90,90,,,,,,-175,175,-180,,175,,,,,,175,B
4,Łukasz Skóra,M,,,,Raw,Open,89.9,90,,,,,,160,167.5,-172.5,,167.5,,,,,,167.5,B
DQ,Grzegorz Kopaniarz,M,,32,Poland,Raw,Open,88.8,90,,,,,,-195,-195,-195,,,,,,,,,B
1,Piotr Balcerek,M,,41,Poland,Raw,Open,99.5,100,,,,,,230,235,-240,,235,,,,,,235,B
2,Jarosław Buczko,M,,28,Poland,Raw,Open,100,100,,,,,,230,-240,-240,,230,,,,,,230,B
3,Tomasz Trzciński,M,,38,Poland,Raw,Open,99.9,100,,,,,,215,222.5,-227.5,,222.5,,,,,,222.5,B
4,Daniel Kowalczyk,M,,42,Poland,Raw,Open,94.8,100,,,,,,-200,210,-222.5,,210,,,,,,210,B
DQ,Maciej Kopacewicz,M,,25,Poland,Raw,Open,97.4,100,,,,,,-170,-170,-170,,,,,,,,,B
1,Adrian Grabski,M,,38,Poland,Raw,Open,108.2,110,,,,,,220,227.5,235,,235,,,,,,235,B
2,Marcin Gołębiewski,M,,,Poland,Raw,Open,105.7,110,,,,,,220,227.5,-235,,227.5,,,,,,227.5,B
3,Marijo Rukavina,M,,37,Croatia,Raw,Open,110,110,,,,,,225,,,,225,,,,,,225,B
4,Kamil Bykowski,M,,24,Poland,Raw,Open,100.3,110,,,,,,205,212.5,-217.5,,212.5,,,,,,212.5,B
5,Dawid Wełna,M,,,,Raw,Open,100.6,110,,,,,,200,-205,,,200,,,,,,200,B
6,Hani Lazam,M,,32,Poland,Raw,Open,106.3,110,,,,,,-200,200,-210,,200,,,,,,200,B
7,Aleksander Sykut,M,,26,Poland,Raw,Open,101.3,110,,,,,,-140,145,-155,,145,,,,,,145,B
1,Paweł Liszcz,M,,42,Poland,Raw,Open,116.8,125,,,,,,250,255,257.5,260,257.5,,,,,,257.5,B
2,Arkadiusz Herodowicz,M,,37,Poland,Raw,Open,118,125,,,,,,240,,,,240,,,,,,240,B
3,Rafał Pałubicki,M,,44,Poland,Raw,Open,115.5,125,,,,,,220,230,-240,,230,,,,,,230,B
4,Adam Sławnikowski,M,,33,Poland,Raw,Open,120.5,125,,,,,,200,-207.5,-207.5,,200,,,,,,200,B
DQ,Kamil Bałdyga,M,,32,Poland,Raw,Open,111.8,125,,,,,,-200,-200,-200,,,,,,,,,B
DQ,Dariusz Luniewski,M,,33,Poland,Raw,Open,112.5,125,,,,,,-175,-175,-175,,,,,,,,,B
1,Tomasz Wiktor,M,,,Poland,Raw,Open,130.5,140,,,,,,240,247.5,-252.5,,247.5,,,,,,247.5,B
2,Radek Filipi,M,,37,Czechia,Raw,Open,128.6,140,,,,,,192.5,-205,-205,,192.5,,,,,,192.5,B
3,Marcin Jankowski,M,,36,Poland,Raw,Open,140,140,,,,,,190,-200,-200,,190,,,,,,190,B
4,Marco Monea,M,,,Italy,Raw,Open,125.2,140,,,,,,125,-130,135,,135,,,,,,135,B
1,Marcin Zwoliński,M,,15,Poland,Raw,Teen 13-15,73.9,75,,,,,,85,90,-92.5,,90,,,,,,90,B
1,Konrad Schultz,M,,,Poland,Raw,Teen 16-17,88.2,90,,,,,,120,-130,-135,,120,,,,,,120,B
1,Kacper Grabowski,M,,17,Poland,Raw,Teen 16-17,98.9,100,,,,,,107.5,-115,-115,,107.5,,,,,,107.5,B
1,Michał Kowalski,M,,19,Poland,Raw,Teen 18-19,78.9,82.5,,,,,,-160,160,-170,,160,,,,,,160,B
1,Jan Pastuszek,M,,18,Poland,Raw,Teen 18-19,142.2,140+,,,,,,215,225,230,,230,,,,,,230,B
1,Marián Janovský,M,,20,Czechia,Single-ply,Juniors 20-23,98.2,100,,,,,,150,-157.5,-157.5,-170,150,,,,,,150,B
1,Igors Marudins,M,,,Latvia,Single-ply,Masters 40-49,87.5,90,,,,,,180,190,200,,200,,,,,,200,B
1,Mihails Rekaiknis,M,,44,Latvia,Single-ply,Masters 40-49,97.3,100,,,,,,210,-220,-220,,210,,,,,,210,B
1,Oskars Zvarts,M,,42,Ireland,Single-ply,Masters 40-49,144,140+,,,,,,250,260,270,,270,,,,,,270,B
1,Stefan Sochaňski,M,,,Poland,Single-ply,Masters 70+,89.2,90,,,,,,80,90,97.5,,97.5,,,,,,97.5,B
2,Stefan Sochaňski,M,,,Poland,Single-ply,MPF,89.2,90,,,,,,80,90,97.5,,97.5,,,,,,97.5,B
1,Paweł Pruszyński,M,,32,Poland,Single-ply,Open,87.9,90,,,,,,180,190,-195,,190,,,,,,190,B
DQ,Jan Satrapa,M,,34,Czechia,Single-ply,Open,96.3,100,,,,,,-235,-235,-242.5,,,,,,,,,B
1,Janík Velgos,M,,19,Slovakia,Single-ply,Teen 18-19,114.9,125,,,,,,-300,300,,,300,,,,,,300,B
1,Igors Marudins,M,,,Latvia,Unlimited,Masters 40-49,87.5,90,,,,,,190,-220,-225,,190,,,,,,190,B
1,Tomasz Obcowski,M,,,Poland,Unlimited,Masters 40-49,99.9,100,,,,,,340,-370,-380,,340,,,,,,340,B
1,Krzysztof Golendzinowski,M,,,,Unlimited,Masters 40-49,107.3,110,,,,,,170,190,202.5,,202.5,,,,,,202.5,B
1,Kamil Bałdyga,M,,32,Poland,Unlimited,MPF,111.8,125,,,,,,250,280,-302.5,,280,,,,,,280,B
1,Tomasz Borowczyk,M,,32,Poland,Unlimited,Open,74.7,75,,,,,,185,-200,207.5,,207.5,,,,,,207.5,B
1,Paweł Likus,M,,29,Poland,Unlimited,Open,82.5,82.5,,,,,,205,217.5,230,,230,,,,,,230,B
1,Paweł Krzemiński,M,,28,Poland,Unlimited,Open,87.3,90,,,,,,210,-220,220,,220,,,,,,220,B
2,Paweł Pruszyński,M,,,,Unlimited,Open,87.9,90,,,,,,170,190,-212.5,,190,,,,,,190,B
1,Tomasz Obcowski,M,,,Poland,Unlimited,Open,99.9,100,,,,,,340,-370,-380,,340,,,,,,340,B
1,Krystian Fijałkowski,M,,27,Poland,Unlimited,Open,101.8,110,,,,,,250,-265,265,,265,,,,,,265,B
1,Kamil Bałdyga,M,,32,Poland,Unlimited,Open,111.8,125,,,,,,250,280,-302.5,,280,,,,,,280,B
1,Radek Filipi,M,,37,Poland,Unlimited,Open,128.6,140,,,,,,205,215,222.5,,222.5,,,,,,222.5,B
1,Remigiusz Zwoliński,M,,,,Unlimited,Teen 16-17,101.3,110,,,,,,-160,180,-200,,180,,,,,,180,B
1,Pawel Gebusiak,M,,32,Poland,Raw,Paralympic,87,90,,,,,,,,,,,160,185,-200,,185,185,D
1,Kamil Sacharczuk,M,,22,Poland,Raw,Juniors 20-23,66.7,67.5,,,,,,,,,,,190,200,205,210,205,205,D
1,Paweł Pracownik,M,,47,Poland,Raw,Masters 40-49,73.2,75,,,,,,,,,,,240,250,260,,260,260,D
1,Dariusz Zwoliński,M,,46,Poland,Raw,Masters 40-49,90.8,100,,,,,,,,,,,165,175,-190,,175,175,D
1,Mariusz Bartołowicz,M,,40,Poland,Raw,Masters 40-49,109.5,110,,,,,,,,,,,270,285,290,,290,290,D
1,Mariusz Rufkiewicz,M,,53,Poland,Raw,Masters 50-59,97.6,100,,,,,,,,,,,225,245,-255,,245,245,D
1,Robert Nemś,M,,51,Poland,Raw,Masters 50-59,125,125,,,,,,,,,,,275,290,300,,300,300,D
1,Wiesław Wrŏbel,M,,63,Poland,Raw,Masters 60-69,98.5,100,,,,,,,,,,,230,250,,,250,250,D
1,Ryszard Śliwiński,M,,70,Poland,Raw,Masters 70+,74,75,,,,,,,,,,,140,-150,152.5,,152.5,152.5,D
1,Stefan Sochaňski,M,,,Poland,Raw,Masters 70+,89.2,90,,,,,,,,,,,160,175,,,175,175,D
1,Stefan Sochaňski,M,,,Poland,Raw,MPF,89.2,90,,,,,,,,,,,160,175,,,175,175,D
1,Przemysław Kawczyński,M,,26,Poland,Raw,MPF,85.5,90,,,,,,,,,,,230,245,-260,,245,245,D
1,Jacek Tyma,M,,39,Poland,Raw,MPF,97.5,100,,,,,,,,,,,190,200,-212.5,,200,200,D
1,Paweł Pracownik,M,,47,Poland,Raw,Open,73.2,75,,,,,,,,,,,240,250,260,,260,260,D
1,Bartłomiej Szaflarski,M,,30,Poland,Raw,Open,81.5,82.5,,,,,,,,,,,220,240,250,,250,250,D
2,Maciej Markowski,M,,36,Slovakia,Raw,Open,79.8,82.5,,,,,,,,,,,225,237.5,242.5,,242.5,242.5,D
1,Przemysław Kawczyński,M,,26,Poland,Raw,Open,85.5,90,,,,,,,,,,,230,245,-260,,245,245,D
1,Maciej Kopacewicz,M,,25,Poland,Raw,Open,97.4,100,,,,,,,,,,,250,270,-285,,270,270,D
2,Jacek Tyma,M,,39,Poland,Raw,Open,97.5,100,,,,,,,,,,,190,200,-212.5,,200,200,D
1,Mariusz Bartołowicz,M,,40,Poland,Raw,Open,109.5,110,,,,,,,,,,,270,285,290,,290,290,D
2,Karol Frąckowiak,M,,28,Poland,Raw,Open,109.9,110,,,,,,,,,,,275,285,-295,,285,285,D
1,Krzysztof Piekutin,M,,28,Poland,Raw,Open,112.3,125,,,,,,,,,,,295,305,315,,315,315,D
2,Sławomir Milewski,M,,39,Poland,Raw,Open,123.7,125,,,,,,,,,,,220,240,250,,250,250,D
1,Marcin Zwoliński,M,,15,Poland,Raw,Teen 13-15,73.9,75,,,,,,,,,,,140,150,160,,160,160,D
2,Jakub Jarończyk,M,,,Poland,Raw,Teen 13-15,68.4,75,,,,,,,,,,,130,145,155,,155,155,D
DQ,Filip Zajicek,M,,15,Czechia,Raw,Teen 13-15,84.2,90,,,,,,,,,,,-190,,,,,,D
1,Radosław Bober,M,,,Poland,Raw,Teen 16-17,55.7,56,,,,,,,,,,,140,150,155,,155,155,D
1,Mateusz Kubiak,M,,16,Poland,Raw,Teen 16-17,78.4,82.5,,,,,,,,,,,165,175,-182.5,,175,175,D
1,Remgiusz Zwolinski,M,,17,Poland,Raw,Teen 16-17,101.3,110,,,,,,,,,,,170,185,-200,,185,185,D
1,Robert Drozdowski,M,,41,Poland,Raw,Masters 40-49,121.9,125,,,,,,,,,,,280,290,300,,300,300,D
1,Robert Drozdowski,M,,41,Poland,Raw,MPF,121.9,125,,,,,,,,,,,280,290,300,,300,300,D
1,Jakub Pączkowski,M,,23,Poland,Single-ply,Juniors 20-23,86.5,90,,,,,,,,,,,260,275,-290,,275,275,D
1,Bartosz Szczepankiewicz,M,,21,Poland,Single-ply,Juniors 20-23,91.4,100,,,,,,,,,,,250,-265,-270,,250,250,D
DQ,Mats Eriksson,M,,59,Sweden,Single-ply,Masters 50-59,95.8,100,,,,,,,,,,,-240,-260,-260,,,,D
1,Wiesław Wrŏbel,M,,,,Single-ply,Masters 60-69,98.5,100,,,,,,,,,,,220,240,250,,250,250,D
1,Stefan Sochaňski,M,,,Poland,Single-ply,Masters 70+,89.2,90,,,,,,,,,,,165,185,,,185,185,D
1,Stefan Sochaňski,M,,,Poland,Single-ply,MPF,89.2,90,,,,,,,,,,,165,185,,,185,185,D
1,Tomasz Miloch,M,,37,Poland,Single-ply,Open,77.8,82.5,,,,,,,,,,,250,270,-275,,270,270,D
DQ,Mats Eriksson,M,,59,Sweden,Single-ply,Open,95.8,100,,,,,,,,,,,-240,-260,-260,,,,D
1,Peter Hallberg,M,,33,Sweden,Single-ply,Open,110,110,,,,,,,,,,,280,300,310,,310,310,D
1,Andrea DiPalma,M,,,Italy,Single-ply,Open,136.5,140,,,,,,,,,,,325,-340,340,,340,340,D
1,Mikołaj Wójcicki,M,,23,Poland,Unlimited,MPF,88.2,90,,,,,,,,,,,260,275,280,,280,280,D
2,Mikołaj Wójcicki,M,,23,Poland,Unlimited,Open,88.2,90,,,,,,,,,,,260,275,280,,280,280,D
1,Piotr Gaj,M,,26,Poland,Unlimited,Open,110,110,,,,,,,,,,,310,-320,-320,,310,310,D
