Place,Name,Division,BirthYear,Country,BodyweightKg,Bench1Kg,Bench2Kg,Bench3Kg,Best3BenchKg,WeightClassKg,Sex,CyrillicName,Equipment,Tested,Event,TotalKg,Deadlift1Kg,Deadlift2Kg,Deadlift3Kg,Best3DeadliftKg
1,Anastasiya Dzyuba,Y,2003,Russia,43.4,47.5,52.5,-55,52.5,44,F,Анастасия Дзюба,Raw,Yes,B,52.5,,,,
2,Elizaveta Martynova,T1,2001,Russia,40.5,40,42.5,-45,42.5,44,F,Елизавета Мартынова,Raw,Yes,B,42.5,,,,
1,Anastasiya Salyaeva,T3,1995,Russia,49.75,50,52.5,55,55,52,F,Анастасия Саляева,Raw,Yes,B,55,,,,
1,Anna Goleneva,O,1990,Russia,51.55,60,62.5,65,65,52,F,Анна Голенева,Raw,Yes,B,65,,,,
2,Elizaveta Koloskova,O,1986,Russia,51.8,50,-52.5,52.5,52.5,52,F,Елизавета Колоскова,Raw,Yes,B,52.5,,,,
DQ,Mariya Ursalova,T1,1999,Russia,54.3,-35,-40,-42.5,,56,F,Мария Урсалова,Raw,Yes,B,,,,,
1,Tatyana Kyalgina,T2,1997,Russia,52.6,52.5,55,57.5,57.5,56,F,Татьяна Кяльгина,Raw,Yes,B,57.5,,,,
1,Ekaterina Dudareva,J,1993,Russia,56,57.5,62.5,-65,62.5,56,F,Екатерина Дударева,Raw,Yes,B,62.5,,,,
1,Tatyana Zhemerya,O,1975,Russia,58.95,70,-75,-75,70,60,F,Татьяна Жемеря,Raw,Yes,B,70,,,,
1,Darya Iospa,T2,1997,Russia,,52.5,57.5,-60,57.5,67.5,F,Дарья Иоспа,Raw,Yes,B,57.5,,,,
1,Yuliya Mikhaylova,J,1991,Russia,66.6,55,60,65,65,67.5,F,Юлия Михайлова,Raw,Yes,B,65,,,,
2,Irina Vagina,J,1994,Russia,61.5,35,-37.5,-40,35,67.5,F,Ирина Вагина,Raw,Yes,B,35,,,,
1,Yuliya Kamorina,O,1987,Russia,62.8,60,65,67.5,67.5,67.5,F,Юлия Каморина,Raw,Yes,B,67.5,,,,
2,Mariya Ekimovskaya,O,1989,Russia,64.7,52.5,55,57.5,57.5,67.5,F,Мария Екимовская,Raw,Yes,B,57.5,,,,
1,Kseniya Lavrova,T3,1995,Russia,72.3,-65,70,72.5,72.5,75,F,Ксения Лаврова,Raw,Yes,B,72.5,,,,
1,Marina Zoschik,O,1976,Russia,71.6,-75,75,77.5,77.5,75,F,Марина Зощик,Raw,Yes,B,77.5,,,,
1,Yustina Boryu,O,1987,Russia,78.7,75,80,82.5,82.5,82.5,F,Юстина Борю,Raw,Yes,B,82.5,,,,
1,Artur Myakishev,Y,2003,Russia,47.8,32.5,-37.5,37.5,37.5,52,M,Артур Мякишев,Raw,Yes,B,37.5,,,,
1,Ilkhom Ergashev,T3,1996,Russia,51.8,80,90,95,95,52,M,Ильхом Эргашев,Raw,Yes,B,95,,,,
1,Aleksey Grishanov,T1,2000,Russia,55.1,-57.5,62.5,-65,62.5,56,M,Алексей Гришанов,Raw,Yes,B,62.5,,,,
1,Sergey Samodurov,T1,2000,Russia,53.5,57.5,60,-62.5,60,56,M,Сергей Самодуров,Raw,Yes,B,60,,,,
1,Vladimir Domnin,T3,1995,Russia,57.6,85,90,97.5,97.5,60,M,Владимир Домнин,Raw,Yes,B,97.5,,,,
2,Aleksandr Lebedev,T3,,Russia,58.5,87.5,95,-97.5,95,60,M,Александр Лебедев,Raw,Yes,B,95,,,,
1,Ivan Solomichev,O,1999,Russia,58.7,85,87.5,-90,87.5,60,M,Иван Соломичев,Raw,Yes,B,87.5,,,,
1,Anton Saliy,PFM,1993,Russia,59.35,-92.5,92.5,97.5,97.5,60,M,Антон Салий,Raw,Yes,B,97.5,,,,
1,Ilya Medvedev,T1,1999,Russia,67.2,75,85,-87.5,85,67.5,M,Илья Медведев,Raw,Yes,B,85,,,,
1,Vadim Kazhlaev,T2,1998,Russia,66.8,95,107.5,-115,107.5,67.5,M,Вадим Кажлаев,Raw,Yes,B,107.5,,,,
1,Aleksey Repin,T3,1995,Russia,66.3,110,115,-117.5,115,67.5,M,Алексей Репин,Raw,Yes,B,115,,,,
1,Ivan Luchenkov,J,1991,Russia,61.95,120,-125,125,125,67.5,M,Иван Лученков,Raw,Yes,B,125,,,,
2,Mikhail Bazarskiy,J,1992,Russia,65.6,-107.5,-107.5,107.5,107.5,67.5,M,Михаил Базарский,Raw,Yes,B,107.5,,,,
1,Sergey Nikitchenko,O,1978,Russia,67.3,125,-130,-132.5,125,67.5,M,Сергей Никитченко,Raw,Yes,B,125,,,,
2,Nikolay Prokaev,O,1987,Russia,66.1,-100,100,107.5,107.5,67.5,M,Николай Прокаев,Raw,Yes,B,107.5,,,,
3,Ivan Kanuntsev,O,1987,Russia,66.5,90,-100,-100,90,67.5,M,Иван Канунцев,Raw,Yes,B,90,,,,
1,Dmitriy Golubev,M1,1971,Russia,67.3,107.5,117.5,-125,117.5,67.5,M,Дмитрий Голубев,Raw,Yes,B,117.5,,,,
1,Ilya Kuvshinov,T1,1999,Russia,68.1,100,110,117.5,117.5,75,M,Илья Кувшинов,Raw,Yes,B,117.5,,,,
2,Sergey Borisov,T1,2000,Russia,72.5,95,105,-117.5,105,75,M,Сергей Борисов,Raw,Yes,B,105,,,,
1,Aleksandr Nastyushkin,T2,1998,Russia,70.7,110,117.5,-120,117.5,75,M,Александр Настюшкин,Raw,Yes,B,117.5,,,,
1,Daniil Arzhakov,T3,1995,Russia,73.45,135,140,142.5,142.5,75,M,Даниил Аржаков,Raw,Yes,B,142.5,,,,
2,Dmitriy Dzhus,T3,1995,Russia,73.6,-130,-130,130,130,75,M,Дмитрий Джус,Raw,Yes,B,130,,,,
1,Maksim Bogdanov,J,1992,Russia,72,170,180,-185,180,75,M,Максим Богданов,Raw,Yes,B,180,,,,
2,Ilya Varshavskiy,J,1991,Russia,73.25,165,-167.5,167.5,167.5,75,M,Илья Варшавский,Raw,Yes,B,167.5,,,,
3,Denis Ardemasov,J,1992,Russia,73.35,117.5,125,-135,125,75,M,Денис Ардемасов,Raw,Yes,B,125,,,,
DQ,Ravil Mukhamedchin,J,1993,Russia,73.65,-135,-135,-135,,75,M,Равиль Мухамедчин,Raw,Yes,B,,,,,
1,Ilya Varshavskiy,O,1991,Russia,73.25,165,-167.5,167.5,167.5,75,M,Илья Варшавский,Raw,Yes,B,167.5,,,,
2,Aleksandr Gontarenko,O,1990,Russia,73.2,-150,150,-157.5,150,75,M,Александр Гонтаренко,Raw,Yes,B,150,,,,
3,Sergey Gornev,O,1984,Russia,73.8,125,-135,-135,125,75,M,Сергей Горнев,Raw,Yes,B,125,,,,
DQ,Evgeniy Batyaev,O,1986,Russia,73.9,-110,-110,-110,,75,M,Евгений Батяев,Raw,Yes,B,,,,,
DQ,Pavel Baydin,O,1990,Russia,73.35,-130,-135,-135,,75,M,Павел Байдин,Raw,Yes,B,,,,,
1,Aleksandr Glubshev,M1,1966,Russia,73.4,117.5,122.5,-127.5,122.5,75,M,Александр Глубшев,Raw,Yes,B,122.5,,,,
DQ,Aleksandr Volchenkov,PFM,1984,Russia,74,-120,-120,-120,,75,M,Александр Волченков,Raw,Yes,B,,,,,
3,Evgeniy Dyatlov,T2,1997,Russia,82,-135,-135,135,135,82.5,M,Евгений Дятлов,Raw,Yes,B,135,,,,
1,Artem Aladyshev,T2,1997,Russia,77,100,110,112.5,112.5,82.5,M,Артем Аладышев,Raw,Yes,B,112.5,,,,
2,Georgiy Yagunov,T2,1997,Russia,80.7,-105,-105,105,105,82.5,M,Георгий Ягунов,Raw,Yes,B,105,,,,
1,Ruben Kazaryan,T3,1995,Russia,80.95,122.5,-127.5,127.5,127.5,82.5,M,Рубен Казарян,Raw,Yes,B,127.5,,,,
1,Aleksandr Boldinov,J,1992,Russia,81.05,140,150,157.5,157.5,82.5,M,Александр Болдинов,Raw,Yes,B,157.5,,,,
2,Vitaliy Kremnev,J,1993,Russia,79.4,145,-155,-157.5,145,82.5,M,Виталий Кремнев,Raw,Yes,B,145,,,,
1,Ilya Pankratov,O,1986,Russia,80.8,200,205,-210,205,82.5,M,Илья Панкратов,Raw,Yes,B,205,,,,
2,Leonid Schukin,O,1982,Russia,81.8,150,157.5,-165,157.5,82.5,M,Леонид Щукин,Raw,Yes,B,157.5,,,,
3,Narek Manucharyan,O,1990,Russia,81.1,150,-155,-155,150,82.5,M,Нарек Манучарян,Raw,Yes,B,150,,,,
4,Evgeniy Gordeev,O,1988,Russia,81.2,145,150,-152.5,150,82.5,M,Евгений Гордеев,Raw,Yes,B,150,,,,
DQ,Aleksey Aleshin,O,1976,Russia,82,-145,-145,-145,,82.5,M,Алексей Алешин,Raw,Yes,B,,,,,
DQ,Evgeniy Plaksin,O,1987,Russia,79.8,-135,-135,-135,,82.5,M,Евгений Плаксин,Raw,Yes,B,,,,,
1,Pavel Zhirnov,M1,1971,Russia,,137.5,142.5,147.5,147.5,82.5,M,Павел Жирнов,Raw,Yes,B,147.5,,,,
1,Yuriy Babarykin,M2,1958,Russia,82.05,120,-125,-125,120,82.5,M,Юрий Бабарыкин,Raw,Yes,B,120,,,,
2,Vladimir Panfilov,M2,1953,Russia,80.9,110,-115,-115,110,82.5,M,Владимир Панфилов,Raw,Yes,B,110,,,,
1,Sergey Sivak,PFM,1979,Russia,78.75,145,150,152.5,152.5,82.5,M,Сергей Сивак,Raw,Yes,B,152.5,,,,
2,Mikhail Fedotov,PFM,1980,Russia,78.3,145,-147.5,-147.5,145,82.5,M,Михаил Федотов,Raw,Yes,B,145,,,,
3,Artem Naumenko,PFM,1992,Russia,79.4,132.5,137.5,-145,137.5,82.5,M,Артем Науменко,Raw,Yes,B,137.5,,,,
DQ,Aleksey Kovalenko,T3,1995,Russia,87.35,-130,-130,-130,,90,M,Алексей Коваленко,Raw,Yes,B,,,,,
1,Artem Logunov,J,1991,Russia,89.6,192.5,197.5,-200,197.5,90,M,Артем Логунов,Raw,Yes,B,197.5,,,,
2,Maksim Tolmachev,J,1991,Russia,88.9,165,-175,-175,165,90,M,Максим Толмачев,Raw,Yes,B,165,,,,
1,Dmitriy Sevostyanov,O,1989,Russia,88.6,-175,177.5,-182.5,177.5,90,M,Дмитрий Севостьянов,Raw,Yes,B,177.5,,,,
2,Farkhad Khudaverdiev,O,1981,Russia,89.25,170,-175,-175,170,90,M,Фархад Худавердиев,Raw,Yes,B,170,,,,
3,Vladimir Pospelov,O,1988,Russia,81.9,-152.5,-155,155,155,82.5,M,Владимир Поспелов,Raw,Yes,B,155,,,,
4,Aleksey Shipilov,O,1986,Russia,87.25,145,152.5,-155,152.5,90,M,Алексей Шипилов,Raw,Yes,B,152.5,,,,
5,Ivan Kuzin,O,1978,Russia,86.7,-130,135,-137.5,135,90,M,Иван Кузин,Raw,Yes,B,135,,,,
DQ,Roman Churkin,O,1978,Russia,88.7,-130,-137.5,-137.5,,90,M,Роман Чуркин,Raw,Yes,B,,,,,
1,Konstantin Topychkanov,M1,1972,Russia,89.4,160,170,-180,170,90,M,Константин Топычканов,Raw,Yes,B,170,,,,
2,Sergey Korolev,M1,1972,Russia,88.95,132.5,142.5,-147.5,142.5,90,M,Сергей Королев,Raw,Yes,B,142.5,,,,
1,Aleksandr Matveev,PFM,1974,Russia,89,165,170,175,175,90,M,Александр Матвеев,Raw,Yes,B,175,,,,
2,Aleksandr Baranov,PFM,1985,Russia,85.8,150,155,-162.5,155,90,M,Александр Баранов,Raw,Yes,B,155,,,,
3,Aleksey Kuchnerov,PFM,1981,Russia,89.2,155,-162.5,-162.5,155,90,M,Алексей Кучнеров,Raw,Yes,B,155,,,,
4,Bakhtygaliy Kuzbakov,PFM,1979,Russia,84.15,137.5,145,-152.5,145,90,M,Бахтыгалий Кузбаков,Raw,Yes,B,145,,,,
5,Sergey Vlasov,PFM,1991,Russia,84.7,135,140,-145,140,90,M,Сергей Власов,Raw,Yes,B,140,,,,
1,Arseniy Fedorov,T2,1997,Russia,93.5,-100,140,150,150,100,M,Арсений Федоров,Raw,Yes,B,150,,,,
1,Maksim Menshakov,T3,1996,Russia,94.4,110,115,120,120,100,M,Максим Меньшаков,Raw,Yes,B,120,,,,
1,Igor Kostin,J,1991,Russia,94.9,185,-190,190,190,100,M,Игорь Костин,Raw,Yes,B,190,,,,
2,Evgeniy Milovanov,J,1993,Russia,97.3,175,185,-190,185,100,M,Евгений Милованов,Raw,Yes,B,185,,,,
3,Evgeniy Frolov,J,1991,Russia,94.75,160,-167.5,167.5,167.5,100,M,Евгений Фролов,Raw,Yes,B,167.5,,,,
4,Faridun Imomatov,J,1993,Russia,95.1,150,-160,-160,150,100,M,Фаридун Имоматов,Raw,Yes,B,150,,,,
DQ,Aleksey Kryukov,J,1991,Russia,98.1,-150,-150,-160,,100,M,Алексей Крюков,Raw,Yes,B,,,,,
1,Alexandr Pagin,O,1978,Russia,91.9,180,-185,185,185,100,M,Александр Пагин,Raw,Yes,B,185,,,,
2,Aleksandr Kalyagin,O,1983,Russia,97.1,185,-192.5,-192.5,185,100,M,Александр Калягин,Raw,Yes,B,185,,,,
3,Ivan Utkin,O,1989,Russia,99.7,145,152.5,155,155,100,M,Иван Уткин,Raw,Yes,B,155,,,,
4,Yuriy Rodinovskiy,O,1990,Russia,98.25,152.5,-160,-160,152.5,100,M,Юрий Родиновский,Raw,Yes,B,152.5,,,,
5,Sergey Lifatov,O,1989,Russia,98,140,145,-147.5,145,100,M,Сергей Лифатов,Raw,Yes,B,145,,,,
6,Dmitriy Lisitsyn,O,1980,Russia,98.2,130,140,-145,140,100,M,Дмитрий Лисицын,Raw,Yes,B,140,,,,
DQ,Aleksandr Smirnov,O,1986,Russia,96,-160,-160,-160,,100,M,Александр Смирнов,Raw,Yes,B,,,,,
1,Oleg Korchagin,M1,1973,Russia,98.5,-180,180,190,190,100,M,Олег Корчагин,Raw,Yes,B,190,,,,
2,Dmitriy Galin,M1,1968,Russia,97.6,150,160,-165,160,100,M,Дмитрий Галин,Raw,Yes,B,160,,,,
1,Dmitriy Nadzha,PFM,1975,Russia,97,175,180,185,185,100,M,Дмитрий Наджа,Raw,Yes,B,185,,,,
2,Ruslan Ermakov,PFM,1980,Russia,99.4,150,-155,-155,150,100,M,Руслан Ермаков,Raw,Yes,B,150,,,,
2,Arutyun Arutyunyan,J,1993,Russia,105.5,200,205,-210,205,110,M,Арутюн Арутюнян,Raw,Yes,B,205,,,,
3,Dmitriy Frank,J,1994,Russia,107.3,180,-190,192.5,192.5,110,M,Дмитрий Франк,Raw,Yes,B,192.5,,,,
1,Kirill Sergushkin,J,1992,Russia,108.8,170,-185,-185,170,110,M,Кирилл Сергушкин,Raw,Yes,B,170,,,,
DQ,Artur Sidorov,J,1993,Russia,107.2,-155,-155,-155,,110,M,Артур Сидоров,Raw,Yes,B,,,,,
1,Sergey Demchenko,O,1976,Russia,106.9,180,195,-200,195,110,M,Сергей Демченко,Raw,Yes,B,195,,,,
2,Pavel Negoduyko,O,1988,Russia,107.7,-165,-165,165,165,110,M,Павел Негодуйко,Raw,Yes,B,165,,,,
3,Aleksey Belash,O,1982,Russia,103.7,140,155,-160,155,110,M,Алексей Белаш,Raw,Yes,B,155,,,,
1,Mikhail Shevyakov,M1,1974,Russia,106.6,167.5,-175,-175,167.5,110,M,Михаил Шевяков,Raw,Yes,B,167.5,,,,
2,Ruslan Kataev,M1,1969,Russia,107.4,-155,-155,155,155,110,M,Руслан Катаев,Raw,Yes,B,155,,,,
1,Sergey Filinovich,M2,1962,Russia,100.7,155,160,165,165,110,M,Сергей Филинович,Raw,Yes,B,165,,,,
1,Vasiliy Reznikov,PFM,1984,Russia,101.3,150,-155,-155,150,110,M,Василий Резников,Raw,Yes,B,150,,,,
2,Dmitriy Zimin,PFM,1987,Russia,109.5,150,,,150,110,M,Дмитрий Зимин,Raw,Yes,B,150,,,,
1,Dmitriy Rychagov,J,1994,Russia,113.6,-135,135,-140,135,125,M,Дмитрий Рычагов,Raw,Yes,B,135,,,,
1,Sergey Bobchikhin,O,1975,Russia,120.2,200,210,-212.5,210,125,M,Сергей Бобчихин,Raw,Yes,B,210,,,,
2,Andrey Ponomarev,O,1976,Russia,114.4,175,-182.5,-182.5,175,125,M,Андрей Пономарев,Raw,Yes,B,175,,,,
3,Anton Popov,O,1982,Russia,112.1,160,167.5,-175,167.5,125,M,Антон Попов,Raw,Yes,B,167.5,,,,
4,Igor Proskuryakov,O,1989,Russia,120.7,160,-175,-175,160,125,M,Игорь Проскуряков,Raw,Yes,B,160,,,,
1,Sergey Milovanov,M1,1973,Russia,116.9,185,-190,-190,185,125,M,Сергей Милованов,Raw,Yes,B,185,,,,
2,Valeriy Yakovenko,M1,1968,Russia,115.2,175,-180,,175,125,M,Валерий Яковенко,Raw,Yes,B,175,,,,
3,Yuriy Gorbachev,M1,1965,Russia,111.1,-165,-165,165,165,125,M,Юрий Горбачев,Raw,Yes,B,165,,,,
4,Aleksey Shoniya,M1,1970,Russia,123.4,165,-170,,165,125,M,Алексей Шония,Raw,Yes,B,165,,,,
1,Andrey Khramtsov,O,1984,Russia,125.7,180,205,215,215,140,M,Андрей Храмцов,Raw,Yes,B,215,,,,
1,Sergey Aladyshev,M1,1971,Russia,135.75,160,175,-190,175,140,M,Сергей Аладышев,Raw,Yes,B,175,,,,
1,Sergey Kuzin,PFM,1975,Russia,130.6,170,-175,,170,140,M,Сергей Кузин,Raw,Yes,B,170,,,,
1,Roman Mishurenkov,O,1982,Russia,140.2,195,205,-215,205,140+,M,Роман Мишуренков,Raw,Yes,B,205,,,,
1,Kseniya Kozlova,J,1992,Belarus,60,40,45,52.5,52.5,60,F,,Raw,No,B,52.5,,,,
1,Irina Naumova,O,1983,Russia,58.65,50,55,57.5,57.5,60,F,Ирина Наумова,Raw,No,B,57.5,,,,
1,Ekaterina Makulicheva,O,1984,Russia,58,40,45,-50,45,60,F,Екатерина Макуличева,Raw,No,B,45,,,,
1,Valeriya Bukina,O,1990,Russia,66.1,85,-95,-95,85,67.5,F,Валерия Букина,Raw,No,B,85,,,,
1,Alina Fadeeva,O,1988,Russia,73.4,110,115,-120,115,75,F,Алина Фадеева,Raw,No,B,115,,,,
1,Natalya Solomicheva,PFM,1969,Russia,89.4,57.5,60,-62.5,60,90,F,Наталья Соломичева,Raw,No,B,60,,,,
1,Sergei Karaziya,O,1987,Russia,53.6,152.5,157.5,-162.5,157.5,56,M,Сергей Каразия,Raw,No,B,157.5,,,,
1,Andrei Rudakov,T3,1996,Russia,65.5,112.5,117.5,120,120,67.5,M,Андрей Рудаков,Raw,No,B,120,,,,
1,Dmitriy Borisenko,O,1988,Russia,64.3,120,125,130,130,67.5,M,Дмитрий Борисенко,Raw,No,B,130,,,,
2,Sergey Buryakov,O,1977,Russia,64.9,105,110,-115,110,67.5,M,Сергей Буряков,Raw,No,B,110,,,,
1,Aleksey Zhavoronkov,T3,1996,Russia,71.65,150,-157.5,,150,75,M,Алексей Жаворонков,Raw,No,B,150,,,,
1,Aleksey Zhizhin,J,1992,Russia,74.65,130,-140,-140,130,75,M,Алексей Жижин,Raw,No,B,130,,,,
DQ,Nikita Bobrov,J,1994,Russia,72,-120,-120,-120,,75,M,Никита Бобров,Raw,No,B,,,,,
1,Roman Eremashvili,O,1981,Belarus,71.3,215,225,230.5,230.5,75,M,,Raw,No,B,230.5,,,,
2,Aleksandr Medvedev,O,1982,Russia,73.9,140,145,-150,145,75,M,Александр Медведев,Raw,No,B,145,,,,
1,Aleksandr Leonov,M2,1959,Russia,74.9,95,100,,100,75,M,Александр Леонов,Raw,No,B,100,,,,
1,Vyacheslav Makarov,PFM,1975,Russia,74.6,120,-130,-130,120,75,M,Вячеслав Макаров,Raw,No,B,120,,,,
DQ,Vyacheslav Kleyn,T2,1998,Russia,81.85,-120,,,,82.5,M,Вячеслав Клейн,Raw,No,B,,,,,
1,Daniil Kryukov,T3,1995,Russia,79.8,125,137.5,140,140,82.5,M,Даниил Крюков,Raw,No,B,140,,,,
1,Anton Altukhov,J,1991,Russia,82.5,170,-180,-180,170,82.5,M,Антон Алтухов,Raw,No,B,170,,,,
1,Stanislav Milostnoy,O,1978,Russia,76.2,230,235,237.5,237.5,82.5,M,Станислав Милостной,Raw,No,B,237.5,,,,
2,Konstantin Zhigulin,O,1987,Russia,78.4,160,165,-167.5,165,82.5,M,Константин Жигулин,Raw,No,B,165,,,,
3,Aleksandr Zaytsev,O,1987,Russia,80.7,150,160,-167.5,160,82.5,M,Александр Зайцев,Raw,No,B,160,,,,
4,Nikolay Petrakovich,O,1979,Russia,78.2,132.5,-137.5,-137.5,132.5,82.5,M,Николай Петракович,Raw,No,B,132.5,,,,
1,Nikolay Novokshonov,M1,1973,Russia,77.8,160,167.5,172.5,172.5,82.5,M,Николай Новокшонов,Raw,No,B,172.5,,,,
1,Sergey Goncharov,M2,1952,Russia,79,120,125,-130,125,82.5,M,Сергей Гончаров,Raw,No,B,125,,,,
1,Andrey Fadeev,T1,1999,Russia,84.8,110,-120,-120,110,90,M,Андрей Фадеев,Raw,No,B,110,,,,
1,Aleksandr Fedorkov,T3,1996,Russia,87.35,135,145,-150,145,90,M,Александр Федорков,Raw,No,B,145,,,,
DQ,Andranik Grigoryan,T3,1996,Russia,89.8,-180,-180,-180,,90,M,Андраник Григорян,Raw,No,B,,,,,
1,Maksim Popov #6,J,1991,Russia,88.9,-165,170,-175,170,90,M,Максим Попов,Raw,No,B,170,,,,
2,Aleksandr Krinitsyn,J,1993,Russia,83.5,155,165,-167.5,165,90,M,Александр Криницын,Raw,No,B,165,,,,
3,Ilya Timkin,J,1992,Russia,88.85,125,140,-142.5,140,90,M,Илья Тимкин,Raw,No,B,140,,,,
1,Nikolay Sarafanov,O,1983,Russia,90,190,200,-207.5,200,90,M,Николай Сарафанов,Raw,No,B,200,,,,
2,Shamil Askerov,O,1989,Russia,88.1,145,-152.5,-155,145,90,M,Шамиль Аскеров,Raw,No,B,145,,,,
3,Rafael Babaev,O,1983,Russia,87.5,120,-135,-137.5,120,90,M,Рафаэль Бабаев,Raw,No,B,120,,,,
1,Dmitriy Semenov,M1,1965,Russia,88.1,135,140,-145,140,90,M,Дмитрий Семенов,Raw,No,B,140,,,,
1,Sergey Vasilyev,M2,1961,Russia,86.85,140,145,-147.5,145,90,M,Сергей Васильев,Raw,No,B,145,,,,
1,Sergey Petukhov,PFM,1982,Russia,86.05,150,152.5,-155,152.5,90,M,Сергей Петухов,Raw,No,B,152.5,,,,
1,Dmitriy Chernov,T3,1995,Russia,95.4,160,170,-180,170,100,M,Дмитрий Чернов,Raw,No,B,170,,,,
1,Aleksandr Glushnev,J,1992,Russia,97.7,-215,215,-216,215,100,M,Александр Глушнев,Raw,No,B,215,,,,
2,Artur Krupnin,J,1991,Russia,98,190,200,205,205,100,M,Артур Крупнин,Raw,No,B,205,,,,
3,Alexander Panaskin,J,1991,Russia,98,190,200,-205,200,100,M,Александр Панаскин,Raw,No,B,200,,,,
4,Ivan Pozdyaev,J,1991,Russia,90.25,175,-180,,175,100,M,Иван Поздяев,Raw,No,B,175,,,,
1,Aleksandr Revyako,O,1985,Russia,99.6,232.5,240,-243,240,100,M,Александр Ревяко,Raw,No,B,240,,,,
2,Aleksandr Pankratyev,O,1987,Russia,98.2,205,215,220,220,100,M,Александр Панкратьев,Raw,No,B,220,,,,
3,Yuriy Belkov,O,1987,Russia,98.3,212.5,-217.5,217.5,217.5,100,M,Юрий Бельков,Raw,No,B,217.5,,,,
4,Ivan Solntsev,O,1974,Russia,99.3,195,,,195,100,M,Иван Солнцев,Raw,No,B,195,,,,
5,Roman Batyrshin,O,1989,Russia,96.8,185,190,-195,190,100,M,Роман Батыршин,Raw,No,B,190,,,,
6,Igor Kalugin,O,1983,Russia,97,180,-187.5,-192.5,180,100,M,Игорь Калугин,Raw,No,B,180,,,,
7,Aleksandr Dobrynin,O,1987,Russia,99.4,170,-175,-175,170,100,M,Александр Добрынин,Raw,No,B,170,,,,
8,Irakliy Mchedlishvili,O,1981,Russia,98.5,140,150,160,160,100,M,Ираклий Мчедлишвили,Raw,No,B,160,,,,
1,Vladislav Duminika,M1,1972,Russia,94,185,-190,-190,185,100,M,Владислав Думиника,Raw,No,B,185,,,,
2,Igor Shinov,M1,1970,Russia,94.6,170,177.5,182.5,182.5,100,M,Игорь Шинов,Raw,No,B,182.5,,,,
3,Aleksandr Fedorov,M1,1968,Russia,90.7,160,170,-180,170,100,M,Александр Федоров,Raw,No,B,170,,,,
1,Andrey Salov,M2,1959,Russia,90.65,147.5,152.5,-155,152.5,100,M,Андрей Салов,Raw,No,B,152.5,,,,
1,Ivan Solntsev,PFM,1974,Russia,99.3,195,202.5,207.5,207.5,100,M,Иван Солнцев,Raw,No,B,207.5,,,,
2,Vladimir Meya,PFM,1979,Russia,96.1,200,-205,-205,200,100,M,Владимир Мея,Raw,No,B,200,,,,
3,Aleksey Melnikov,PFM,1987,Russia,95.2,180,190,-200,190,100,M,Алексей Мельников,Raw,No,B,190,,,,
4,Dmitriy Aleksandrov,PFM,1973,Russia,99.1,150,-160,170,170,100,M,Дмитрий Александров,Raw,No,B,170,,,,
1,Sergey Sokulskiy,DS,1985,Russia,97.6,180,-190,-190,180,100,M,Сергей Сокульский,Raw,No,B,180,,,,
1,Nazar Kulyk,T2,1997,Russia,105.85,172.5,180,-185,180,110,M,Назар Кулык,Raw,No,B,180,,,,
1,Grigoriy Slipchenko,O,1982,Russia,105.4,250,260,265,265,110,M,Григорий Слипченко,Raw,No,B,265,,,,
2,Ivan Trunov,O,1980,Russia,106.9,220,235,240,240,110,M,Иван Трунов,Raw,No,B,240,,,,
3,Aleksey Shatilo,O,1986,Belarus,108.9,240,-247.5,-247.5,240,110,M,,Raw,No,B,240,,,,
4,Andrey Grudkin,O,1984,Russia,109.9,217,222.5,-225,222.5,110,M,Андрей Грудкин,Raw,No,B,222.5,,,,
5,Maksim Lisyutin,O,1985,Russia,107.1,210,215,-220,215,110,M,Максим Лисютин,Raw,No,B,215,,,,
8,Yaroslav Golubev,O,1980,Russia,110,200,207.5,-212.5,207.5,110,M,Ярослав Голубев,Raw,No,B,207.5,,,,
6,Maksim Borodin,O,1985,Russia,109.1,200,-205,205,205,110,M,Максим Бородин,Raw,No,B,205,,,,
7,Igor Saley,O,1975,Belarus,109.1,-202.5,202.5,-212.5,202.5,110,M,,Raw,No,B,202.5,,,,
9,Konstantin Klinyushin,O,1990,Russia,104,165,-172.5,-172.5,165,110,M,Константин Клинюшин,Raw,No,B,165,,,,
1,Sergey Khodakov,M1,1969,Russia,103,195,-200,200,200,110,M,Сергей Ходаков,Raw,No,B,200,,,,
2,Yuriy Rodikov,M1,1974,Russia,108.5,-197.5,-197.5,197.5,197.5,110,M,Юрий Родиков,Raw,No,B,197.5,,,,
1,Igor Kurotchenko,M2,1962,Russia,105.8,140,145,150,150,110,M,Игорь Куротченко,Raw,No,B,150,,,,
1,Artem Golovin,PFM,1977,Russia,105.9,192.5,200,205,205,110,M,Артем Головин,Raw,No,B,205,,,,
2,Kirill Ostapenko,PFM,1977,Russia,100.6,170,180,-190,180,110,M,Кирилл Остапенко,Raw,No,B,180,,,,
3,Aleksey Danilin,PFM,1982,Russia,100.5,-165,165,-167.5,165,110,M,Алексей Данилин,Raw,No,B,165,,,,
1,Marsel Talipov,J,1991,Russia,114.35,205,215,220,220,125,M,Марсель Талипов,Raw,No,B,220,,,,
1,Pavel Kolokhin,O,1984,Russia,124.9,265,275,282.5,282.5,125,M,Павел Колохин,Raw,No,B,282.5,,,,
2,Pavel Myasoedko,O,1977,Belarus,117.2,-260,260,-270,260,125,M,,Raw,No,B,260,,,,
3,Yuriy Gavryushin,O,1983,Russia,115.4,220,235,-245,235,125,M,Юрий Гаврюшин,Raw,No,B,235,,,,
4,Anton Matveev,O,1971,Russia,111.85,220,-230,-230,220,125,M,Антон Матвеев,Raw,No,B,220,,,,
5,Aleksey Verezhnikov,O,1983,Russia,119.5,160,167.5,-172.5,167.5,125,M,Алексей Вережников,Raw,No,B,167.5,,,,
1,Dmitriy Bubnov,M1,1973,Russia,120.6,220,-235,-235,220,125,M,Дмитрий Бубнов,Raw,No,B,220,,,,
2,Aleksandr Emelin,M1,1966,Russia,112.3,175,-180,-180,175,125,M,Александр Емелин,Raw,No,B,175,,,,
1,Sergey Nikulshin,PFM,1983,Russia,113,170,180,-190,180,125,M,Сергей Никульшин,Raw,No,B,180,,,,
2,Aleksandr Smirnov,PFM,1982,Russia,120.9,180,-190,-190,180,125,M,Александр Смирнов,Raw,No,B,180,,,,
1,Murad Alibegov,O,1977,Russia,125.4,255,275,-282.5,275,140,M,Мурад Алибегов,Raw,No,B,275,,,,
2,Kirill Golberg,O,1977,Russia,128.4,245,255,-260,255,140,M,Кирилл Гольберг,Raw,No,B,255,,,,
3,Roman Oreshkov,O,1984,Russia,128.7,-255,255,-260,255,140,M,Роман Орешков,Raw,No,B,255,,,,
4,Anton Volodko,O,1982,Russia,134.5,220,235,240,240,140,M,Антон Володько,Raw,No,B,240,,,,
5,Ilya Kalininskiy,O,1989,Russia,125.9,220,230,-240,230,140,M,Илья Калининский,Raw,No,B,230,,,,
1,Aleksey Shishov,M1,1973,Russia,129,-205,205,-212.5,205,140,M,Алексей Шишов,Raw,No,B,205,,,,
1,Anna Zhelyabovskaya,O,1978,Russia,59.5,65,-75,-75,65,60,F,Анна Желябовская,Single-ply,Yes,B,65,,,,
1,Aleksandr Rek,O,1987,Russia,65.5,122.5,-127.5,,122.5,67.5,M,Александр Рек,Single-ply,Yes,B,122.5,,,,
1,Sergey Gurov,O,1976,Russia,73,115,125,-130,125,75,M,Сергей Гуров,Single-ply,Yes,B,125,,,,
1,Vitaliy Zhukov,J,1992,Russia,81.3,175,182.5,190,190,82.5,M,Виталий Жуков,Single-ply,Yes,B,190,,,,
1,Leonid Sitkevich,O,1985,Russia,88.6,185,195,-207.5,195,90,M,Леонид Ситкевич,Single-ply,Yes,B,195,,,,
2,Mikhail Kurbatov,O,1970,Russia,90,140,145,150,150,90,M,Михаил Курбатов,Single-ply,Yes,B,150,,,,
1,Igor Solomichev,M1,1967,Russia,93.6,180,-190,-190,180,100,M,Игорь Соломичев,Single-ply,Yes,B,180,,,,
1,Valeriy Kurochkin,O,1978,Russia,102.5,235,245,255,255,110,M,Валерий Курочкин,Single-ply,Yes,B,255,,,,
1,Evgeniy Baranov,O,1982,Russia,118.3,-240,240,-250,240,125,M,Евгений Баранов,Single-ply,Yes,B,240,,,,
1,Anatoliy Smirnov,M1,1967,Russia,115.9,190,200,210,210,125,M,Анатолий Смирнов,Single-ply,Yes,B,210,,,,
2,Oleg Vnukov,M1,1974,Russia,120.8,200,210,-215,210,125,M,Олег Внуков,Single-ply,Yes,B,210,,,,
1,Egor Savelyev,T3,1995,Russia,65.2,120,-130,-132.5,120,67.5,M,Егор Савельев,Single-ply,No,B,120,,,,
1,Yuriy Eremin,O,1983,Russia,75.4,200,-215,-215,200,82.5,M,Юрий Еремин,Single-ply,No,B,200,,,,
1,Yuriy Churin,M1,1971,Russia,78.3,192.5,200,-205,200,82.5,M,Юрий Чурин,Single-ply,No,B,200,,,,
1,Vladislav Rastorguev,J,1992,Russia,89.9,200,210,217.5,217.5,90,M,Владислав Расторгуев,Single-ply,No,B,217.5,,,,
1,Sergey Chikin,O,1979,Russia,89.3,-230,230,235,235,90,M,Сергей Чикин,Single-ply,No,B,235,,,,
2,Denis Zaytsev,O,1983,Russia,89.4,160,165,170,170,90,M,Денис Зайцев,Single-ply,No,B,170,,,,
3,Dmitriy Ryzhnikov,O,1984,Russia,88.5,135,145,,145,90,M,Дмитрий Рыжников,Single-ply,No,B,145,,,,
1,Artem Pokamestov,J,1992,Russia,99.1,170,185,-200,185,100,M,Артем Покаместов,Single-ply,No,B,185,,,,
1,Aleksandr Shishkin,O,1975,Russia,104.2,230,240,250,250,110,M,Александр Шишкин,Single-ply,No,B,250,,,,
2,Denis Grigoryev,O,1982,Russia,105.4,200,210,-222.5,210,110,M,Денис Григорьев,Single-ply,No,B,210,,,,
DQ,Aleksey Ventsov,O,1981,Russia,118,-260,-265,-265,,125,M,Алексей Венцов,Single-ply,No,B,,,,,
1,Konstantin Ukhanov,PFM,1992,Russia,110.5,200,-220,-230,200,125,M,Константин Уханов,Single-ply,No,B,200,,,,
1,Anastasiya Dzyuba,Y,2003,Russia,43.4,,,,,44,F,Анастасия Дзюба,Raw,Yes,D,90,80,85,90,90
1,Oksana Martinovich,O,1992,Russia,48,,,,,48,F,Оксана Мартинович,Raw,Yes,D,127.5,115,127.5,-130,127.5
1,Vera Kalacheva,J,1992,Russia,51.05,,,,,52,F,Вера Калачева,Raw,Yes,D,70,62.5,70,-77.5,70
1,Aleksandra Prikhozhaya,O,1989,Russia,51.8,,,,,52,F,Александра Прихожая,Raw,Yes,D,112.5,97.5,110,112.5,112.5
1,Anastasiya Vasyakina,T2,1998,Russia,55.4,,,,,56,F,Анастасия Васякина,Raw,Yes,D,90,80,90,-95,90
1,Gulnara Noskova,J,1993,Russia,54.55,,,,,56,F,Гульнара Носкова,Raw,Yes,D,100,80,90,100,100
2,Anzhelika Makhneva,J,1993,Russia,55.55,,,,,56,F,Анжелика Махнева,Raw,Yes,D,87.5,70,80,87.5,87.5
1,Aleksandra Kotova,O,1979,Russia,55.35,,,,,56,F,Александра Котова,Raw,Yes,D,120,100,112.5,120,120
1,Elena Astakhova,O,1982,Russia,59.95,,,,,60,F,Елена Астахова,Raw,Yes,D,107.5,95,-105,107.5,107.5
2,Galina Myakisheva,O,1983,Russia,59.05,,,,,60,F,Галина Мякишева,Raw,Yes,D,95,87.5,95,-105,95
1,Aleksandra Vuller,PFM,1991,Russia,55.6,,,,,56,F,Александра Вуллер,Raw,Yes,D,95,90,95,-102.5,95
1,Yuliya Mikhaylova,J,1991,Russia,66.1,,,,,67.5,F,Юлия Михайлова,Raw,Yes,D,120,-120,120,-130,120
2,Anna Fedotova,J,1991,Russia,66.6,,,,,67.5,F,Анна Федотова,Raw,Yes,D,100,90,100,-105,100
1,Oksana Guseva #1,O,1978,Russia,66.05,,,,,67.5,F,Оксана Гусева,Raw,Yes,D,115,110,-115,115,115
1,Marina Kachina,O,1985,Russia,70.1,,,,,75,F,Марина Качина,Raw,Yes,D,90,80,85,90,90
1,Elena Ovsyannikova,M2,1953,Russia,72.35,,,,,75,F,Елена Овсянникова,Raw,Yes,D,115,87.5,97.5,115,115
1,Artur Myakishev,Y,2003,Russia,49.65,,,,,52,M,Артур Мякишев,Raw,Yes,D,65,55,60,65,65
1,Dmitriy Lebedev,T1,1999,Russia,66.45,,,,,67.5,M,Дмитрий Лебедев,Raw,Yes,D,165,-150,150,165,165
1,Evgeniy Pedurets,T1,1999,Russia,72.4,,,,,75,M,Евгений Пэдурец,Raw,Yes,D,165,150,165,-170,165
1,Mikhail Yakovenko,O,1988,Russia,75,,,,,75,M,Михаил Яковенко,Raw,Yes,D,255,230,250,255,255
2,Mikhail Sokolov,O,1984,Russia,74.9,,,,,75,M,Михаил Соколов,Raw,Yes,D,200,200,-210,-210,200
1,Aleksandr Kopylov,PFM,1991,Russia,73.2,,,,,75,M,Александр Копылов,Raw,Yes,D,217.5,207.5,212.5,217.5,217.5
1,Kirill Pestov,J,1993,Russia,82.5,,,,,82.5,M,Кирилл Пестов,Raw,Yes,D,210,200,210,-212.5,210
1,Egor Opichenok,O,1981,Russia,80.8,,,,,82.5,M,Егор Опиченок,Raw,Yes,D,225,215,220,225,225
2,Aleksey Samardin,O,1983,Russia,77.3,,,,,82.5,M,Алексей Самардин,Raw,Yes,D,200,-190,190,200,200
1,Vladimir Panfilov,M2,1953,Russia,80.9,,,,,82.5,M,Владимир Панфилов,Raw,Yes,D,160,-150,160,-170,160
1,Sergey Sivak,PFM,1979,Russia,78.75,,,,,82.5,M,Сергей Сивак,Raw,Yes,D,210,190,200,210,210
1,Evgeniy Gatovskiy,T2,1997,Russia,89,,,,,90,M,Евгений Гатовский,Raw,Yes,D,215,200,215,-220,215
1,Georgiy Stoka,T3,1995,Russia,85.25,,,,,90,M,Георгий Стока,Raw,Yes,D,205,160,195,205,205
1,Vladislav Shevtsov,T3,1995,Russia,86.45,,,,,90,M,Владислав Шевцов,Raw,Yes,D,160,160,-190,-190,160
1,Andrey Doynikov,J,1991,Russia,86,,,,,90,M,Андрей Дойников,Raw,Yes,D,242.5,225,235,242.5,242.5
1,Kirill Mikhaylov,O,1989,Russia,88.45,,,,,90,M,Кирилл Михайлов,Raw,Yes,D,195,175,185,195,195
1,Sergey Lisenok,M1,1971,Belarus,88.6,,,,,90,M,,Raw,Yes,D,240,230,240,,240
1,Vladimir Damaratskiy,M2,1952,Russia,86.2,,,,,90,M,Владимир Дамарацкий,Raw,Yes,D,172.5,150,165,172.5,172.5
1,Egor Egorov,O,1985,Russia,92.65,,,,,100,M,Егор Егоров,Raw,Yes,D,265,250,265,-275,265
1,Aleksey Popov #12,M1,1968,Belarus,97,,,,,100,M,,Raw,Yes,D,230,230,-247.5,-247.5,230
1,Dmitriy Babenko,T2,1997,Russia,107.25,,,,,110,M,Дмитрий Бабенко,Raw,Yes,D,150,100,115,150,150
1,Artem Prysyazhnyy,O,1981,Ukraine,107.9,,,,,110,M,Артем Присяжний,Raw,Yes,D,275,250,275,-287.5,275
1,Andrey Sukharev,M1,1974,Russia,101,,,,,110,M,Андрей Сухарев,Raw,Yes,D,230,220,230,-240,230
1,Ivan Regulyarnyy,O,1984,Russia,115.6,,,,,125,M,Иван Регулярный,Raw,Yes,D,260,225,245,260,260
1,Georgy Pirtskhelava,J,1991,Russia,131.3,,,,,140,M,Георгий Пирцхелава,Raw,Yes,D,205,205,-215,-222.5,205
1,Sergey Buryakov,O,1977,Russia,64.9,,,,,67.5,M,Сергей Буряков,Raw,No,D,155,135,145,155,155
DQ,Nikita Bobrov,J,1994,Russia,71.3,,,,,75,M,Никита Бобров,Raw,No,D,,-185,-185,,
1,Dmitriy Kovalenko,M1,1972,Russia,70,,,,,75,M,Дмитрий Коваленко,Raw,No,D,132.5,115,125,132.5,132.5
1,Aram Grigoryan,O,1989,Russia,77.4,,,,,82.5,M,Арам Григорян,Raw,No,D,270,260,270,-275,270
2,Boris Koloskov,O,1986,Russia,81.75,,,,,82.5,M,Борис Колосков,Raw,No,D,262.5,240,255,262.5,262.5
3,Dmitriy Makarenko,O,1983,Russia,82.4,,,,,82.5,M,Дмитрий Макаренко,Raw,No,D,255,240,255,-260,255
DQ,Robert Akhmetshin,O,1977,Russia,80.9,,,,,82.5,M,Роберт Ахметшин,Raw,No,D,,-190,-210,-210,
1,Dmitriy Maleev,PFM,1990,Russia,82.5,,,,,82.5,M,Дмитрий Малеев,Raw,No,D,265,265,-275,-275,265
1,Nikita Romanov,J,1991,Russia,88.8,,,,,90,M,Никита Романов,Raw,No,D,245,210,230,245,245
1,Aleksey Koshuba,O,1980,Russia,89.65,,,,,90,M,Алексей Кошуба,Raw,No,D,240,220,240,-250,240
2,Dmitriy Ryzhnikov,O,1984,Russia,88.5,,,,,90,M,Дмитрий Рыжников,Raw,No,D,215,200,215,,215
1,Vadim Zaytsev,M2,1960,,87.1,,,,,90,M,Вадим Зайцев,Raw,No,D,250,220,250,,250
1,Bogdan Matiko,J,1992,Russia,95.5,,,,,100,M,Богдан Матико,Raw,No,D,250,220,250,-280,250
1,Shakhrukh Igamov,O,1978,Russia,99.3,,,,,100,M,Шахрух Игамов,Raw,No,D,245,230,245,-255,245
2,Vyacheslav Khorkov,O,1979,Russia,95.7,,,,,100,M,Вячеслав Хорьков,Raw,No,D,235,220,235,-250,235
1,Dmitriy Basetskiy,M2,1964,Russia,95.75,,,,,100,M,Дмитрий Басецкий,Raw,No,D,230,200,215,230,230
1,Aleksey Danilin,PFM,1982,Russia,99.3,,,,,100,M,Алексей Данилин,Raw,No,D,227.5,215,222.5,227.5,227.5
1,Aleksandr Belyaev,T2,1998,Russia,102.2,,,,,110,M,Александр Беляев,Raw,No,D,230,210,220,230,230
1,Anton Neshin,J,1994,Russia,100.5,,,,,110,M,Антон Нешин,Raw,No,D,190,180,190,-207.5,190
1,Ilya Ushkov,O,1976,Russia,104.7,,,,,110,M,Илья Ушков,Raw,No,D,295,277.5,287.5,295,295
2,Aleksandr Tarakin,O,1986,Russia,102.2,,,,,110,M,Александр Таракин,Raw,No,D,290,265,280,290,290
3,Konstantin Klinyushin,O,1990,Russia,104,,,,,110,M,Константин Клинюшин,Raw,No,D,272.5,272.5,-280,-285,272.5
1,Andrey Shishkin,M2,1962,Russia,106.5,,,,,110,M,Андрей Шишкин,Raw,No,D,215,165,205,215,215
1,Aleksey Ventsov,O,1980,Russia,118,,,,,125,M,Алексей Венцов,Raw,No,D,345,310,330,345,345
2,Andrey Butko,O,1985,Russia,112.2,,,,,125,M,Андрей Бутко,Raw,No,D,270,250,270,-285,270
1,Viktor Krylov,O,1985,Russia,128.5,,,,,140,M,Виктор Крылов,Raw,No,D,305,280,300,305,305
1,Yuliya Shakirova,O,1983,Russia,62.7,,,,,67.5,F,Юлия Шакирова,Single-ply,Yes,D,115,102.5,115,-120,115
1,Viktoriya Chumina,T2,1998,Russia,76.9,,,,,82.5,F,Виктория Чумина,Single-ply,Yes,D,157.5,130,150,157.5,157.5
1,Ilkin Mekhtiev,O,1986,Russia,76.85,,,,,82.5,M,Илькин Мехтиев,Single-ply,Yes,D,230,230,-237.5,-237.5,230
1,Leonid Sitkevich,O,1985,Russia,88.6,,,,,90,M,Леонид Ситкевич,Single-ply,Yes,D,255,235,255,-260,255
2,Aleksey Surenskiy,O,1986,Russia,87.6,,,,,90,M,Алексей Суренский,Single-ply,Yes,D,230,210,230,-255,230
1,Sergey Myakishev,O,1977,Russia,94.2,,,,,100,M,Сергей Мякишев,Single-ply,Yes,D,250,235,250,-262.5,250
1,Artem Artyukhov,O,1987,Russia,108.7,,,,,110,M,Артем Артюхов,Single-ply,Yes,D,255,255,-265,-265,255
1,Aleksey Nikolaev,O,1984,Russia,82,,,,,82.5,M,Алексей Николаев,Single-ply,No,D,280,270,280,-290,280
2,Sergey Dolnikov,O,1986,Russia,80.95,,,,,82.5,M,Сергей Дольников,Single-ply,No,D,255,230,245,255,255
3,Roman Durnov,O,1986,Russia,81.9,,,,,82.5,M,Роман Дурнов,Single-ply,No,D,230,210,230,-247.5,230
1,Aleksey Koshuba,O,1980,Russia,89.65,,,,,90,M,Алексей Кошуба,Single-ply,No,D,250,220,240,250,250
1,Pavel Sudakov,O,1991,Russia,96.4,,,,,100,M,Павел Судаков,Single-ply,No,D,285,270,285,-295,285
1,Mikhail Grinko,O,1978,Russia,101.6,,,,,110,M,Михаил Гринько,Single-ply,No,D,300,220,260,300,300
