Division,WeightClassKg,Place,Name,Team,BodyweightKg,Best3SquatKg,Best3BenchKg,Best3DeadliftKg,TotalKg,Equipment,Event,Sex,BirthDate
Girls,47.85,1,Andrea Cervantes,Big Lake Reagan County,46.72,129.27,52.16,120.2,301.64,Single-ply,SBD,F,
Girls,47.85,DQ,Angelica Aranda,Eldorado,46.08,74.84,,,,Single-ply,SBD,F,
Girls,51.94,1,Sissy Coronado,Eldorado,51.17,97.52,54.43,111.13,263.08,Single-ply,SBD,F,
Girls,51.94,2,Natalie Fuentes,Eldorado,50.08,72.57,45.36,81.65,199.58,Single-ply,SBD,F,
Girls,51.94,DQ,Anahi Narvaez,Big Lake Reagan County,49.9,104.33,,,,Single-ply,SBD,F,
Girls,56.02,1,Myranda Guerrero,Eldorado,53.61,124.74,58.97,122.47,306.17,Single-ply,SBD,F,
Girls,56.02,2,Alejandra Alegria,Eldorado,54.43,99.79,49.9,106.59,256.28,Single-ply,SBD,F,
Girls,56.02,3,Alexis Guerra,Sonora,53.8,61.23,36.29,68.04,165.56,Single-ply,SBD,F,
Girls,56.02,DQ,Mariah Talamantes,Sonora,53.34,79.38,,,,Single-ply,SBD,F,
Girls,60.1,1,Dasani Rios,Eldorado,58.69,122.47,65.77,127.01,315.25,Single-ply,SBD,F,
Girls,60.1,2,Logan Prater,Eldorado,59.92,124.74,47.63,136.08,308.44,Single-ply,SBD,F,
Girls,60.1,3,Zoey Chavez,Big Lake Reagan County,59.42,83.91,45.36,95.25,224.53,Single-ply,SBD,F,
Girls,60.1,4,Alondra Medina,Sonora,56.52,61.23,29.48,68.04,158.76,Single-ply,SBD,F,
Girls,60.1,DQ,Tayrn Hamm,Sonora,59.78,63.5,29.48,,,Single-ply,SBD,F,
Girls,67.36,1,Perla Contreras,Eldorado,67.27,122.47,65.77,124.74,312.98,Single-ply,SBD,F,
Girls,67.36,DQ,Valeria Ortiz,Big Lake Reagan County,62.6,120.2,,,,Single-ply,SBD,F,
Girls,67.36,DQ,Abigal Fuentes,Sonora,61.23,81.65,,,,Single-ply,SBD,F,
Girls,75.07,1,Yatzari Narvaez,Eldorado,73.57,190.51,120.2,161.03,471.74,Single-ply,SBD,F,
Girls,75.07,2,Kiarra Telles,Junction,70.67,124.74,88.45,127.01,340.19,Single-ply,SBD,F,
Girls,75.07,3,Destine Romero,Big Lake Reagan County,73.03,99.79,63.5,117.93,281.23,Single-ply,SBD,F,
Girls,75.07,4,Alyzza Villarreal,Big Lake Reagan County,74.39,115.67,52.16,86.18,254.01,Single-ply,SBD,F,
Girls,75.07,DQ,Ebony DeLeon,Big Lake Reagan County,74.48,,,,,Single-ply,SBD,F,
Girls,82.33,1,Bella Glass,Big Lake Reagan County,79.38,172.37,92.99,136.08,401.43,Single-ply,SBD,F,
Girls,82.33,2,Nyomi Aranda,Eldorado,77.56,142.88,65.77,131.54,340.19,Single-ply,SBD,F,
Girls,82.33,3,Valeria Rico,Big Lake Reagan County,79.38,129.27,56.7,108.86,294.84,Single-ply,SBD,F,
Girls,100.02,1,Gracie Martin,Eldorado,96.43,106.59,47.63,95.25,249.48,Single-ply,SBD,F,
Girls,117.71,1,Emma Martinez,Sonora,113.31,106.59,43.09,102.06,251.74,Single-ply,SBD,F,
