Division,WeightClassKg,Place,Name,Team,BodyweightKg,Best3SquatKg,Best3BenchKg,Best3DeadliftKg,TotalKg,Equipment,Event,Sex
Boys,51.71,1,Viator Gomez,Mertzon Irion County,50.89,142.88,79.38,136.08,358.34,Single-ply,SBD,M
Boys,51.71,2,Ryan Folds,San Angelo Grape Creek,48.99,102.06,58.97,113.4,274.42,Single-ply,SBD,M
Boys,51.71,3,Jose de Leon #2,Sterling City,45.36,61.23,43.09,83.91,188.24,Single-ply,SBD,M
Boys,51.71,DQ,Caleb Ritchey,Sonora,51.26,56.7,,,,Single-ply,SBD,M
Boys,51.71,DQ,Antonio Barron,San Angelo Lake View,51.26,88.45,,,,Single-ply,SBD,M
Boys,55.79,1,Preston McCutchen,Ozona,53.07,108.86,63.5,127.01,299.37,Single-ply,SBD,M
Boys,55.79,2,Anthony Olivares,Eldorado,53.52,117.93,54.43,122.47,294.84,Single-ply,SBD,M
Boys,55.79,3,Cody Coombs,San Angelo Lake View,52.16,104.33,58.97,108.86,272.16,Single-ply,SBD,M
Boys,59.87,1,Dillon Hughes,Sterling City,58.97,158.76,97.52,174.63,430.91,Single-ply,SBD,M
Boys,59.87,2,Dustin Chopelas,Alpine,59.87,124.74,79.38,154.22,358.34,Single-ply,SBD,M
Boys,59.87,3,Aaron Rivera,San Angelo Lake View,58.51,120.2,83.91,120.2,324.32,Single-ply,SBD,M
Boys,59.87,4,Luis Morales,San Angelo Central,57.61,113.4,70.31,115.67,299.37,Single-ply,SBD,M
Boys,59.87,5,Anthony Perez,Ozona,58.51,106.59,65.77,127.01,299.37,Single-ply,SBD,M
Boys,59.87,6,Uriel Vasquez,Crane,56.25,83.91,54.43,97.52,235.87,Single-ply,SBD,M
Boys,59.87,DQ,Zach Gomez,San Angelo Central,58.51,115.67,,,,Single-ply,SBD,M
Boys,67.13,1,Oscar Salgado,Alpine,63.96,154.22,104.33,197.31,455.86,Single-ply,SBD,M
Boys,67.13,2,Soda Pop Flores,Crane,64.41,145.15,77.11,149.69,371.95,Single-ply,SBD,M
Boys,67.13,3,Steven Fuentes,Sterling City,65.77,124.74,83.91,158.76,367.41,Single-ply,SBD,M
Boys,67.13,4,Rico Rodriguez,Sonora,63.05,136.08,86.18,131.54,353.8,Single-ply,SBD,M
Boys,67.13,5,Angel McKee,McCamey,65.77,120.2,77.11,154.22,351.53,Single-ply,SBD,M
Boys,67.13,6,Alex Rivas,Alpine,64.41,131.54,77.11,140.61,349.27,Single-ply,SBD,M
Boys,67.13,7,Jake Everett,Sterling City,64.41,124.74,70.31,145.15,340.19,Single-ply,SBD,M
Boys,74.84,8,Jacob Reeves,Mertzon Irion County,67.36,136.08,63.5,127.01,326.59,Single-ply,SBD,M
Boys,67.13,9,Jose Olivares,Eldorado,63.96,124.74,74.84,117.93,317.51,Single-ply,SBD,M
Boys,67.13,10,Eulicess Lupercio,Crane,61.69,113.4,83.91,113.4,310.71,Single-ply,SBD,M
Boys,67.13,11,Kraig Cadena,Eldorado,61.23,108.86,65.77,113.4,288.03,Single-ply,SBD,M
Boys,67.13,12,Cade Hardy,Ozona,64.86,102.06,65.77,113.4,281.23,Single-ply,SBD,M
Boys,67.13,13,Alberto Rodriguez,Ozona,65.77,106.59,56.7,108.86,272.16,Single-ply,SBD,M
Boys,67.13,14,Manny Sarrabia,Ozona,60.33,97.52,61.23,111.13,269.89,Single-ply,SBD,M
Boys,67.13,15,Ryan Ramos,Ozona,61.69,79.38,52.16,99.79,231.33,Single-ply,SBD,M
Boys,67.13,DQ,Austin McConathy,Mertzon Irion County,64.14,115.67,,,,Single-ply,SBD,M
Boys,67.13,DQ,Marcus Rubio,Alpine,67.13,95.25,,,,Single-ply,SBD,M
Boys,74.84,1,John Jurado,Ozona,72.57,226.8,108.86,201.85,537.51,Single-ply,SBD,M
Boys,74.84,2,Ben Burnett,San Angelo Central,74.39,188.24,115.67,190.51,494.42,Single-ply,SBD,M
Boys,74.84,3,Matthew Gloria,Ballinger,70.31,181.44,90.72,192.78,464.93,Single-ply,SBD,M
Boys,74.84,4,Kevin Martinez,Sonora,68.04,165.56,90.72,181.44,437.72,Single-ply,SBD,M
Boys,74.84,5,John Trevino,San Angelo Central,72.57,151.95,95.25,172.37,419.57,Single-ply,SBD,M
Boys,74.84,6,Jesus DeLuna,Eldorado,69.4,167.83,81.65,167.83,417.3,Single-ply,SBD,M
Boys,74.84,7,Trino Castaneda,Crane,71.67,154.22,95.25,163.29,412.77,Single-ply,SBD,M
Boys,74.84,8,Devan Griffin,Iraan,70.31,158.76,86.18,165.56,410.5,Single-ply,SBD,M
Boys,74.84,9,Tru Vasquez,San Angelo Lake View,71.21,131.54,92.99,158.76,383.29,Single-ply,SBD,M
Boys,74.84,10,Gage Glidewell,McCamey,70.76,142.88,79.38,158.76,381.02,Single-ply,SBD,M
Boys,74.84,11,Damian Edgar,Ozona,73.48,122.47,79.38,136.08,337.93,Single-ply,SBD,M
Boys,74.84,12,Cass Benson,Mertzon Irion County,67.77,120.2,65.77,136.08,322.05,Single-ply,SBD,M
Boys,74.84,13,Jose Robles,Sonora,71.67,113.4,90.72,104.33,308.44,Single-ply,SBD,M
Boys,74.84,14,Michael Groh,Mertzon Irion County,73.21,108.86,61.23,136.08,306.17,Single-ply,SBD,M
Boys,74.84,15,Blaine Aker,Eldorado,69.4,83.91,63.5,113.4,260.82,Single-ply,SBD,M
Boys,74.84,DQ,Ralph Meza,Crane,73.48,115.67,,,,Single-ply,SBD,M
Boys,74.84,DQ,Javier Lopez,Crane,68.04,,72.57,,,Single-ply,SBD,M
Boys,74.84,DQ,Jorge Vargas,Alpine,74.39,138.35,,,,Single-ply,SBD,M
Boys,74.84,DQ,Tyler Poehl,Mertzon Irion County,72.03,,68.04,151.95,,Single-ply,SBD,M
Boys,82.1,1,Josh Neri,Mertzon Irion County,80.74,206.38,136.08,226.8,569.26,Single-ply,SBD,M
Boys,82.1,2,Brett Castillo,Sonora,81.65,215.46,136.08,208.65,560.19,Single-ply,SBD,M
Boys,82.1,3,Johnny Martinez,San Angelo Central,80.74,185.97,111.13,176.9,474,Single-ply,SBD,M
Boys,82.1,4,Christian Ozoria,Ozona,81.19,190.51,97.52,185.97,474,Single-ply,SBD,M
Boys,82.1,5,Tyler Curtis,Alpine,79.38,147.42,92.99,190.51,430.91,Single-ply,SBD,M
Boys,82.1,6,Ralphy Salas,Big Lake Reagan County,75.3,165.56,97.52,158.76,421.84,Single-ply,SBD,M
Boys,82.1,7,Jonathan Focha,Ozona,76.2,158.76,74.84,181.44,415.04,Single-ply,SBD,M
Boys,82.1,8,Noah Nandin,San Angelo Lake View,78.47,131.54,97.52,161.03,390.09,Single-ply,SBD,M
Boys,82.1,9,Tyler West,Mertzon Irion County,77.66,136.08,83.91,158.76,378.75,Single-ply,SBD,M
Boys,82.1,10,Bryce Martin,Ozona,75.3,129.27,88.45,142.88,360.61,Single-ply,SBD,M
Boys,82.1,11,Elias Salcido,Alpine,82.1,120.2,83.91,142.88,347,Single-ply,SBD,M
Boys,82.1,12,Richard DeLaCruz,Sonora,80.29,83.91,61.23,124.74,269.89,Single-ply,SBD,M
Boys,82.1,13,Juan Mendez,Ozona,78.93,122.47,68.04,127.01,317.51,Single-ply,SBD,M
Boys,82.1,DQ,Caleb Wilson,Mertzon Irion County,76.61,,104.33,195.04,,Single-ply,SBD,M
Boys,89.81,1,Dakota Short,Big Lake Reagan County,89.36,190.51,104.33,188.24,483.08,Single-ply,SBD,M
Boys,89.81,2,Chris Amador,Mertzon Irion County,86.18,185.97,113.4,181.44,480.81,Single-ply,SBD,M
Boys,89.81,3,David Luera,San Angelo Lake View,88.45,161.03,102.06,176.9,439.98,Single-ply,SBD,M
Boys,89.81,4,James Reeves,Mertzon Irion County,82.42,149.69,111.13,154.22,415.04,Single-ply,SBD,M
Boys,89.81,5,Tony Valdez,San Angelo Grape Creek,88,165.56,77.11,172.37,415.04,Single-ply,SBD,M
Boys,89.81,6,Caleb Martinez,Ozona,86.64,142.88,86.18,140.61,369.68,Single-ply,SBD,M
Boys,89.81,7,Christian Ramon,Sonora,82.55,136.08,95.25,136.08,367.41,Single-ply,SBD,M
Boys,89.81,8,Isaac Graves,San Angelo Central,88.45,124.74,97.52,111.13,333.39,Single-ply,SBD,M
Boys,89.81,9,Mark Flores,Ozona,88,122.47,56.7,111.13,290.3,Single-ply,SBD,M
Boys,99.79,1,John Daniel Lopez,San Angelo Central,93.44,181.44,104.33,176.9,462.66,Single-ply,SBD,M
Boys,99.79,2,Anthony Gloria,San Angelo Lake View,92.99,165.56,108.86,167.83,442.25,Single-ply,SBD,M
Boys,99.79,3,Angel Gallegos,Big Lake Reagan County,92.53,165.56,77.11,167.83,410.5,Single-ply,SBD,M
Boys,99.79,4,Travis Carter,Iraan,98.43,136.08,74.84,151.95,362.87,Single-ply,SBD,M
Boys,109.77,1,Angel DeLuna,Big Lake Reagan County,107.5,274.42,124.74,199.58,598.74,Single-ply,SBD,M
Boys,109.77,2,Alex Perez,San Angelo Grape Creek,100.24,244.94,136.08,215.46,596.47,Single-ply,SBD,M
Boys,109.77,3,Elijah Cross,Sonora,109.77,226.8,145.15,208.65,580.6,Single-ply,SBD,M
Boys,109.77,4,Ethan Patlan,Sonora,103.87,181.44,151.95,204.12,537.51,Single-ply,SBD,M
Boys,109.77,5,Austin Garcia,San Angelo Central,104.78,226.8,117.93,192.78,537.51,Single-ply,SBD,M
Boys,109.77,6,Bryndon Robles,Sonora,109.32,181.44,136.08,174.63,492.15,Single-ply,SBD,M
Boys,109.77,7,Orlando Aguero,Sterling City,109.32,174.63,102.06,158.76,435.45,Single-ply,SBD,M
Boys,109.77,8,Ricky Hardee,Alpine,102.06,124.74,86.18,145.15,356.07,Single-ply,SBD,M
Boys,109.77,9,Mason Keeney,San Angelo Grape Creek,107.5,120.2,83.91,136.08,340.19,Single-ply,SBD,M
Boys,109.77,10,Tahjae Collins,Crane,103.42,111.13,61.23,129.27,301.64,Single-ply,SBD,M
Boys,109.77,DQ,Hector Diaz,Crane,109.77,113.4,,140.61,,Single-ply,SBD,M
Boys,124.74,1,Antonio Perez,San Angelo Grape Creek,124.74,233.6,174.63,215.46,623.69,Single-ply,SBD,M
Boys,124.74,2,Darren Hernandez,San Angelo Central,117.93,254.01,129.27,226.8,610.08,Single-ply,SBD,M
Boys,124.74,3,Ruben Magallan,San Angelo Lake View,122.02,231.33,142.88,235.87,610.08,Single-ply,SBD,M
Boys,124.74,4,Adrian Hernandez #5,San Angelo Grape Creek,113.4,226.8,145.15,226.8,598.74,Single-ply,SBD,M
Boys,124.74,5,Hl James,Sonora,112.04,210.92,108.86,226.8,546.58,Single-ply,SBD,M
Boys,124.74,6,Jace King,Ballinger,114.31,204.12,136.08,192.78,532.97,Single-ply,SBD,M
Boys,124.74,7,Donnie Bowers,San Angelo Central,118.39,217.72,117.93,188.24,523.9,Single-ply,SBD,M
Boys,124.74,8,Taylor Elkins,Mertzon Irion County,113.49,161.03,65.77,147.42,374.21,Single-ply,SBD,M
Boys,124.74,9,Skylar Dreshman,Sterling City,116.12,147.42,124.74,102.06,374.21,Single-ply,SBD,M
Boys,124.74,10,Jarrett Hill,San Angelo Central,114.76,124.74,79.38,142.88,347,Single-ply,SBD,M
Boys,124.74,11,David Olivan,Eldorado,116.12,92.99,63.5,115.67,272.16,Single-ply,SBD,M
Boys,124.74+,1,Kelton Bales,Iraan,128.37,272.16,131.54,235.87,639.57,Single-ply,SBD,M
Boys,124.74+,2,Dj Schlather,San Angelo Lake View,142.43,249.48,147.42,235.87,632.76,Single-ply,SBD,M
Boys,124.74+,3,Sergio Rivero,San Angelo Central,126.1,199.58,113.4,185.97,498.95,Single-ply,SBD,M
Boys,124.74+,4,Joseph Absher,Sonora,155.58,158.76,104.33,172.37,435.45,Single-ply,SBD,M
Boys,124.74+,5,Ray Kimbrell,Sonora,131.09,113.4,86.18,145.15,344.73,Single-ply,SBD,M
Boys,124.74+,6,Greg Dehoyas,Ozona,125.19,104.33,77.11,117.93,299.37,Single-ply,SBD,M
Boys,,NS,Tristan Onofre,Iraan,,,,,,Single-ply,SBD,M
Boys,,NS,Jacob Mettlen,Eldorado,,,,,,Single-ply,SBD,M
Boys,,NS,Adrean Perez,Crane,,,,,,Single-ply,SBD,M
Boys,,NS,Bailey Graham,Crane,,,,,,Single-ply,SBD,M
Boys,,NS,Sam King,Christoval,,,,,,Single-ply,SBD,M
Boys,,NS,Jonathan Hopper,Christoval,,,,,,Single-ply,SBD,M
Boys,,NS,James Phillips,Crane,,,,,,Single-ply,SBD,M
Boys,,NS,Nick Miller #1,Alpine,,,,,,Single-ply,SBD,M
Boys,,NS,Daniel Lombrana,Ozona,,,,,,Single-ply,SBD,M
Boys,,NS,Robert McKee,McCamey,,,,,,Single-ply,SBD,M
Boys,,NS,Andrew Tone,McCamey,,,,,,Single-ply,SBD,M
Boys,,NS,Tyler Boule,Mertzon Irion County,,,,,,Single-ply,SBD,M
Boys,,NS,Dakota Castro,Sonora,,,,,,Single-ply,SBD,M
Boys,,NS,Mark Chavez,Sonora,,,,,,Single-ply,SBD,M
Boys,,NS,Henry Ramos,Sonora,,,,,,Single-ply,SBD,M
Boys,,NS,Juan Villanueva,Sonora,,,,,,Single-ply,SBD,M
Boys,,NS,Robert Zapata,Sonora,,,,,,Single-ply,SBD,M
Boys,,NS,Dillon Evans,San Angelo Central,,,,,,Single-ply,SBD,M
Boys,,NS,Efren Morales,San Angelo Central,,,,,,Single-ply,SBD,M
Boys,,NS,Omar Duarte,San Angelo Central,,,,,,Single-ply,SBD,M
Boys,,NS,Damien Humiston,San Angelo Grape Creek,,,,,,Single-ply,SBD,M
Boys,,NS,Ervin Clay,San Angelo Central,,,,,,Single-ply,SBD,M
Boys,,NS,Caleb Ramirez,San Angelo Lake View,,,,,,Single-ply,SBD,M
