Name,Team,WeightClassKg,Division,BodyweightKg,Squat1Kg,Squat2Kg,Squat3Kg,Best3SquatKg,Bench1Kg,Bench2Kg,Bench3Kg,Best3BenchKg,Deadlift1Kg,Deadlift2Kg,Deadlift3Kg,Best3DeadliftKg,TotalKg,Place,Event,Equipment,Sex
Eric Fuller,Atherton,51.71,Junior Varsity,50.62,106.59,115.67,-120.2,115.67,74.84,-83.91,86.18,86.18,140.61,147.42,154.22,154.22,356.07,1,SBD,Single-ply,M
Reese Graham,Morenci,51.71,Junior Varsity,48.17,83.91,-88.45,92.99,92.99,68.04,74.84,77.11,77.11,111.13,117.93,122.47,122.47,292.57,2,SBD,Single-ply,M
Matt Fauth,Goodrich,51.71,Junior Varsity,51.26,104.33,113.4,-136.08,113.4,40.82,49.9,-52.16,49.9,104.33,124.74,129.27,129.27,292.57,3,SBD,Single-ply,M
Eldon Pierson,Ubly,51.71,Junior Varsity,50.3,79.38,88.45,-97.52,88.45,56.7,58.97,-63.5,58.97,122.47,-131.54,-145.15,122.47,269.89,4,SBD,Single-ply,M
Zac Wood,Plainwell,51.71,Junior Varsity,50.76,83.91,88.45,97.52,97.52,45.36,52.16,-56.7,52.16,111.13,115.67,120.2,120.2,269.89,5,SBD,Single-ply,M
Daniel Gautz,Morenci,51.71,Junior Varsity,50.62,90.72,-95.25,-102.06,90.72,54.43,56.7,58.97,58.97,95.25,99.79,102.06,102.06,251.74,6,SBD,Single-ply,M
Kyle Arnold,Goodrich,51.71,Junior Varsity,50.08,83.91,102.06,-111.13,102.06,34.02,38.56,43.09,43.09,92.99,102.06,-111.13,102.06,247.21,7,SBD,Single-ply,M
Jake Hadley,Plainwell,51.71,Junior Varsity,51.71,-77.11,77.11,88.45,88.45,45.36,49.9,52.16,52.16,97.52,102.06,-104.33,102.06,242.67,8,SBD,Single-ply,M
Cotter Lubben,Saugatuck,51.71,Junior Varsity,46.81,-83.91,-88.45,-90.72,,45.36,47.63,-52.16,47.63,90.72,111.13,-122.47,111.13,,DQ,SBD,Single-ply,M
Mitch Schneider,Montrose,51.71,Junior Varsity,48.72,102.06,-111.13,113.4,113.4,61.23,-65.77,-65.77,61.23,-97.52,,,,,DQ,SBD,Single-ply,M
Jarro Calvo,Lee,51.71,Junior Varsity,51.35,-65.77,-65.77,65.77,65.77,56.7,63.5,-70.31,63.5,-113.4,-122.47,-124.74,,,DQ,SBD,Single-ply,M
Kevin Anderson,Kingsley,51.71,Junior Varsity,51.62,-79.38,-83.91,-88.45,,-56.7,-56.7,-56.7,,102.06,106.59,-111.13,106.59,,DQ,SBD,Single-ply,M
Robert Bowers,Ithaca,55.79,Junior Varsity,54.7,-120.2,124.74,-131.54,124.74,74.84,79.38,81.65,81.65,136.08,149.69,-161.03,149.69,356.07,1,SBD,Single-ply,M
David Dubois,Mt. Morris,55.79,Junior Varsity,55.66,106.59,-115.67,-115.67,106.59,68.04,72.57,77.11,77.11,142.88,151.95,-161.03,151.95,335.66,2,SBD,Single-ply,M
Josiah Fallot,Morenci,55.79,Junior Varsity,55.79,95.25,108.86,113.4,113.4,65.77,-72.57,72.57,72.57,120.2,133.81,-140.61,133.81,319.78,3,SBD,Single-ply,M
Mike Barkley,Climax-Scotts,55.79,Junior Varsity,55.79,92.99,102.06,-111.13,102.06,56.7,61.23,-68.04,61.23,117.93,129.27,133.81,133.81,297.1,4,SBD,Single-ply,M
Garrit Mechancy,Lowell,55.79,Junior Varsity,55.34,-77.11,90.72,-99.79,90.72,-65.77,68.04,-72.57,68.04,90.72,120.2,127.01,127.01,285.76,5,SBD,Single-ply,M
Jesse Potts,Standish,55.79,Junior Varsity,55.52,74.84,86.18,-95.25,86.18,70.31,-77.11,77.11,77.11,104.33,120.2,-129.27,120.2,283.5,6,SBD,Single-ply,M
Bryan Bastow,South Haven,55.79,Junior Varsity,52.62,-95.25,-97.52,99.79,99.79,54.43,56.7,-61.23,56.7,113.4,-117.93,117.93,117.93,274.42,7,SBD,Single-ply,M
Dan Bradburn,Goodrich,55.79,Junior Varsity,55.75,86.18,102.06,-106.59,102.06,45.36,49.9,-54.43,49.9,97.52,106.59,111.13,111.13,263.08,8,SBD,Single-ply,M
Eric Silva,Saugatuck,55.79,Junior Varsity,55.79,70.31,-79.38,-79.38,70.31,70.31,74.84,-79.38,74.84,113.4,-124.74,-129.27,113.4,258.55,9,SBD,Single-ply,M
Charles League,Goodrich,55.79,Junior Varsity,53.07,-54.43,61.23,68.04,68.04,34.02,38.56,43.09,43.09,61.23,70.31,83.91,83.91,195.04,10,SBD,Single-ply,M
Zac Dubay,Goodrich,55.79,Junior Varsity,55.38,124.74,-133.81,-133.81,124.74,52.16,54.43,56.7,56.7,-129.27,-140.61,-140.61,,,DQ,SBD,Single-ply,M
Adam Ries,Morenci,55.79,Junior Varsity,55.7,-113.4,-113.4,-113.4,,,,,,,,,,,DQ,SBD,Single-ply,M
Mark Mersino,Almont,59.87,Junior Varsity,59.56,113.4,127.01,136.08,136.08,68.04,79.38,-81.65,79.38,158.76,167.83,-181.44,167.83,383.29,1,SBD,Single-ply,M
Shane Kerkes,Ithaca,59.87,Junior Varsity,59.42,104.33,120.2,-127.01,120.2,83.91,88.45,-95.25,88.45,151.95,161.03,-181.44,161.03,369.68,2,SBD,Single-ply,M
Kyle Nicol,Lowell,59.87,Junior Varsity,59.33,-136.08,136.08,-142.88,136.08,72.57,79.38,-86.18,79.38,136.08,145.15,151.95,151.95,367.41,3,SBD,Single-ply,M
Kyle McClain,Morenci,59.87,Junior Varsity,59.78,124.74,-129.27,-129.27,124.74,86.18,-92.99,92.99,92.99,147.42,-156.49,-156.49,147.42,365.14,4,SBD,Single-ply,M
Gary Bolsby,Sandusky,59.87,Junior Varsity,57.92,-113.4,,127.01,127.01,56.7,61.23,-68.04,61.23,142.88,158.76,165.56,165.56,353.8,5,SBD,Single-ply,M
Scott Moore,Mt. Morris,59.87,Junior Varsity,59.1,111.13,-120.2,120.2,120.2,65.77,70.31,72.57,72.57,140.61,149.69,158.76,158.76,351.53,6,SBD,Single-ply,M
Robert Bonardelli,Flushing,59.87,Junior Varsity,59.51,-120.2,-120.2,120.2,120.2,-83.91,83.91,90.72,90.72,-138.35,-140.61,140.61,140.61,351.53,7,SBD,Single-ply,M
Dwayne Jackson,Genesee,59.87,Junior Varsity,59.87,-115.67,124.74,-131.54,124.74,74.84,-79.38,-83.91,74.84,133.81,142.88,147.42,147.42,347,8,SBD,Single-ply,M
Ben Canfield,Lowell,59.87,Junior Varsity,59.65,111.13,120.2,-136.08,120.2,63.5,68.04,-72.57,68.04,142.88,-158.76,-158.76,142.88,331.12,9,SBD,Single-ply,M
Chris Palmer,Colon,59.87,Junior Varsity,59.6,83.91,92.99,108.86,108.86,72.57,-79.38,-79.38,72.57,124.74,145.15,-156.49,145.15,326.59,10,SBD,Single-ply,M
Patrick Steffey,Plainwell,59.87,Junior Varsity,59.78,90.72,106.59,117.93,117.93,61.23,65.77,-68.04,65.77,-117.93,117.93,136.08,136.08,319.78,11,SBD,Single-ply,M
Cody Lyon,Flushing,59.87,Junior Varsity,59.19,86.18,95.25,104.33,104.33,61.23,68.04,-72.57,68.04,131.54,140.61,145.15,145.15,317.51,12,SBD,Single-ply,M
Brandon Becker,Linden,59.87,Junior Varsity,,102.06,111.13,-113.4,111.13,-83.91,83.91,-86.18,83.91,-113.4,113.4,117.93,117.93,312.98,13,SBD,Single-ply,M
Aron McNeil,Kingsley,59.87,Junior Varsity,59.69,81.65,-102.06,-102.06,81.65,72.57,-74.84,77.11,77.11,108.86,117.93,131.54,131.54,290.3,14,SBD,Single-ply,M
Gary Pratt,Vassar,59.87,Junior Varsity,57.88,-92.99,-92.99,-92.99,,,,,,,,,,,DQ,SBD,Single-ply,M
Scott Price,Kenowa,59.87,Junior Varsity,58.6,111.13,-117.93,-122.47,111.13,-72.57,-72.57,-72.57,,124.74,-136.08,-136.08,124.74,,DQ,SBD,Single-ply,M
Thomas Chandler,Muskegon,59.87,Junior Varsity,59.74,-92.99,-97.52,-97.52,,79.38,-83.91,-83.91,79.38,129.27,-133.81,-133.81,129.27,,DQ,SBD,Single-ply,M
Dan Schuessler,Flushing,65.77,Junior Varsity,64.36,170.1,185.97,192.78,192.78,120.2,-124.74,-124.74,120.2,165.56,172.37,-176.9,172.37,485.34,1,SBD,Single-ply,M
Travis Wallace,Plainwell,65.77,Junior Varsity,65.68,170.1,176.9,188.24,188.24,104.33,-113.4,-113.4,104.33,-170.1,172.37,192.78,192.78,485.34,2,SBD,Single-ply,M
Tyler Davila,Ithaca,65.77,Junior Varsity,64.77,127.01,145.15,154.22,154.22,83.91,-88.45,-88.45,83.91,174.63,-185.97,185.97,185.97,424.11,3,SBD,Single-ply,M
Doug Galvas,North Branch,65.77,Junior Varsity,63.87,145.15,-151.95,-151.95,145.15,88.45,-90.72,-90.72,88.45,165.56,170.1,-172.37,170.1,403.7,4,SBD,Single-ply,M
Troy Davis,Morenci,65.77,Junior Varsity,65.68,-124.74,136.08,-142.88,136.08,77.11,81.65,-86.18,81.65,165.56,172.37,-176.9,172.37,390.09,5,SBD,Single-ply,M
Jeffrey Snyder,Morenci,65.77,Junior Varsity,64.95,124.74,133.81,138.35,138.35,86.18,-90.72,92.99,92.99,147.42,154.22,156.49,156.49,387.82,6,SBD,Single-ply,M
Ben Shuttleworth,Ithaca,65.77,Junior Varsity,63.59,122.47,127.01,-131.54,127.01,83.91,-88.45,-88.45,83.91,172.37,-183.7,-183.7,172.37,383.29,7,SBD,Single-ply,M
Tyrone Garnett,Harper Creek,65.77,Junior Varsity,64.86,-117.93,-120.2,122.47,122.47,79.38,83.91,-90.72,83.91,156.49,172.37,-181.44,172.37,378.75,8,SBD,Single-ply,M
Aaron Coon,Holton,65.77,Junior Varsity,65.27,133.81,-142.88,-142.88,133.81,79.38,-81.65,-81.65,79.38,151.95,161.03,167.83,167.83,381.02,9,SBD,Single-ply,M
Shae Hamilton,Harper Creek,65.77,Junior Varsity,65.09,133.81,-147.42,-147.42,133.81,83.91,90.72,-95.25,90.72,136.08,147.42,154.22,154.22,378.75,10,SBD,Single-ply,M
Zach Kuznair,Montrose,65.77,Junior Varsity,65.63,102.06,-111.13,111.13,111.13,83.91,-88.45,88.45,88.45,142.88,156.49,163.29,163.29,362.87,11,SBD,Single-ply,M
Bruce Jones,Saugatuck,65.77,Junior Varsity,61.73,102.06,120.2,-142.88,120.2,79.38,86.18,-95.25,86.18,145.15,154.23,-170.1,154.23,360.61,12,SBD,Single-ply,M
Phil Eggert,Atherton,65.77,Junior Varsity,64.36,111.13,124.74,-131.54,124.74,90.72,97.52,-102.06,97.52,136.08,-142.88,-142.88,136.08,358.34,13,SBD,Single-ply,M
Scott Kosloski,Montrose,65.77,Junior Varsity,65.18,122.47,131.54,-140.61,131.54,65.77,-72.57,-72.57,65.77,147.42,154.22,161.03,161.03,358.34,14,SBD,Single-ply,M
Justin Mitchell,Mt. Morris,65.77,Junior Varsity,61.6,106.59,-115.67,120.2,120.2,56.7,61.23,-63.5,61.23,165.56,174.63,183.7,183.7,365.13,15,SBD,Single-ply,M
Codey Miller,Edwardsburg,65.77,Junior Varsity,65,102.06,106.59,-111.13,106.59,133.81,,,133.81,151.95,-165.56,-165.56,151.95,392.35,16,SBD,Single-ply,M
Kody Kelso,Mt. Morris,65.77,Junior Varsity,64.68,102.06,-111.13,-111.13,102.06,-90.72,90.72,95.25,95.25,122.47,131.54,136.08,136.08,333.39,17,SBD,Single-ply,M
Micah Ivey,Linden,65.77,Junior Varsity,60.55,-113.4,113.4,-127.01,113.4,65.77,70.31,-77.11,70.31,127.01,-136.08,-136.08,127.01,310.72,18,SBD,Single-ply,M
Travis Feazel,Dexter,65.77,Junior Varsity,61.14,-70.31,-70.31,-70.31,,54.43,58.97,-65.77,58.97,88.45,92.99,-102.06,92.99,,DQ,SBD,Single-ply,M
Justin Woolwine,Vassar,65.77,Junior Varsity,65.32,-120.2,-120.2,,,-88.45,-90.72,-90.72,,,,,,,DQ,SBD,Single-ply,M
Steve Soeder,Clarkston,65.77,Junior Varsity,65.77,-115.67,120.2,124.74,124.74,-83.91,-83.91,-86.18,,-176.9,,,,,DQ,SBD,Single-ply,M
Andrew Schaar,Dewitt,70.31,Junior Varsity,69.13,174.63,183.7,-195.04,183.7,95.25,102.06,106.59,106.59,158.76,174.63,-181.44,174.63,464.93,1,SBD,Single-ply,M
David Lanford,Mt. Morris,70.31,Junior Varsity,68.17,-156.49,158.76,165.56,165.56,102.06,-106.59,106.59,106.59,,177.35,183.7,183.7,455.86,2,SBD,Single-ply,M
Ryan Mechaney,Lowell,70.31,Junior Varsity,69.9,-158.76,158.76,-174.63,158.76,77.11,86.18,90.72,90.72,183.7,-199.58,199.58,199.58,449.06,3,SBD,Single-ply,M
Levi Hoffman,Morenci,70.31,Junior Varsity,70.22,151.95,158.76,-165.56,158.76,97.52,-102.06,102.06,102.06,165.56,174.63,181.44,181.44,442.25,4,SBD,Single-ply,M
Brandon Goff,Flushing,70.31,Junior Varsity,68.04,167.83,-172.37,-172.37,167.83,86.18,90.72,92.99,92.99,165.56,-172.37,-172.37,165.56,426.38,5,SBD,Single-ply,M
Jacob Cesar,Ithaca,70.31,Junior Varsity,67.09,149.69,-163.29,-163.29,149.69,77.11,83.91,-88.45,83.91,165.56,174.63,185.97,185.97,419.57,6,SBD,Single-ply,M
Ricky Parcels,Flushing,70.31,Junior Varsity,70.26,122.47,129.27,136.08,136.08,95.25,102.06,113.4,113.4,147.42,158.76,-170.1,158.76,408.23,7,SBD,Single-ply,M
Nathan Smith #14,Montague,70.31,Junior Varsity,69.4,102.06,-113.4,133.81,133.81,90.72,-95.25,-97.52,90.72,142.88,163.29,176.9,176.9,401.43,8,SBD,Single-ply,M
Justin Vanacker,Lowell,70.31,Junior Varsity,68.27,129.27,136.08,-142.88,136.08,95.25,99.79,-102.06,99.79,145.15,154.22,-158.76,154.22,390.09,9,SBD,Single-ply,M
Max Aparicio,Newaygo,70.31,Junior Varsity,69.54,113.4,127.01,-142.88,127.01,-83.91,88.45,-90.72,88.45,-158.76,-170.1,170.1,170.1,385.55,10,SBD,Single-ply,M
Chris Mullins,Holton,70.31,Junior Varsity,70.03,131.54,136.08,-142.88,136.08,90.72,-95.25,97.52,97.52,142.88,151.95,-165.56,151.95,385.55,11,SBD,Single-ply,M
Ryan Lucas #4,Morenci,70.31,Junior Varsity,69.58,124.74,129.27,-133.81,129.27,81.65,-86.18,-86.18,81.65,158.76,170.1,-172.37,170.1,381.02,12,SBD,Single-ply,M
Kyle Nash,TC West,70.31,Junior Varsity,70.31,122.47,-127.01,-127.01,122.47,-92.99,-92.99,92.99,92.99,140.61,158.76,-172.37,158.76,374.21,13,SBD,Single-ply,M
Greg Bloomfield,Mt. Morris,70.31,Junior Varsity,69.22,-133.81,133.81,,133.81,79.38,83.91,-86.18,83.91,140.61,-154.22,154.22,154.22,371.95,14,SBD,Single-ply,M
Jordan Flickinger,Gaylord,70.31,Junior Varsity,70.31,106.59,113.4,-124.74,113.4,88.45,92.99,-99.79,92.99,149.69,165.56,-183.7,165.56,371.95,15,SBD,Single-ply,M
Chase Franas,Holton,70.31,Junior Varsity,70.03,124.74,-142.88,142.88,142.88,70.31,77.11,-81.65,77.11,136.08,147.42,-151.95,147.42,367.41,16,SBD,Single-ply,M
Brad Bialobrzeski,Standish,70.31,Junior Varsity,68.67,106.59,-115.67,-120.2,106.59,90.72,95.25,-97.52,95.25,136.08,151.95,-158.76,151.95,353.8,17,SBD,Single-ply,M
Rayshun Day,Muskegon,70.31,Junior Varsity,70.22,-97.52,102.06,104.33,104.33,-68.04,74.84,-83.91,74.84,124.74,138.35,145.15,145.15,324.32,18,SBD,Single-ply,M
Shannon Evans #3,Muskegon,70.31,Junior Varsity,68.58,-149.69,-149.69,-149.69,,104.33,108.86,-113.4,108.86,-167.83,172.37,185.97,185.97,,DQ,SBD,Single-ply,M
Justin Tino,Sandusky,70.31,Junior Varsity,68.9,-138.35,-138.35,-138.35,,77.11,81.65,-88.45,81.65,142.88,151.95,-163.29,151.95,,DQ,SBD,Single-ply,M
Xavier Delossantos,Clarkston,70.31,Junior Varsity,69.31,-124.74,-124.74,-124.74,,,,,,,,,,,DQ,SBD,Single-ply,M
Matt Embury,Atherton,74.84,Junior Varsity,73.94,163.29,-167.83,167.83,167.83,90.72,95.25,97.52,97.52,195.04,201.85,208.65,208.65,474,1,SBD,Single-ply,M
Jordan Langs,Climax,74.84,Junior Varsity,74.75,163.29,172.37,183.7,183.7,83.91,90.72,-92.99,90.72,176.9,188.24,195.04,195.04,469.47,2,SBD,Single-ply,M
Robert Lee Towery,Standish,74.84,Junior Varsity,74.84,165.56,-174.63,174.63,174.63,92.99,97.52,102.06,102.06,179.17,188.24,-195.04,188.24,464.93,3,SBD,Single-ply,M
Cam Wiechmann,Birch Run,74.84,Junior Varsity,73.8,136.08,-142.88,-142.88,136.08,108.86,115.67,-124.74,115.67,170.1,181.44,197.31,197.31,449.06,4,SBD,Single-ply,M
Alex Steel,Genesse,74.84,Junior Varsity,73.16,-158.76,158.76,-167.83,158.76,86.18,-92.99,92.99,92.99,190.51,-199.58,-208.65,190.51,442.25,5,SBD,Single-ply,M
Donnie Bisel,Newaygo,74.84,Junior Varsity,72.76,136.08,158.76,-163.29,158.76,-83.91,83.91,-90.72,83.91,167.83,181.44,188.24,188.24,430.91,6,SBD,Single-ply,M
Chase Wiechmann,Birch Run,74.84,Junior Varsity,72.94,136.08,-147.42,-147.42,136.08,99.79,106.59,115.67,115.67,151.95,165.56,174.63,174.63,426.38,7,SBD,Single-ply,M
Ross Strokes,Muskegon,74.84,Junior Varsity,73.03,138.35,-147.42,147.42,147.42,90.72,95.25,-99.79,95.25,149.69,170.1,-183.7,170.1,412.77,8,SBD,Single-ply,M
James Scmidt,Montague,74.84,Junior Varsity,71.94,124.74,-133.81,-136.08,124.74,90.72,97.52,-102.06,97.52,158.76,183.7,-192.78,183.7,405.97,9,SBD,Single-ply,M
Cody Groulx,Montrose,74.84,Junior Varsity,73.84,-133.81,133.81,142.88,142.88,88.45,92.99,95.25,95.25,149.69,-167.83,167.83,167.83,405.97,10,SBD,Single-ply,M
Tim Suchodolski,Flushing,74.84,Junior Varsity,74.48,133.81,138.35,-145.15,138.35,95.25,97.52,-99.79,97.52,158.76,170.1,-172.37,170.1,405.97,11,SBD,Single-ply,M
Matt Brinker,Plainwell,74.84,Junior Varsity,73.84,124.74,136.08,-142.88,136.08,79.38,83.91,-88.45,83.91,174.63,183.7,-190.51,183.7,403.7,12,SBD,Single-ply,M
Andy Brinker,Plainwell,74.84,Junior Varsity,72.98,120.2,133.81,-138.35,133.81,83.91,90.72,-95.25,90.72,174.63,-181.44,-181.44,174.63,399.16,13,SBD,Single-ply,M
Jake Childs,TC West,74.84,Junior Varsity,74.48,136.08,-145.15,145.15,145.15,90.72,-95.25,-95.25,90.72,136.08,149.69,-167.83,149.69,385.55,14,SBD,Single-ply,M
Adam Larson,Harper Creek,74.84,Junior Varsity,72.76,-113.4,-122.47,122.47,122.47,92.99,97.52,-102.06,97.52,142.88,154.22,-165.56,154.22,374.21,15,SBD,Single-ply,M
John Webber,Dexter,74.84,Junior Varsity,74.84,-88.45,92.99,102.06,102.06,81.65,86.18,-90.72,86.18,163.29,167.83,176.9,176.9,365.14,16,SBD,Single-ply,M
Chris Cosens,Garber,74.84,Junior Varsity,72.98,131.54,-136.08,136.08,136.08,-90.72,-90.72,-90.72,,149.69,158.76,167.83,167.83,,DQ,SBD,Single-ply,M
Keith Niochol,Lowell,74.84,Junior Varsity,74.3,-165.56,-165.56,-165.56,,,,,,,,,,,DQ,SBD,Single-ply,M
Zac Johnson,Morenci,82.1,Junior Varsity,79.65,136.08,151.95,158.76,158.76,-106.59,106.59,113.4,113.4,174.63,183.7,197.31,197.31,469.47,1,SBD,Single-ply,M
Tom Zintsmaster,Powers,82.1,Junior Varsity,79.42,136.08,149.69,-154.22,149.69,-113.4,113.4,117.93,117.93,179.17,185.97,192.78,192.78,460.4,2,SBD,Single-ply,M
Jeremiah Pratt,North Branch,82.1,Junior Varsity,81.56,-163.29,163.29,172.37,172.37,-115.67,115.67,-120.2,115.67,163.29,-170.1,172.36,172.36,460.4,3,SBD,Single-ply,M
Josh Teems,Armada,82.1,Junior Varsity,81.65,142.88,-154.22,-154.22,142.88,104.33,113.4,-117.93,113.4,188.24,204.12,-208.65,204.12,460.4,4,SBD,Single-ply,M
Ryan Peters,Mt. Morris,82.1,Junior Varsity,79.74,136.08,145.15,-154.22,145.15,95.25,102.06,-106.59,102.06,188.24,199.58,208.65,208.65,455.86,5,SBD,Single-ply,M
Joe Stachowicz,Whitehall,82.1,Junior Varsity,79.06,154.22,170.1,-183.7,170.1,81.65,88.45,-92.99,88.45,172.37,195.04,-204.12,195.04,453.59,6,SBD,Single-ply,M
Bill Watikunas,Lowell,82.1,Junior Varsity,81.56,163.29,-174.63,179.17,179.17,90.72,-97.52,-97.52,90.72,165.56,183.7,-188.24,183.7,453.59,7,SBD,Single-ply,M
Craig Keith,Plainwell,82.1,Junior Varsity,81.74,133.81,142.88,149.69,149.69,92.99,99.79,106.59,106.59,176.9,181.44,183.7,183.7,439.98,8,SBD,Single-ply,M
Jeff Martin,Holton,82.1,Junior Varsity,74.98,165.56,-170.1,-170.1,165.56,97.52,102.06,-106.59,102.06,165.56,-174.63,-174.63,165.56,433.18,9,SBD,Single-ply,M
Jimmy Marker,Vassar,82.1,Junior Varsity,80.51,-133.81,142.88,147.42,147.42,83.91,92.99,-95.25,92.99,174.63,181.44,188.24,188.24,428.64,10,SBD,Single-ply,M
Rob Kautman,Kingsley,82.1,Junior Varsity,77.93,122.47,-129.27,131.54,131.54,102.06,106.59,-115.67,106.59,174.63,183.7,188.24,188.24,426.38,11,SBD,Single-ply,M
Dustin Mayner,Linden,82.1,Junior Varsity,81.01,-136.08,136.08,147.42,147.42,106.59,-113.4,-113.4,106.59,161.03,172.37,-181.44,172.37,426.38,12,SBD,Single-ply,M
Justin Story,Lowell,82.1,Junior Varsity,80.56,-138.35,-142.88,142.88,142.88,83.91,88.45,-90.72,88.45,183.7,188.24,192.78,192.78,424.11,13,SBD,Single-ply,M
Charles Osborn,Linden,82.1,Junior Varsity,80.51,-151.95,-151.95,151.95,151.95,-97.52,99.79,108.86,108.86,-161.03,161.03,-165.56,161.03,421.84,14,SBD,Single-ply,M
Brad Peterson,Fenton,82.1,Junior Varsity,81.01,-147.42,147.42,-151.95,147.42,102.06,106.59,-113.4,106.59,158.76,-165.56,165.56,165.56,419.57,15,SBD,Single-ply,M
Shane Elliot,Lowell,82.1,Junior Varsity,81.69,-158.76,-158.76,163.29,163.29,88.45,95.25,-104.33,95.25,158.76,-179.17,-179.17,158.76,417.3,16,SBD,Single-ply,M
John Ingamills,Linden,82.1,Junior Varsity,81.6,-151.95,-151.95,151.95,151.95,92.99,-102.06,-102.06,92.99,-156.49,-165.56,165.56,165.56,410.5,17,SBD,Single-ply,M
Mickey Stiles,Montrose,82.1,Junior Varsity,76.7,145.15,-158.76,-158.76,145.15,83.91,-90.72,-90.72,83.91,163.29,176.9,-183.7,176.9,405.97,18,SBD,Single-ply,M
Sam McClure,Birch Run,82.1,Junior Varsity,80.97,136.08,142.88,-147.42,142.88,95.25,99.79,104.33,104.33,149.69,-156.49,-156.49,149.69,396.89,19,SBD,Single-ply,M
Craig Lorentz,Lowell,82.1,Junior Varsity,80.2,124.74,-136.08,-142.88,124.74,83.91,-88.45,-90.72,83.91,-183.7,183.7,-192.78,183.7,392.36,20,SBD,Single-ply,M
Mitch Fiebiger,Plainwell,82.1,Junior Varsity,81.92,-127.01,127.01,-133.81,127.01,81.65,86.18,97.52,97.52,136.08,149.69,158.76,158.76,383.29,21,SBD,Single-ply,M
Shane Kwapis,Gaylord,82.1,Junior Varsity,79.2,115.67,122.47,-127.01,122.47,92.99,-97.52,-97.52,92.99,-156.49,-165.56,165.56,165.56,381.02,22,SBD,Single-ply,M
Lance Palmer,Harper Creek,82.1,Junior Varsity,81.33,142.88,154.22,-165.56,154.22,83.91,90.72,-97.52,90.72,136.08,-156.49,-165.56,136.08,381.02,23,SBD,Single-ply,M
Justin Whitmire,Gaylord,82.1,Junior Varsity,77.66,106.59,113.4,-124.74,113.4,92.99,95.25,-97.52,95.25,161.03,-165.56,-165.56,161.03,369.68,24,SBD,Single-ply,M
Chris Altheiner,Flushing,82.1,Junior Varsity,81.24,-158.76,158.76,-170.1,158.76,-113.4,-115.67,-115.67,,-176.9,-183.7,-183.7,,,DQ,SBD,Single-ply,M
Jeremy House,Montrose,82.1,Junior Varsity,81.6,-165.56,-165.56,-165.56,,-102.06,,,,,,,,,DQ,SBD,Single-ply,M
Jacob Winston,Goodrich,82.1,Junior Varsity,81.6,-170.1,-170.1,-170.1,,-115.67,,,,,,,,,DQ,SBD,Single-ply,M
Cale Kozicki,Montague,82.1,Junior Varsity,81.6,-106.59,-113.4,-124.74,,-102.06,-108.86,108.86,108.86,147.42,158.76,-163.29,158.76,,DQ,SBD,Single-ply,M
Daniel Anderson,Montague,82.1,Junior Varsity,82.01,-113.4,-113.4,-122.47,,95.25,-97.52,-99.79,95.25,158.76,-183.7,-183.7,158.76,,DQ,SBD,Single-ply,M
Kameron Blake,Lowell,88,Junior Varsity,87.54,204.12,-215.46,215.46,215.46,92.99,97.52,-102.06,97.52,222.26,233.6,-249.48,233.6,546.58,1,SBD,Single-ply,M
Brad Leverenze,Wayne Memorial,88,Junior Varsity,87.27,174.63,-179.17,-179.17,174.63,111.13,,-117.93,111.13,-183.7,183.7,197.31,197.31,483.08,2,SBD,Single-ply,M
Rob Hassman,Flushing,88,Junior Varsity,84.46,-165.56,165.56,-172.37,165.56,108.86,-113.4,-113.4,108.86,183.7,-188.24,-188.24,183.7,458.13,3,SBD,Single-ply,M
Dan Diem,Montrose,88,Junior Varsity,84.96,142.88,154.22,-165.56,154.22,104.33,115.67,122.47,122.47,158.76,176.9,181.44,181.44,458.13,4,SBD,Single-ply,M
Jeff Haley,Birch Run,88,Junior Varsity,87.86,156.49,165.56,174.63,174.63,95.25,99.79,-104.33,99.79,151.95,161.03,174.63,174.63,449.06,5,SBD,Single-ply,M
John Solgat,Vassar,88,Junior Varsity,86.45,133.81,142.88,147.42,147.42,90.72,97.52,-99.79,97.52,172.37,181.44,-188.24,181.44,426.38,6,SBD,Single-ply,M
Ryan Goff,Flushing,88,Junior Varsity,85.73,136.08,154.22,163.29,163.29,79.38,88.45,-92.99,88.45,172.37,-181.44,-181.44,172.37,424.11,7,SBD,Single-ply,M
Kyle Hall,Newaygo,88,Junior Varsity,87.18,-142.88,-158.76,158.76,158.76,90.72,102.06,-111.13,102.06,-142.88,158.76,-165.56,158.76,419.57,8,SBD,Single-ply,M
Ryan Johnson,Climax,88,Junior Varsity,84.87,124.74,142.88,151.95,151.95,74.84,83.91,88.45,88.45,142.88,161.03,167.83,167.83,408.23,9,SBD,Single-ply,M
Zach Wilson #3,TC West,88,Junior Varsity,85.82,140.61,-145.15,-145.15,140.61,104.33,-108.86,-108.86,104.33,-158.76,-158.76,158.76,158.76,403.7,10,SBD,Single-ply,M
Carl Tibbits,Holton,88,Junior Varsity,86.73,124.74,133.81,-142.88,133.81,102.06,104.33,-111.13,104.33,147.42,-154.22,-161.03,147.42,385.55,11,SBD,Single-ply,M
Alex Summers,Powers,88,Junior Varsity,87.18,81.65,97.52,102.06,102.06,54.43,61.23,-65.77,61.23,136.08,149.69,154.22,154.22,317.51,12,SBD,Single-ply,M
Adam Middleton,Newaygo,88,Junior Varsity,84.64,-136.08,149.69,-158.76,149.69,-102.06,-117.93,-117.93,,-136.08,,,,,DQ,SBD,Single-ply,M
Kevin Williams,Lake Fenton,88,Junior Varsity,86.23,-142.88,-145.15,-145.15,,90.72,-97.52,-97.52,90.72,167.83,-172.37,-172.37,167.83,,DQ,SBD,Single-ply,M
Morry Hager,Comstock,88,Junior Varsity,86.45,-133.81,-142.88,-142.88,,97.52,-102.06,-102.06,97.52,183.7,-192.78,-192.78,183.7,,DQ,SBD,Single-ply,M
Matt Short,Mt. Morris,93.89,Junior Varsity,89.72,206.38,215.46,-219.99,215.46,124.74,129.27,-136.08,129.27,190.51,201.85,-210.92,201.85,546.58,1,SBD,Single-ply,M
Scott Edwards,Goodrich,93.89,Junior Varsity,92.67,165.56,-185.97,-185.97,165.56,117.93,129.27,-131.54,129.27,188.24,199.58,208.65,208.65,503.49,2,SBD,Single-ply,M
Mike Crain,Lowell,93.89,Junior Varsity,93.35,181.44,-195.04,-195.04,181.44,102.06,106.59,111.13,111.13,188.24,-197.31,197.31,197.31,489.88,3,SBD,Single-ply,M
Amir Adu Aita,Genesee,93.89,Junior Varsity,93.85,-147.42,,165.56,165.56,-102.06,104.33,108.86,108.86,183.7,190.51,199.58,199.58,474,4,SBD,Single-ply,M
Mark Stowowy,Standish,93.89,Junior Varsity,91.94,158.76,165.56,-170.1,165.56,111.13,-120.2,-120.2,111.13,183.7,-195.04,-195.04,183.7,460.4,5,SBD,Single-ply,M
Ryan Ingle,Wayne,93.89,Junior Varsity,91.4,-149.69,165.56,-174.63,165.56,-90.72,92.99,-97.52,92.99,170.1,183.7,192.78,192.78,451.32,6,SBD,Single-ply,M
Wesley Smith,Birch Run,93.89,Junior Varsity,92.35,145.15,149.69,156.49,156.49,86.18,90.72,-95.25,90.72,-174.63,174.63,-188.24,174.63,421.84,7,SBD,Single-ply,M
Clayton McKane,Montrose,93.89,Junior Varsity,90.4,142.88,151.95,-161.03,151.95,99.79,-104.33,-104.33,99.79,158.76,-172.37,-172.37,158.76,410.5,8,SBD,Single-ply,M
Zach Gregorich,Ontonagon,93.89,Junior Varsity,89.54,124.74,133.81,-147.42,133.81,115.67,-120.2,,115.67,142.88,158.76,-174.63,158.76,408.23,9,SBD,Single-ply,M
Connor Mannion,Saugatuck,93.89,Junior Varsity,90.04,124.74,-136.08,136.08,136.08,83.91,-90.72,-90.72,83.91,183.7,-188.24,188.24,188.24,408.23,10,SBD,Single-ply,M
Zac Bahr,Goodrich,93.89,Junior Varsity,92.03,136.08,145.15,-151.95,145.15,90.72,-92.99,-92.99,90.72,-158.76,158.76,-163.29,158.76,394.63,11,SBD,Single-ply,M
Ryan Pender,Ontonagon,93.89,Junior Varsity,91.17,102.06,113.4,,113.4,97.52,102.06,-104.33,102.06,142.88,151.95,-161.03,151.95,367.41,12,SBD,Single-ply,M
Curtis Vanden,Gaylord,93.89,Junior Varsity,93.17,131.54,136.08,-145.15,136.08,74.84,79.38,-83.91,79.38,147.42,151.95,-158.76,151.95,367.41,13,SBD,Single-ply,M
Josh DeHaan,Plainwell,93.89,Junior Varsity,92.31,163.29,-174.63,176.9,176.9,-111.13,-111.13,-111.13,,190.51,204.12,-208.65,204.12,,DQ,SBD,Single-ply,M
Evan Powers,Mt. Morris,99.79,Junior Varsity,96.52,170.1,-181.44,181.44,181.44,131.54,138.35,145.15,145.15,183.7,195.04,204.12,204.12,530.7,1,SBD,Single-ply,M
Austin Toy,Sandusky,99.79,Junior Varsity,96.89,-183.7,-183.7,190.51,190.51,138.35,145.15,-149.69,145.15,183.7,-195.04,-195.04,183.7,519.36,2,SBD,Single-ply,M
Richard Haupt,Sandusky,99.79,Junior Varsity,,172.37,183.7,-195.04,183.7,99.79,104.33,-108.86,104.33,192.78,204.12,-215.46,204.12,492.15,3,SBD,Single-ply,M
Randy Allen,Birch Run,99.79,Junior Varsity,96.34,-165.56,174.63,183.7,183.7,95.25,99.79,-106.59,99.79,174.63,-181.44,-181.44,174.63,458.13,4,SBD,Single-ply,M
Brennan Smith,Morenci,99.79,Junior Varsity,,124.74,-138.35,142.88,142.88,99.79,104.33,108.86,108.86,172.37,183.7,-188.24,183.7,435.45,5,SBD,Single-ply,M
Brandon Thibideau,Colon,99.79,Junior Varsity,96.25,115.67,124.74,149.69,149.69,79.38,-102.06,102.06,102.06,161.03,170.1,-185.97,170.1,421.84,6,SBD,Single-ply,M
Russ Beckley,Saugatuck,99.79,Junior Varsity,98.88,142.88,-151.95,154.22,154.22,88.45,92.99,-95.25,92.99,170.1,-183.7,-183.7,170.1,417.3,7,SBD,Single-ply,M
Zack Baiwinski,Garber,99.79,Junior Varsity,97.25,145.15,-151.95,151.95,151.95,83.91,88.45,-90.72,88.45,149.69,154.22,-158.76,154.22,394.63,8,SBD,Single-ply,M
Brad Wordman,Lowell,99.79,Junior Varsity,96.43,138.35,145.15,-149.69,145.15,61.23,65.77,-68.04,65.77,142.88,149.69,-158.76,149.69,360.61,9,SBD,Single-ply,M
Brad Stroh,Standish,99.79,Junior Varsity,99.65,108.86,113.4,117.93,117.93,81.65,86.18,-88.45,86.18,136.08,140.61,-142.88,140.61,344.73,10,SBD,Single-ply,M
Alan Eastobn,Goodrich,109.77,Junior Varsity,108.45,190.51,204.12,210.92,210.92,165.56,-174.63,-174.63,165.56,190.51,197.31,-204.12,197.31,573.79,1,SBD,Single-ply,M
Michael Meyers,Climax,109.77,Junior Varsity,109.59,170.1,-181.44,-181.44,170.1,95.25,99.79,-102.06,99.79,204.12,-217.72,217.72,217.72,487.61,2,SBD,Single-ply,M
Dallas Schrepper,Shelby,109.77,Junior Varsity,105.69,-145.15,145.15,167.83,167.83,99.79,-115.67,-115.67,99.79,-170.1,170.1,188.24,188.24,455.86,3,SBD,Single-ply,M
Zachary Themm,Nouvel,109.77,Junior Varsity,100.06,156.49,163.29,167.83,167.83,-102.06,102.06,-106.59,102.06,179.17,-183.7,-183.7,179.17,449.06,4,SBD,Single-ply,M
Chris Abu-eita,Lakeville,109.77,Junior Varsity,102.19,-163.29,-163.29,163.29,163.29,90.72,102.06,-108.86,102.06,-163.29,163.29,-181.44,163.29,428.64,5,SBD,Single-ply,M
Dan Hogan,Lowell,109.77,Junior Varsity,109.23,113.4,-122.47,127.01,127.01,63.5,68.04,-72.57,68.04,127.01,136.08,156.49,156.49,351.53,6,SBD,Single-ply,M
Cody Chambers,Lowell,109.77,Junior Varsity,109.59,113.4,117.93,124.74,124.74,72.57,79.38,-90.72,79.38,122.47,131.54,145.15,145.15,349.27,7,SBD,Single-ply,M
Mike Rose #3,Richmond,109.77,Junior Varsity,100.15,156.49,-165.56,-165.56,156.49,-106.59,-106.59,-106.59,,197.31,-208.65,-217.72,197.31,,DQ,SBD,Single-ply,M
Dustin Hippensteel,Atherton,109.77,Junior Varsity,101.65,-174.63,-181.44,-181.44,,-113.4,-113.4,-113.4,,,,,,,DQ,SBD,Single-ply,M
John Harris,Muskegon,109.77,Junior Varsity,109.77,-165.56,-165.56,-165.56,,-97.52,-97.52,-97.52,,,,,,,DQ,SBD,Single-ply,M
Rex West,Colon,124.74,Junior Varsity,120.66,183.7,197.31,206.38,206.38,-124.74,124.74,136.98,136.98,229.06,-249.48,-249.48,229.06,572.42,1,SBD,Single-ply,M
Corey Keyton,TC West,124.74,Junior Varsity,120.66,174.63,183.7,204.12,204.12,90.72,102.06,111.13,111.13,190.51,199.58,-231.33,199.58,514.83,2,SBD,Single-ply,M
Matt Loubert,Harbor Springs,124.74,Junior Varsity,119.75,-158.76,181.44,-204.12,181.44,113.4,-124.74,-131.54,113.4,215.46,-249.48,-249.48,215.46,510.3,3,SBD,Single-ply,M
Nick Coppersmith,Harper Creek,124.74,Junior Varsity,116.53,136.08,165.56,181.44,181.44,113.4,124.74,-127.01,124.74,181.44,-192.78,-192.78,181.44,487.62,4,SBD,Single-ply,M
Trevor Holt,South Haven,124.74,Junior Varsity,121.43,-158.76,163.29,-165.56,163.29,122.47,127.01,131.54,131.54,185.97,190.51,-197.31,190.51,485.34,5,SBD,Single-ply,M
Russell Terbeeky,Lee,124.74,Junior Varsity,121.56,129.27,142.88,151.95,151.95,74.84,86.18,97.52,97.52,176.9,197.31,206.38,206.38,455.85,6,SBD,Single-ply,M
Steve Bonar,Powers,124.74,Junior Varsity,120.25,170.1,181.44,-185.97,181.44,102.06,108.86,-111.13,108.86,140.61,156.49,161.03,161.03,451.33,7,SBD,Single-ply,M
Jon Nuckles,Kinglsey,124.74,Junior Varsity,118.02,156.49,-161.03,163.29,163.29,113.4,120.2,-124.74,120.2,149.69,158.76,-170.1,158.76,442.25,8,SBD,Single-ply,M
Dan Roberts,Garber,124.74,Junior Varsity,115.85,142.88,147.42,-154.22,147.42,90.72,99.79,104.33,104.33,-147.42,158.76,167.83,167.83,419.58,9,SBD,Single-ply,M
Korey Komar,Kenowa Hills,124.74,Junior Varsity,124.19,-142.88,-142.88,142.88,142.88,79.38,-83.91,-83.91,79.38,-183.7,183.7,195.04,195.04,417.3,10,SBD,Single-ply,M
Felix Boucher,Newaygo,124.74,Junior Varsity,119.75,102.06,-136.08,-154.22,102.06,92.99,106.59,117.93,117.93,136.08,,176.9,176.9,396.89,11,SBD,Single-ply,M
AJ Nozal,Lowell,124.74,Junior Varsity,121.34,124.74,138.35,-142.88,138.35,83.91,88.45,-92.99,88.45,138.35,147.42,154.22,154.22,381.02,12,SBD,Single-ply,M
Blake Hutchinson,Montrose,124.74,Junior Varsity,113.08,-176.9,-176.9,-176.9,,-97.52,-97.52,97.52,97.52,172.37,-185.97,,172.37,,DQ,SBD,Single-ply,M
Kevin Martinez,Comstock,124.74+,Junior Varsity,145.19,170.1,183.7,-192.78,183.7,-124.74,-133.81,133.81,133.81,-199.58,-206.38,208.65,208.65,526.17,1,SBD,Single-ply,M
Ryan Millikan,Waterford Mott,124.74+,Junior Varsity,144.11,165.56,183.7,197.31,197.31,106.59,120.2,131.54,131.54,188.24,-206.38,-206.38,188.24,517.1,2,SBD,Single-ply,M
Troy Walker,Montrose,124.74+,Junior Varsity,149.5,-219.99,-219.99,219.99,219.99,106.59,-115.67,-115.67,106.59,181.44,190.51,-204.12,190.51,517.1,3,SBD,Single-ply,M
Wade Lambertoon,Flushing,124.74+,Junior Varsity,164.38,-183.7,183.7,-199.58,183.7,115.67,124.74,131.54,131.54,-163.29,163.29,-172.37,163.29,478.54,4,SBD,Single-ply,M
Joe Slepka,Ulby,124.74+,Junior Varsity,154.86,136.08,158.76,-181.44,158.76,90.72,99.79,104.33,104.33,192.78,-204.12,-226.8,192.78,455.86,5,SBD,Single-ply,M
Scott Shastha,Lee,124.74+,Junior Varsity,137.71,147.42,-165.56,-165.56,147.42,79.38,88.45,102.06,102.06,147.42,158.76,170.1,170.1,419.57,6,SBD,Single-ply,M
Sam Hirons,Holton,124.74+,Junior Varsity,142.29,138.35,142.88,-149.69,142.88,79.38,-86.18,-86.18,79.38,185.97,192.78,197.31,197.31,419.57,7,SBD,Single-ply,M
Devin Cambell,Mott,124.74+,Junior Varsity,130.54,-131.54,-136.08,136.08,136.08,77.11,-83.91,83.91,83.91,142.88,147.42,-151.95,147.42,367.41,8,SBD,Single-ply,M
Kevin Alveraz,Lee,124.74+,Junior Varsity,141.02,113.4,136.08,-165.56,136.08,-45.36,61.23,-74.84,61.23,158.76,170.1,-190.51,170.1,367.41,9,SBD,Single-ply,M
Don Sebert,Vassar,51.71,Varsity,51.71,106.59,111.13,-120.2,111.13,-61.23,61.23,-63.5,61.23,129.27,138.35,142.88,142.88,315.25,1,SBD,Single-ply,M
Max Grohoskai,Powers,51.71,Varsity,51.17,90.72,104.33,-106.59,104.33,49.9,56.7,-58.97,56.7,122.47,133.81,138.35,138.35,299.37,2,SBD,Single-ply,M
Casee Earl,Colon,51.71,Varsity,50.98,74.84,88.45,-102.06,88.45,58.97,65.77,-70.31,65.77,92.99,106.59,120.2,120.2,274.42,3,SBD,Single-ply,M
Steve Kapala,Powers,51.71,Varsity,50.26,68.04,79.38,-81.65,79.38,54.43,61.23,63.5,63.5,111.13,122.47,-131.54,122.47,265.35,4,SBD,Single-ply,M
Pierre Tyson,Muskegon,51.71,Varsity,51.57,-83.91,-83.91,-83.91,,61.23,65.77,-72.57,65.77,92.99,102.06,117.93,117.93,,DQ,SBD,Single-ply,M
Jeff Baylor,Lakeview,51.71,Varsity,50.03,90.72,-106.59,-106.59,90.72,49.9,54.43,-61.23,54.43,-13.61,-136.08,-136.08,,,DQ,SBD,Single-ply,M
JD Morse,South Haven,55.79,Varsity,54.66,120.2,-127.01,-127.01,120.2,70.31,79.38,-86.18,79.38,138.35,142.88,151.95,151.95,351.53,1,SBD,Single-ply,M
Jeff Steele,Plainwell,55.79,Varsity,55.79,90.72,-104.33,106.59,106.59,74.84,83.91,-90.72,83.91,115.67,133.81,138.35,138.35,328.85,2,SBD,Single-ply,M
Jared Badour,Powers,55.79,Varsity,54.52,104.33,115.67,-117.93,115.67,54.43,61.23,-65.77,61.23,133.81,-145.15,145.15,145.15,322.05,3,SBD,Single-ply,M
Andrew McCarthy,Powers,55.79,Varsity,54.43,77.11,88.45,92.99,92.99,49.9,56.7,63.5,63.5,117.93,129.27,136.08,136.08,292.57,4,SBD,Single-ply,M
Don Wenkle,Gaylord,55.79,Varsity,54.61,61.23,-65.77,-68.04,61.23,61.23,-72.57,-81.65,61.23,111.13,122.47,-136.08,122.47,244.94,5,SBD,Single-ply,M
Armel Johnson,Muskegon,55.79,Varsity,55.7,-97.52,-97.52,-97.52,,-83.91,-83.91,-83.91,,113.4,129.27,-136.08,129.27,,DQ,SBD,Single-ply,M
Don Kaggy,Montrose,55.79,Varsity,54.34,-117.93,-117.93,-136.08,,,,,,,,,,,DQ,SBD,Single-ply,M
Tywan Thompson,Powers,59.87,Varsity,59.74,122.47,136.08,-138.35,136.08,77.11,83.91,88.45,88.45,-215.46,215.46,231.33,231.33,455.86,1,SBD,Single-ply,M
Lee Rhadigan,Richmond,59.87,Varsity,59.87,-165.56,165.56,176.9,176.9,106.59,111.13,-115.67,111.13,-158.76,158.76,165.56,165.56,453.59,2,SBD,Single-ply,M
Ryan Tang,Colon,59.87,Varsity,58.24,127.01,145.15,-158.76,145.15,90.72,102.06,-108.86,102.06,158.76,183.7,-197.31,183.7,430.91,3,SBD,Single-ply,M
Kyle Spiekerman,Plainwell,59.87,Varsity,58.51,124.74,142.88,149.69,149.69,79.38,86.18,-90.72,86.18,145.15,172.37,-181.44,172.37,408.23,4,SBD,Single-ply,M
James Sheridan,Wayne,59.87,Varsity,59.87,124.74,-142.88,145.15,145.15,77.11,81.65,-88.45,81.65,172.37,176.9,-183.7,176.9,403.7,5,SBD,Single-ply,M
Wes Muntz,Vassar,59.87,Varsity,59.83,108.86,124.74,131.54,131.54,79.38,-92.99,-92.99,79.38,136.08,147.42,158.76,158.76,369.68,6,SBD,Single-ply,M
James Laird,Mt. Morris,59.87,Varsity,58.38,-113.4,113.4,124.74,124.74,63.5,70.31,72.57,72.57,158.76,167.83,-174.63,167.83,365.14,7,SBD,Single-ply,M
Steve Atwood,Newaygo,59.87,Varsity,59.38,104.33,124.74,-136.08,124.74,70.31,83.91,88.45,88.45,131.54,149.69,-161.03,149.69,362.87,8,SBD,Single-ply,M
Jason Wheeler,Lakeview,59.87,Varsity,59.74,-124.74,129.27,-142.88,129.27,83.91,-88.45,-92.99,83.91,129.27,142.88,-158.76,142.88,356.07,9,SBD,Single-ply,M
Miguel Quintero,Muskegon,59.87,Varsity,59.24,-174.63,-174.63,-174.63,,113.4,-124.74,-124.74,113.4,-158.76,,,,,DQ,SBD,Single-ply,M
Matt Carpenter,Plainwell,65.77,Varsity,65.27,156.49,170.1,183.7,183.7,108.86,117.93,120.2,120.2,174.63,183.7,192.78,192.78,496.68,1,SBD,Single-ply,M
Nick Sorise,Clarkston,65.77,Varsity,65.77,183.7,192.78,-199.58,192.78,92.99,-97.52,-97.52,92.99,188.24,197.31,-213.19,197.31,483.08,2,SBD,Single-ply,M
Andrew Smith #22,Plainwell,65.77,Varsity,65.68,140.61,-154.22,-154.22,140.61,95.25,102.06,-106.59,102.06,188.24,204.12,233.6,233.6,476.27,3,SBD,Single-ply,M
Ryan Haslett,North Branch,65.77,Varsity,65.54,,-167.83,167.83,167.83,113.4,117.93,-122.47,117.93,183.7,-190.51,-190.51,183.7,469.47,4,SBD,Single-ply,M
Ryan Bettingham,Farwell,65.77,Varsity,65.18,145.15,158.76,-170.1,158.76,102.06,-104.33,-108.86,102.06,149.69,165.56,185.97,185.97,446.79,5,SBD,Single-ply,M
Michael Howard,Montague,65.77,Varsity,65.63,-124.74,136.08,147.42,147.42,102.06,106.59,-113.4,106.59,176.9,-183.7,183.7,183.7,437.72,6,SBD,Single-ply,M
Rich Safford,Vassar,65.77,Varsity,65,124.74,136.08,-142.88,136.08,95.25,104.33,-108.86,104.33,167.83,174.63,-176.9,174.63,415.04,7,SBD,Single-ply,M
Lyle Hewitt,Montague,65.77,Varsity,65.68,113.4,127.01,136.08,136.08,92.99,97.52,102.06,102.06,158.76,-167.83,-167.83,158.76,396.89,8,SBD,Single-ply,M
Kevin Christie,Atherton,65.77,Varsity,65.41,-127.01,-131.54,131.54,131.54,97.52,102.06,-108.86,102.06,158.76,-165.56,-165.56,158.76,392.36,9,SBD,Single-ply,M
Devin Heek,Standish,65.77,Varsity,65.18,142.88,-154.22,-154.22,142.88,70.31,77.11,-86.18,77.11,163.29,-172.37,-172.37,163.29,383.29,10,SBD,Single-ply,M
Jeremy Ball,TC West,65.77,Varsity,65.45,127.01,-136.08,-142.88,127.01,74.84,-79.38,-79.38,74.84,154.22,172.37,-181.44,172.37,374.21,11,SBD,Single-ply,M
Deverin Simmons,Newaygo,65.77,Varsity,65.68,-115.67,-115.67,115.67,115.67,86.18,-102.06,102.06,102.06,133.81,149.69,-172.37,149.69,367.41,12,SBD,Single-ply,M
Jared Pfeiffer,Linden,65.77,Varsity,65.73,124.74,-142.88,142.88,142.88,-97.52,-97.52,-97.52,,174.63,183.7,-190.51,183.7,,DQ,SBD,Single-ply,M
Eric Olmstead,North Branch,70.31,Varsity,69.76,199.58,208.65,-210.92,208.65,-133.81,133.81,136.08,136.08,-199.58,199.58,208.65,208.65,553.38,1,SBD,Single-ply,M
Tony Valente,Goodrich,70.31,Varsity,69.99,183.7,192.78,-201.85,192.78,115.67,120.2,-124.74,120.2,204.12,-215.46,-215.46,204.12,517.1,2,SBD,Single-ply,M
Tony Zelinski,Farwell,70.31,Varsity,68.4,-201.85,201.85,-208.65,201.85,-102.06,102.06,-106.59,102.06,201.85,208.65,-224.53,208.65,512.56,3,SBD,Single-ply,M
Josh Vyvermann,Plainwell,70.31,Varsity,70.26,174.63,183.7,-195.04,183.7,106.59,111.13,113.4,113.4,195.04,206.38,215.46,215.46,512.56,4,SBD,Single-ply,M
Scott Chevaliere,Dexter,70.31,Varsity,68.22,170.1,179.17,185.97,185.97,104.33,111.13,117.93,117.93,176.9,190.51,-195.04,190.51,494.42,5,SBD,Single-ply,M
Brent Gilley,Elk Rapids,70.31,Varsity,70.22,-163.29,163.29,-167.83,163.29,104.33,108.86,113.4,113.4,158.76,172.37,-185.97,172.37,449.06,6,SBD,Single-ply,M
Ben Mathes,Grayling,70.31,Varsity,70.13,158.76,-167.83,167.83,167.83,99.79,-108.86,-127.01,99.79,172.37,176.9,-185.97,176.9,444.52,7,SBD,Single-ply,M
Trevor Johnson,Bullock Creek,70.31,Varsity,69.81,142.88,154.22,-158.76,154.22,92.99,-102.06,-102.06,92.99,183.7,190.51,-195.04,190.51,437.72,8,SBD,Single-ply,M
Chris Farr,Montague,70.31,Varsity,70.17,-142.88,-149.69,149.69,149.69,90.72,99.79,-104.33,99.79,183.7,190.51,-195.04,190.51,439.98,9,SBD,Single-ply,M
James Kennedy,Brandon,70.31,Varsity,67.77,-154.22,-154.22,154.22,154.22,-108.86,108.86,-113.4,108.86,158.76,172.37,-183.7,172.37,435.45,10,SBD,Single-ply,M
Justin Ward,Powers,70.31,Varsity,70.08,140.61,151.95,-154.22,151.95,95.25,102.06,-104.33,102.06,170.1,181.44,-185.97,181.44,435.45,11,SBD,Single-ply,M
Brent Mikkola,Standish,70.31,Varsity,68.13,145.15,149.69,-156.49,149.69,92.99,97.52,-102.06,97.52,179.17,185.97,-192.78,185.97,433.18,12,SBD,Single-ply,M
Alex Maslanka,Saugatuck,70.31,Varsity,67.63,142.88,-156.49,-158.76,142.88,97.52,102.06,-108.86,102.06,161.03,165.56,-170.1,165.56,410.5,13,SBD,Single-ply,M
Bob Miller,Powers,70.31,Varsity,70.31,117.93,129.27,136.08,136.08,61.23,68.04,-77.11,68.04,151.95,165.56,174.63,174.63,378.75,14,SBD,Single-ply,M
Travis Kibler,Plainwell,74.84,Varsity,72.62,199.58,219.99,226.8,226.8,106.59,117.93,-124.74,117.93,219.99,238.14,249.48,249.48,594.21,1,SBD,Single-ply,M
Adam Militello,Garber,74.84,Varsity,73.66,179.17,188.24,192.78,192.78,106.59,-113.4,-113.4,106.59,174.63,192.78,210.92,210.92,510.29,2,SBD,Single-ply,M
Anthony Threet,HH Dow,74.84,Varsity,73.16,165.56,-174.63,176.9,176.9,127.01,-131.54,-131.54,127.01,192.78,204.12,-210.92,204.12,508.02,3,SBD,Single-ply,M
Steven Tyler,Muskegon,74.84,Varsity,74.3,-181.44,-181.44,181.44,181.44,111.13,-117.93,-117.93,111.13,181.44,195.04,-201.85,195.04,487.61,4,SBD,Single-ply,M
Blane Simmons,Wayne,74.84,Varsity,70.35,183.7,-188.24,-188.24,183.7,-102.06,102.06,106.59,106.59,185.97,192.78,-197.31,192.78,483.08,5,SBD,Single-ply,M
Brad Nettle,Clarkston,74.84,Varsity,73.3,156.49,163.29,-167.83,163.29,97.52,102.06,-104.33,102.06,201.85,208.65,-213.19,208.65,474,6,SBD,Single-ply,M
Aaron Horner,Harper Creek,74.84,Varsity,73.62,149.69,163.29,167.83,167.83,102.06,108.86,113.4,113.4,158.76,181.44,192.78,192.78,474,7,SBD,Single-ply,M
Tim Easton,Goodrich,74.84,Varsity,73.16,136.08,-163.29,165.56,165.56,90.72,-102.06,102.06,102.06,181.44,185.97,190.51,190.51,458.13,8,SBD,Single-ply,M
Greg Lee-El,Comstock,74.84,Varsity,72.3,-165.56,-165.56,165.56,165.56,106.59,-108.86,-115.67,106.59,174.63,-183.7,183.7,183.7,455.86,9,SBD,Single-ply,M
James Couture,Nouvel,74.84,Varsity,73.3,142.88,147.42,-151.95,147.42,111.13,-113.4,113.4,113.4,183.7,-192.78,192.78,192.78,453.59,10,SBD,Single-ply,M
Mike Campbell,Atherton,74.84,Varsity,71.35,142.88,147.42,-151.95,147.42,102.06,-106.59,-108.86,102.06,183.7,192.78,-197.31,192.78,442.25,11,SBD,Single-ply,M
Derek Roblyer,Plainwell,74.84,Varsity,73.26,145.15,151.95,-158.76,151.95,99.79,-106.59,-106.59,99.79,179.17,188.24,-195.04,188.24,439.98,12,SBD,Single-ply,M
Tyler Periard,Birch Run,74.84,Varsity,73.71,,-163.29,163.29,163.29,90.72,95.25,99.79,99.79,165.56,176.9,-190.51,176.9,439.98,13,SBD,Single-ply,M
David Briceland,Clarkston,74.84,Varsity,73.21,-156.49,-156.49,156.49,156.49,88.45,-92.99,-92.99,88.45,192.78,201.85,-208.65,201.85,446.79,14,SBD,Single-ply,M
Blake Lindell,Fenton,74.84,Varsity,73.07,142.88,147.42,-156.49,147.42,111.13,115.67,-124.74,115.67,165.56,174.63,-183.7,174.63,437.72,15,SBD,Single-ply,M
Dave Huber,Birch Run,74.84,Varsity,74.66,-151.95,151.95,-158.76,151.95,97.52,-102.06,102.06,102.06,170.1,179.17,-192.78,179.17,433.18,16,SBD,Single-ply,M
Jeff Wolf,Plainwell,74.84,Varsity,73.75,115.67,124.74,138.35,138.35,-88.45,-92.99,95.25,95.25,158.76,181.44,190.51,190.51,424.11,17,SBD,Single-ply,M
Mike Worm,Gaylord,74.84,Varsity,74.84,-113.4,124.74,-136.08,124.74,102.06,-108.86,-113.4,102.06,174.63,-188.24,-188.24,174.63,401.43,18,SBD,Single-ply,M
Maxwell,Muskegon,74.84,Varsity,74.48,-183.7,-183.7,183.7,183.7,-104.33,-104.33,-104.33,,,,,,,DQ,SBD,Single-ply,M
Sean Andewlin,Mott,74.84,Varsity,74.62,-179.17,-179.17,-183.7,,,,,,,,,,,DQ,SBD,Single-ply,M
Gabe Delnick,Lowell,82.1,Varsity,81.56,249.48,-265.35,-265.35,249.48,106.59,111.13,115.67,115.67,204.12,219.99,229.06,229.06,594.21,1,SBD,Single-ply,M
Justin Tuinstra,Plainwell,82.1,Varsity,80.01,210.92,224.53,229.06,229.06,142.88,-147.42,147.42,147.42,199.58,210.92,215.46,215.46,591.94,2,SBD,Single-ply,M
Jacob Gordett,Bullock Creek,82.1,Varsity,79.47,192.78,-206.38,206.38,206.38,108.86,-117.93,-117.93,108.86,206.38,229.06,-247.21,229.06,544.31,3,SBD,Single-ply,M
Thierry Nyamaga,Lee,82.1,Varsity,79.92,-192.78,192.78,-210.92,192.78,104.33,117.93,-129.27,117.93,204.12,-226.8,-226.8,204.12,514.83,4,SBD,Single-ply,M
Kyle McCleod,Linden,82.1,Varsity,81.28,174.63,176.9,183.7,183.7,124.74,131.54,140.61,140.61,179.17,188.24,-195.04,188.24,512.56,5,SBD,Single-ply,M
Ben Sleder,TC West,82.1,Varsity,82.05,-172.37,172.37,-181.44,172.37,-127.01,-131.54,131.54,131.54,195.04,204.12,-213.19,204.12,508.02,6,SBD,Single-ply,M
Joe Johnson,Powers,82.1,Varsity,80.38,161.03,167.83,-174.63,167.83,124.74,-127.01,127.01,127.01,206.38,-215.46,-219.99,206.38,501.22,7,SBD,Single-ply,M
Tom Palmer,Powers,82.1,Varsity,81.01,170.1,181.44,183.7,183.7,106.59,111.13,-113.4,111.13,183.7,190.51,199.58,199.58,494.42,8,SBD,Single-ply,M
Justin Holloway,Fenton,82.1,Varsity,81.06,149.69,156.49,-165.56,156.49,111.13,113.4,117.93,117.93,195.04,199.58,-204.12,199.58,474,9,SBD,Single-ply,M
Tyler Davis,Climax-Scotts,82.1,Varsity,77.88,-142.88,142.88,-197.31,142.88,-115.67,115.67,120.2,120.2,-192.78,192.78,204.12,204.12,467.2,10,SBD,Single-ply,M
Ben Cox,Fenton,82.1,Varsity,80.33,-165.56,165.56,-167.83,165.56,90.72,-95.25,-95.25,90.72,199.58,-204.12,-204.12,199.58,455.86,11,SBD,Single-ply,M
Freddie Jones,Powers,82.1,Varsity,82.01,145.15,-156.49,156.49,156.49,88.45,95.25,97.52,97.52,192.78,-201.85,-201.85,192.78,446.79,12,SBD,Single-ply,M
Rolly Taft,Harper Creek,82.1,Varsity,79.02,-158.76,158.76,-165.56,158.76,97.52,-102.06,-102.06,97.52,183.7,-197.31,-197.31,183.7,439.98,13,SBD,Single-ply,M
Steve Carpenter,Birch Run,82.1,Varsity,81.19,151.95,-158.76,-158.76,151.95,88.45,-92.99,-95.25,88.45,188.24,-201.85,-201.85,188.24,428.64,14,SBD,Single-ply,M
Patrick Grannaran,Gaylord,82.1,Varsity,82.01,142.88,-151.95,-156.49,142.88,111.13,-115.67,-115.67,111.13,170.1,-183.7,,170.1,424.11,15,SBD,Single-ply,M
Brian Schultz,Goodrich,82.1,Varsity,81.92,151.95,-161.03,161.03,161.03,111.13,-122.47,-122.47,111.13,174.63,183.7,-188.24,183.7,455.86,16,SBD,Single-ply,M
Mike Gear,Atherton,82.1,Varsity,80.15,-179.17,-179.17,-179.17,,111.13,-115.67,115.67,115.67,185.97,-192.78,-192.78,185.97,,DQ,SBD,Single-ply,M
Tyler Peet,Ithaca,82.1,Varsity,81.56,-142.88,-142.88,-142.88,,83.91,92.99,-102.06,92.99,206.38,-217.72,-217.72,206.38,,DQ,SBD,Single-ply,M
Rbert Thomas,Muskegon,82.1,Varsity,82.01,-215.46,-215.46,-215.46,,,,,,,,,,,DQ,SBD,Single-ply,M
Brock Graham,Lowell,82.1,Varsity,,-165.56,-165.56,-165.56,,92.99,102.06,106.59,106.59,142.88,158.76,165.56,165.56,,DQ,SBD,Single-ply,M
Dustin Kelly,North Branch,88,Varsity,85.68,-217.72,217.72,224.53,224.53,154.22,-158.76,161.03,161.03,222.26,-233.6,238.14,238.14,623.69,1,SBD,Single-ply,M
Matt Giberson,MT Morris,88,Varsity,86.27,208.65,-222.26,-222.26,208.65,158.76,165.56,-170.1,165.56,226.8,240.4,-251.74,240.4,614.62,2,SBD,Single-ply,M
James Rustenholtz,Climax,88,Varsity,85.09,197.31,204.12,208.65,208.65,117.93,-127.01,-127.01,117.93,215.46,231.33,-267.62,231.33,557.92,3,SBD,Single-ply,M
Mark Sabuda,Livonia Stevenson,88,Varsity,86.41,-181.44,188.24,-195.04,188.24,163.29,172.37,-179.17,172.37,181.44,-192.78,-192.78,181.44,542.04,4,SBD,Single-ply,M
Kris Wood,TC West,88,Varsity,87.91,176.9,-185.97,185.97,185.97,136.08,140.61,-147.42,140.61,199.58,210.92,-226.8,210.92,537.51,5,SBD,Single-ply,M
TJ Campbell,Comstock,88,Varsity,85.23,188.24,-197.31,-197.31,188.24,115.67,-120.2,-120.2,115.67,210.92,219.99,-233.6,219.99,523.9,6,SBD,Single-ply,M
Zach Schmitt,Montague,88,Varsity,88,165.56,-174.63,179.17,179.17,111.13,-120.2,-122.47,111.13,195.04,-215.46,226.8,226.8,517.1,7,SBD,Single-ply,M
Rusty Jentzen,Montrose,88,Varsity,87.68,-172.37,183.7,-195.04,183.7,108.86,-117.93,122.47,122.47,179.17,185.97,-192.78,185.97,492.15,8,SBD,Single-ply,M
Aaron Matt,Standish,88,Varsity,87,163.29,172.37,176.9,176.9,117.93,-124.74,-124.74,117.93,181.44,185.97,190.51,190.51,485.34,9,SBD,Single-ply,M
Cory Schmidt,Garber,88,Varsity,86.45,170.1,176.9,-179.17,176.9,108.86,-120.2,-120.2,108.86,183.7,197.31,-206.38,197.31,483.08,10,SBD,Single-ply,M
Nick Florid,Glen Lake,88,Varsity,85.28,-140.61,140.61,-149.69,140.61,145.16,-154.22,-158.76,145.16,188.24,195.04,-204.12,195.04,480.81,11,SBD,Single-ply,M
Aaron Howland,Linden,88,Varsity,87.95,167.83,-174.63,-174.63,167.83,129.27,-136.08,-140.61,129.27,170.1,-185.97,-188.24,170.1,467.2,12,SBD,Single-ply,M
David Jackson,Muskegon,88,Varsity,88,-172.37,-172.37,-172.37,,142.88,149.69,156.49,156.49,,,,,,DQ,SBD,Single-ply,M
Steve McIsaac,Clarkston,93.89,Varsity,93.03,240.4,247.21,254.01,254.01,122.47,127.01,129.27,129.27,272.16,281.23,285.76,285.76,669.05,1,SBD,Single-ply,M
Anquan Brantly,Muskegon,93.89,Varsity,92.03,-219.99,224.53,-249.48,224.53,117.93,127.01,-133.81,127.01,-226.8,233.6,-249.48,233.6,585.13,2,SBD,Single-ply,M
Mike Bradburn,Goodrich,93.89,Varsity,93.53,215.46,-226.8,226.8,226.8,127.01,136.08,-142.88,136.08,199.58,208.65,-224.53,208.65,571.53,3,SBD,Single-ply,M
Steve Zintsmaster,Powers,93.89,Varsity,90.9,195.04,-199.58,208.65,208.65,122.47,131.54,138.35,138.35,201.85,215.46,-224.53,215.46,562.45,4,SBD,Single-ply,M
Steve Vandenbos,Comstock,93.89,Varsity,90.54,183.7,192.78,-199.58,192.78,129.27,136.08,145.15,145.15,210.92,215.46,-219.99,215.46,553.38,5,SBD,Single-ply,M
Nick Forrest,Gaylord,93.89,Varsity,92.08,-183.7,190.51,-197.31,190.51,124.74,-133.81,-133.81,124.74,219.99,-235.87,-235.87,219.99,535.24,6,SBD,Single-ply,M
Marvin Johnson,Comstock,93.89,Varsity,92.71,215.46,-219.99,-224.53,215.46,104.33,108.86,-115.67,108.86,210.92,-219.99,-219.99,210.92,535.24,7,SBD,Single-ply,M
Andrew Crushman,Wayne,93.89,Varsity,91.49,183.7,190.51,199.58,199.58,104.33,111.13,117.93,117.93,-206.38,206.38,215.46,215.46,532.97,8,SBD,Single-ply,M
Troy Selig,Climax-Scotts,93.89,Varsity,92.22,197.31,-204.12,204.12,204.12,97.52,108.86,115.67,115.67,204.12,-222.26,-222.26,204.12,523.9,9,SBD,Single-ply,M
Andy Stokes,Linden,93.89,Varsity,93.76,-170.1,174.63,188.24,188.24,99.79,106.59,-108.86,106.59,192.78,215.46,-219.99,215.46,510.29,10,SBD,Single-ply,M
Max Bigelow,Lakeview,93.89,Varsity,93.8,161.03,174.63,-183.7,174.63,122.47,-131.54,-131.54,122.47,-190.51,199.58,208.65,208.65,505.76,11,SBD,Single-ply,M
Brandon Davis,Evart,93.89,Varsity,92.44,147.42,165.56,-181.44,165.56,102.06,-111.13,117.93,117.93,190.51,204.12,210.92,210.92,494.42,12,SBD,Single-ply,M
David Prosser,Mt. Morris,93.89,Varsity,91.58,163.29,172.37,-181.44,172.37,-124.74,124.74,-129.27,124.74,185.97,195.04,-210.92,195.04,492.15,13,SBD,Single-ply,M
Dan Meier,Garber,93.89,Varsity,93.85,-165.56,-179.17,179.17,179.17,104.33,111.13,-117.93,111.13,179.17,-185.97,192.78,192.78,483.08,14,SBD,Single-ply,M
Michael Barry,Grayling,93.89,Varsity,93.17,156.49,167.83,-181.44,167.83,92.99,-97.52,-97.52,92.99,176.9,-188.24,-192.78,176.9,437.72,15,SBD,Single-ply,M
John Hill,Lakeview,93.89,Varsity,91.85,158.76,-170.1,-170.1,158.76,113.4,122.47,-129.27,122.47,-204.12,-204.12,-204.12,,,DQ,SBD,Single-ply,M
Brad Shea,Lowell,93.89,Varsity,93.89,-142.88,-142.88,-142.88,,-102.06,102.06,-108.86,102.06,-142.88,142.88,,142.88,,DQ,SBD,Single-ply,M
Mark Zilinski,Montrose,99.79,Varsity,94.66,249.48,272.16,,272.16,165.56,176.9,-185.97,176.9,240.4,254.01,,254.01,703.07,1,SBD,Single-ply,M
Brandon Fiebiger,Plainwell,99.79,Varsity,98.07,215.46,240.4,256.28,256.28,124.74,136.08,-140.61,136.08,249.48,265.35,274.42,274.42,666.78,2,SBD,Single-ply,M
Jacob Zainea,HH Dow,99.79,Varsity,98.38,208.65,-226.8,226.8,226.8,154.22,165.56,172.37,172.37,238.14,258.55,267.62,267.62,666.78,3,SBD,Single-ply,M
JB Quintano,Grayling,99.79,Varsity,99.34,215.46,226.8,233.6,233.6,142.88,-147.42,-147.42,142.88,235.87,-254.01,-256.28,235.87,612.35,4,SBD,Single-ply,M
Eric Gordon,TC West,99.79,Varsity,99.65,204.12,219.99,-233.6,219.99,136.08,142.88,147.42,147.42,217.72,231.33,242.67,242.67,610.08,5,SBD,Single-ply,M
Trevor Onken,Saugatuck,99.79,Varsity,99.25,197.31,204.12,210.92,210.92,142.88,151.95,-158.76,151.95,226.8,238.14,-247.21,238.14,601.01,6,SBD,Single-ply,M
Tim Hortsman,Clarkston,99.79,Varsity,96.93,199.58,210.92,217.72,217.72,140.61,147.42,-151.95,147.42,204.12,210.92,-224.53,210.92,576.06,7,SBD,Single-ply,M
Tyler Gegg,Powers,99.79,Varsity,97.93,213.19,219.99,224.53,224.53,113.4,120.2,122.47,122.47,-213.19,213.19,-224.53,213.19,560.19,8,SBD,Single-ply,M
Dusty Engle,Saugatuck,99.79,Varsity,98.52,181.44,-188.24,-188.24,181.44,-142.88,-142.88,142.88,142.88,192.78,-204.12,-204.12,192.78,517.1,9,SBD,Single-ply,M
Dennis Stall,Owosso,99.79,Varsity,98.2,170.1,-181.44,-181.44,170.1,113.4,117.93,-120.2,117.93,215.46,-229.06,-229.06,215.46,503.49,10,SBD,Single-ply,M
Josh Hazelton,TC West,99.79,Varsity,98.66,145.15,-158.76,-158.76,145.15,108.86,117.93,-127.01,117.93,158.76,172.37,-181.44,172.37,435.45,11,SBD,Single-ply,M
Kyle Estes,Lowell,99.79,Varsity,96.89,133.81,-138.35,138.35,138.35,86.18,92.99,-95.25,92.99,176.9,-183.7,-190.51,176.9,408.23,12,SBD,Single-ply,M
Aaron Komar,Kenowa,99.79,Varsity,97.39,-147.42,-147.42,147.42,147.42,83.91,88.45,-92.99,88.45,158.76,170.1,-183.7,170.1,405.97,13,SBD,Single-ply,M
Thad Green,Powers,109.77,Varsity,100.38,226.8,238.14,244.94,244.94,115.67,122.47,124.74,124.74,265.35,278.96,-297.1,278.96,648.64,1,SBD,Single-ply,M
Don Popielarz,Montrose,109.77,Varsity,108.95,249.48,-260.82,260.82,260.82,-151.95,151.95,158.76,158.76,222.26,-226.8,-231.33,222.26,641.83,2,SBD,Single-ply,M
Dune Cook,Colon,109.77,Varsity,105.46,219.99,233.6,244.94,244.94,142.88,-161.03,-161.03,142.88,226.8,-251.74,-251.74,226.8,614.62,3,SBD,Single-ply,M
Anthony Galczak,Newaygo,109.77,Varsity,106.23,210.92,-224.53,-226.8,210.92,136.08,163.29,-176.9,163.29,222.26,233.6,-244.94,233.6,607.81,4,SBD,Single-ply,M
Tom Birchmeier,Powers,109.77,Varsity,104.78,190.51,201.85,208.65,208.65,127.01,133.81,138.35,138.35,244.94,-254.01,-254.01,244.94,591.94,5,SBD,Single-ply,M
Robert Luke,Lake Fenton,109.77,Varsity,105.82,197.31,210.92,-226.8,210.92,136.08,142.88,-145.15,142.88,204.12,215.46,226.8,226.8,580.6,6,SBD,Single-ply,M
Ryan Mills,Montrose,109.77,Varsity,105.73,213.19,226.8,238.14,238.14,136.08,-161.03,-161.03,136.08,192.78,-197.31,,192.78,566.99,7,SBD,Single-ply,M
Jeff Eves,Plainwell,109.77,Varsity,108.27,-176.9,176.9,-185.97,176.9,147.42,161.03,-170.1,161.03,183.7,197.31,-201.85,197.31,535.24,8,SBD,Single-ply,M
Dan Christ,Lakeview,109.77,Varsity,102.97,-197.31,197.31,-204.12,197.31,120.2,-124.74,-127.01,120.2,206.38,-208.65,,206.38,523.9,9,SBD,Single-ply,M
Chris Kato,Clarkston,109.77,Varsity,103.74,170.1,179.17,183.7,183.7,124.74,131.54,-133.81,131.54,201.85,-210.92,-210.92,201.85,517.1,10,SBD,Single-ply,M
John Gregaites,Lowell,109.77,Varsity,109.59,188.24,199.58,-213.19,199.58,120.2,-127.01,-127.01,120.2,179.17,185.97,195.04,195.04,514.83,11,SBD,Single-ply,M
Derrick Schuber,Livonia,109.77,Varsity,104.51,183.7,195.04,-204.12,195.04,113.4,120.2,-122.47,120.2,-192.78,197.31,-226.8,197.31,512.56,12,SBD,Single-ply,M
Shelby Cross,Montrose,109.77,Varsity,107.23,183.7,-208.65,-208.65,183.7,117.93,-131.54,-131.54,117.93,142.88,158.76,-181.44,158.76,460.4,13,SBD,Single-ply,M
Alex Gilde,McBain,124.74,Varsity,122.2,263.08,290.3,299.37,299.37,170.1,181.44,-190.51,181.44,272.16,283.5,-290.3,283.5,764.3,1,SBD,Single-ply,M
Justin Howard,Plainwell,124.74,Varsity,118.66,226.8,242.67,249.48,249.48,113.4,124.74,-145.15,124.74,226.8,242.67,249.48,249.48,623.69,2,SBD,Single-ply,M
Martin Nelson,Powers,124.74,Varsity,124.65,210.92,215.46,-226.8,215.46,149.69,158.76,163.29,163.29,210.92,224.53,-235.87,224.53,603.28,3,SBD,Single-ply,M
Pat Imhoff,Lakeview,124.74,Varsity,116.12,219.99,231.33,235.87,235.87,-127.01,129.27,142.88,142.88,219.99,-238.14,-238.14,219.99,598.74,4,SBD,Single-ply,M
Brad Bammert,Flushing,124.74,Varsity,119.02,208.65,219.99,-226.8,219.99,129.27,133.81,142.88,142.88,208.65,226.8,-238.14,226.8,589.67,5,SBD,Single-ply,M
Chris Thrasher,Comstock,124.74,Varsity,116.85,210.92,219.99,-229.06,219.99,-124.74,129.27,131.54,131.54,210.92,219.99,226.8,226.8,578.33,6,SBD,Single-ply,M
Gary Hiltz,Birch Run,124.74,Varsity,124.56,215.46,229.06,-238.14,229.06,129.27,133.81,136.08,136.08,174.63,-183.7,-185.97,174.63,539.77,7,SBD,Single-ply,M
Cameron Freeman,Owosso,124.74,Varsity,109.86,174.63,185.97,195.04,195.04,106.59,113.4,-117.93,113.4,215.46,226.8,-233.6,226.8,535.24,8,SBD,Single-ply,M
Tony Adriannse,Lowell,124.74,Varsity,,-183.7,185.97,-197.31,185.97,106.59,113.4,-117.93,113.4,213.19,-226.8,-226.8,213.19,512.56,9,SBD,Single-ply,M
Brandon Holt,Kingsley,124.74,Varsity,117.03,163.29,-172.37,-172.37,163.29,124.74,-129.27,-129.27,124.74,183.7,192.78,204.12,204.12,492.15,10,SBD,Single-ply,M
Pedro Newarro,Muskegon,124.74,Varsity,123.51,174.63,188.24,-192.78,188.24,-102.06,-102.06,102.06,102.06,158.76,-174.63,-174.63,158.76,449.06,11,SBD,Single-ply,M
Andrew Miller #10,Colon,124.74,Varsity,113.94,124.74,147.42,-156.49,147.42,97.52,104.33,-108.86,104.33,174.63,192.78,-201.85,192.78,444.52,12,SBD,Single-ply,M
Matt Arman,Newaygo,124.74+,Varsity,124.78,265.35,294.84,308.44,308.44,174.63,204.12,215.46,215.46,226.8,238.14,247.21,247.21,771.11,1,SBD,Single-ply,M
Terrance Taylor,Muskegon,124.74+,Varsity,132.54,272.16,-285.76,-290.3,272.16,183.7,-192.78,192.78,192.78,272.16,-308.44,-317.51,272.16,737.09,2,SBD,Single-ply,M
Joseph Coolick,Powers,124.74+,Varsity,157.8,-278.96,-278.96,278.96,278.96,138.35,145.15,147.42,147.42,231.33,247.21,258.55,258.55,684.92,3,SBD,Single-ply,M
David Harding,South Haven,124.74+,Varsity,142.93,208.65,-217.72,226.8,226.8,145.15,-149.69,-149.69,145.15,213.19,226.8,-231.33,226.8,598.74,4,SBD,Single-ply,M
Chase Dunham,Mt. Morris,124.74+,Varsity,160.44,201.85,210.92,217.72,217.72,-142.88,145.15,-154.22,145.15,217.72,226.8,229.06,229.06,591.94,5,SBD,Single-ply,M
Brent Chevalier,Standish,124.74+,Varsity,126.33,215.46,-238.14,238.14,238.14,136.08,142.88,-149.69,142.88,208.65,,,208.65,589.67,6,SBD,Single-ply,M
Nick Helmstetter,Flushing,124.74+,Varsity,131.95,219.99,-226.8,235.87,235.87,124.74,129.27,136.08,136.08,199.58,217.72,-222.26,217.72,589.67,7,SBD,Single-ply,M
Jake Meissnest,Clarkston,124.74+,Varsity,136.03,222.26,231.33,-238.14,231.33,140.61,147.42,-151.95,147.42,199.58,217.72,-222.26,217.72,596.47,8,SBD,Single-ply,M
Dave Filipovich,Powers,124.74+,Varsity,131.72,167.83,179.17,188.24,188.24,138.35,145.15,-147.42,145.15,-197.31,-197.31,197.31,197.31,530.7,9,SBD,Single-ply,M
Marcus White,South Haven,124.74+,Varsity,161.48,188.24,-197.31,204.12,204.12,102.06,108.86,-115.67,108.86,208.65,-217.72,-224.53,208.65,521.63,10,SBD,Single-ply,M
Matt Dubois,Linden,124.74+,Varsity,135.71,176.9,-183.7,-183.7,176.9,-149.69,149.69,-158.76,149.69,183.7,-192.78,-197.31,183.7,510.29,11,SBD,Single-ply,M
Alfred Harris,Powers,124.74+,Varsity,167.56,-204.12,204.12,-215.46,204.12,111.13,-120.2,-120.2,111.13,192.78,-204.12,-204.12,192.78,508.02,12,SBD,Single-ply,M
Joshua Lang,Clarkston,124.74+,Varsity,131.9,-190.51,-190.51,-190.51,,,,,,,,,,,DQ,SBD,Single-ply,M
Jon Burns,Crosswell Lex.,124.74+,Varsity,156.17,233.6,-238.14,-238.14,233.6,,,,,,,,,,DQ,SBD,Single-ply,M
Kendra Miller,Plainwell,44,Open,39.78,102.06,108.86,120.2,120.2,56.7,63.5,-68.04,63.5,104.33,108.86,120.2,120.2,303.91,1,SBD,Single-ply,F
Mary Hitt,Lake Fenton,44,Open,42.96,49.9,-56.7,-56.7,49.9,-31.75,31.75,-40.82,31.75,77.11,90.72,95.25,95.25,176.9,2,SBD,Single-ply,F
Madeline Ribant,Flushing,44,Open,43.95,49.9,54.43,58.97,58.97,31.75,34.02,36.29,36.29,61.23,68.04,74.84,74.84,170.1,3,SBD,Single-ply,F
Monica Schmucker,Morenci,44,Open,43.82,45.36,49.9,-56.7,49.9,36.29,38.56,-40.82,38.56,74.84,79.38,-81.65,79.38,167.83,4,SBD,Single-ply,F
Melissa Mora,Lake Fenton,44,Open,43.32,-45.36,-45.36,45.36,45.36,-27.22,-27.22,-27.22,,68.04,77.11,-90.72,77.11,,DQ,SBD,Single-ply,F
Sara Beebe,Plainwell,47.63,Open,46.9,83.91,92.99,102.06,102.06,49.9,56.7,-61.23,56.7,104.33,-115.67,115.67,115.67,274.42,1,SBD,Single-ply,F
Kayla Paff,Plainwell,47.63,Open,47.22,90.72,97.52,104.33,104.33,52.16,56.7,58.97,58.97,92.99,102.06,106.59,106.59,269.89,2,SBD,Single-ply,F
Courtney Wallace,Richmond,47.63,Open,47.4,-95.25,-95.25,95.25,95.25,49.9,-54.43,-54.43,49.9,97.52,106.59,111.13,111.13,256.28,3,SBD,Single-ply,F
April Fuller,Atherton,47.63,Open,47.36,-74.84,77.11,-81.65,77.11,43.09,-47.63,47.63,47.63,86.18,92.99,97.52,97.52,222.26,4,SBD,Single-ply,F
Roxanne Shankster,Morenci,47.63,Open,47.54,65.77,70.31,74.84,74.84,34.02,-38.56,40.82,40.82,86.18,95.25,-104.33,95.25,210.92,5,SBD,Single-ply,F
Ali Smith,Goodrich,47.63,Open,47.17,61.23,65.77,-68.04,65.77,36.29,38.56,-43.09,38.56,90.72,97.52,102.06,102.06,206.38,6,SBD,Single-ply,F
Caitlin Miller,Plainwell,51.71,Open,51.62,140.61,154.22,163.29,163.29,68.04,72.57,-77.11,72.57,149.69,163.29,172.37,172.37,408.23,1,SBD,Single-ply,F
Angela Watson,Richmond,51.71,Open,50.67,95.25,-104.33,104.33,104.33,49.9,54.43,-58.97,54.43,95.25,104.33,117.93,117.93,276.69,2,SBD,Single-ply,F
Whitney Potts,Standish,51.71,Open,50.3,88.45,102.06,-108.86,102.06,47.63,-52.16,-52.16,47.63,102.06,108.86,122.47,122.47,272.16,3,SBD,Single-ply,F
Amanda Bishop,Goodrich,51.71,Open,50.67,61.23,-68.04,68.04,68.04,40.82,45.36,-47.63,45.36,88.45,99.79,-102.06,99.79,213.19,4,SBD,Single-ply,F
Paula Jensen,Lakeview,51.71,Open,51.71,-61.23,61.23,-74.84,61.23,-38.56,38.56,-45.36,38.56,92.99,106.59,-113.4,106.59,206.38,5,SBD,Single-ply,F
Whitney Peters,Lake Fenton,51.71,Open,49.9,47.63,52.16,61.23,61.23,-29.48,31.75,-38.56,31.75,86.18,90.72,95.25,95.25,188.24,6,SBD,Single-ply,F
Angela Epata,Ontonagon,51.71,Open,50.71,43.09,47.63,52.16,52.16,36.29,43.09,-45.36,43.09,61.23,68.04,74.84,74.84,170.1,7,SBD,Single-ply,F
Danielle Audije,Lake Fenton,51.71,Open,49.62,27.22,49.9,-56.7,49.9,27.21,-31.75,-31.75,27.21,61.23,70.31,-79.38,70.31,147.42,8,SBD,Single-ply,F
Kim Douglas,Plainwell,55.79,Open,55.75,113.4,129.27,136.08,136.08,65.77,-72.57,-72.57,65.77,117.93,129.27,140.61,140.61,342.46,1,SBD,Single-ply,F
Corissa VanBeekom,Newaygo,55.79,Open,55.61,131.54,-140.61,-140.61,131.54,-52.16,54.43,-56.7,54.43,108.86,115.67,120.2,120.2,306.17,2,SBD,Single-ply,F
Tammi Cahow,Climax-Scotts,55.79,Open,55.66,74.84,86.18,92.99,92.99,40.82,-45.36,-45.36,40.82,113.4,127.01,-133.81,127.01,260.82,3,SBD,Single-ply,F
Thera Card,Millington,55.79,Open,55.52,-83.91,83.91,90.72,90.72,45.36,-49.9,-49.9,45.36,90.72,97.52,108.86,108.86,244.94,4,SBD,Single-ply,F
Hannah Carruthers,Standish,55.79,Open,55.75,79.38,86.18,95.25,95.25,47.63,-52.16,-52.16,47.63,90.72,99.79,102.06,102.06,244.94,5,SBD,Single-ply,F
Amy Kovas,Goodrich,55.79,Open,53.98,63.5,68.04,72.57,72.57,36.29,-40.82,-40.82,36.29,111.13,120.2,-140.61,120.2,229.06,6,SBD,Single-ply,F
Sara Ringle,Flushing,55.79,Open,55.79,88.45,-92.99,-92.99,88.45,47.63,-52.16,-52.16,47.63,90.72,92.99,-97.52,92.99,229.06,7,SBD,Single-ply,F
Justine Morris,Clarkston,55.79,Open,54.93,61.23,65.77,70.31,70.31,34.02,36.29,38.56,38.56,97.52,106.59,-113.4,106.59,215.46,8,SBD,Single-ply,F
Shanna Lee,Lake Fenton,55.79,Open,54.98,74.84,-81.65,-86.18,74.84,31.75,-38.56,-38.56,31.75,86.18,92.99,106.59,106.59,213.19,9,SBD,Single-ply,F
Alyssa Stamm,Flushing,55.79,Open,55.16,38.56,56.7,63.5,63.5,40.82,43.09,-45.36,43.09,95.25,102.06,-106.59,102.06,208.65,10,SBD,Single-ply,F
Crystal Enriquez,Kingsley,55.79,Open,55.79,72.57,-77.11,-77.11,72.57,45.36,-47.63,-47.63,45.36,74.84,79.38,-83.91,79.38,197.31,11,SBD,Single-ply,F
Marian Boswell,Montrose,55.79,Open,55.79,-52.16,54.43,-65.77,54.43,24.95,27.22,29.48,29.48,-79.38,79.38,-83.91,79.38,163.29,12,SBD,Single-ply,F
Krystal Stasik,Lake Fenton,55.79,Open,54.07,-40.82,40.82,43.09,43.09,36.29,-40.82,-40.82,36.29,61.23,65.77,79.38,79.38,158.76,13,SBD,Single-ply,F
Heather Rasenbrook,Lake Fenton,55.79,Open,55.75,-49.9,-49.9,-56.7,,-40.82,-40.82,-40.82,,79.38,83.91,-102.06,83.91,,DQ,SBD,Single-ply,F
Amber Beard,Goodrich,55.79,Open,55.02,-81.65,-81.65,-81.65,,-45.36,-45.36,-45.36,,,,,,,DQ,SBD,Single-ply,F
Kerris Cole,Plainwell,59.87,Open,59.87,-90.72,90.72,111.13,111.13,49.9,56.7,-61.23,56.7,133.81,142.88,-149.69,142.88,310.71,1,SBD,Single-ply,F
Karen Black,Richmond,59.87,Open,59.87,102.06,111.13,-120.2,111.13,-56.7,58.97,-61.23,58.97,102.06,113.4,124.74,124.74,294.84,2,SBD,Single-ply,F
Amy Abott,Maple Valley,59.87,Open,58.15,97.52,102.06,106.59,106.59,47.63,54.43,-56.7,54.43,108.86,117.93,124.74,124.74,285.76,3,SBD,Single-ply,F
Amber Searles,Plainwell,59.87,Open,58.79,83.91,90.72,-106.59,90.72,43.09,52.16,-56.7,52.16,113.4,122.47,138.35,138.35,281.23,4,SBD,Single-ply,F
Lavra Macko,Flushing,59.87,Open,59.38,102.06,-106.59,-106.59,102.06,49.9,-52.16,52.16,52.16,106.59,113.4,-117.93,113.4,267.62,5,SBD,Single-ply,F
Amanda Corder,Lee,59.87,Open,58.2,90.72,-99.79,-99.79,90.72,-56.7,61.23,-65.77,61.23,111.13,-122.47,-124.74,111.13,263.08,6,SBD,Single-ply,F
Meridith Mayberry,Goodrich,59.87,Open,58.51,-99.79,99.79,-104.33,99.79,54.43,-56.7,-56.7,54.43,102.06,-117.93,-117.93,102.06,256.28,7,SBD,Single-ply,F
Cynthia Blake,Mt Morris,59.87,Open,58.92,-63.5,63.5,68.04,68.04,43.09,-49.9,-49.9,43.09,113.4,122.47,131.54,131.54,242.67,8,SBD,Single-ply,F
Kayla Washburn,Owosso,59.87,Open,59.87,74.84,-81.65,-81.65,74.84,43.09,-47.63,47.63,47.63,102.06,111.13,117.93,117.93,240.4,9,SBD,Single-ply,F
Mellisa Jaroneski,Almont,59.87,Open,59.1,63.5,70.31,77.11,77.11,45.36,-49.9,49.9,49.9,99.79,108.86,-113.4,108.86,235.87,10,SBD,Single-ply,F
Angela Jennings,Linden,59.87,Open,59.51,70.31,74.84,-79.38,74.84,40.82,45.36,47.63,47.63,92.99,97.52,102.06,102.06,224.53,11,SBD,Single-ply,F
Danielle Graves,Flushing,59.87,Open,56.79,70.31,-77.11,-77.11,70.31,45.36,47.63,-49.9,47.63,99.79,-108.86,-108.86,99.79,217.72,12,SBD,Single-ply,F
Emily Meissnest,Clarkston,59.87,Open,58.24,54.43,58.97,65.77,65.77,40.82,43.09,-45.36,43.09,95.25,102.06,108.86,108.86,217.72,13,SBD,Single-ply,F
Ashley Barnes,Newaygo,59.87,Open,59.74,77.11,-81.65,-81.65,77.11,-43.09,43.09,-45.36,43.09,-79.38,79.38,-86.18,79.38,199.58,14,SBD,Single-ply,F
Amanda Vig,Lake Fenton,59.87,Open,57.42,72.57,-81.65,-81.65,72.57,38.56,43.09,47.63,47.63,68.04,72.57,-90.72,72.57,192.78,15,SBD,Single-ply,F
Erin Pintek,Flushing,59.87,Open,58.11,54.43,61.23,70.31,70.31,34.02,36.29,-40.82,36.29,63.5,72.57,86.18,86.18,192.78,16,SBD,Single-ply,F
Kimberly McLean,Standish,59.87,Open,59.42,-56.7,58.97,-65.77,58.97,43.09,-45.36,-47.63,43.09,79.38,90.72,-95.25,90.72,192.78,17,SBD,Single-ply,F
Beth Wenkle,Standish,59.87,Open,59.74,68.04,74.84,-86.18,74.84,-47.63,-49.9,-49.9,,90.72,99.79,-108.86,99.79,,DQ,SBD,Single-ply,F
Andrea Sivil,Flushing,59.87,Open,59.78,-86.18,-86.18,-86.18,,56.7,-58.97,-58.97,56.7,117.93,,,117.93,,DQ,SBD,Single-ply,F
Amanda Gunther,Flushing,59.87,Open,59.15,-70.31,-74.84,-74.84,,45.36,-47.63,-47.63,45.36,97.52,102.06,106.59,106.59,,DQ,SBD,Single-ply,F
Alyssa Buffey,Atherton,59.87,Open,58.11,-74.84,-74.84,74.84,74.84,-38.56,-43.09,-45.36,,,,,,,DQ,SBD,Single-ply,F
Kara Graham,Climax-Scotts,67.13,Open,65.36,113.4,124.74,131.54,131.54,-52.16,52.16,-56.7,52.16,142.88,149.69,158.76,158.76,342.46,1,SBD,Single-ply,F
Hallie Hetzler,Plainwell,67.13,Open,65.05,113.4,122.47,-127.01,122.47,63.5,-68.04,-68.04,63.5,136.08,142.88,-145.15,142.88,328.85,2,SBD,Single-ply,F
Alyssa Schweign,Richmond,67.13,Open,64.59,70.31,-77.11,-77.11,70.31,58.97,-63.5,63.5,63.5,115.67,-122.47,-122.47,115.67,249.48,3,SBD,Single-ply,F
Chelsie Morey,Lake Fenton,67.13,Open,65.5,77.11,83.91,92.99,92.99,38.56,43.09,-45.36,43.09,-106.59,-113.4,113.4,113.4,249.48,4,SBD,Single-ply,F
Brittany Corea,Morenci,67.13,Open,64.32,79.38,-90.72,-90.72,79.38,45.36,-52.16,52.16,52.16,-95.25,99.79,108.86,108.86,240.4,5,SBD,Single-ply,F
Ashley Barron,Montrose,67.13,Open,63.91,-81.65,-83.91,86.18,86.18,-34.02,38.56,43.09,43.09,-90.72,97.52,106.59,106.59,235.87,6,SBD,Single-ply,F
Melissa Lyon,Flushing,67.13,Open,62.37,74.84,-79.38,-79.38,74.84,45.36,-49.9,-49.9,45.36,113.4,-117.93,-117.93,113.4,233.6,7,SBD,Single-ply,F
Megan Melsaac,Clarkston,67.13,Open,66.77,61.23,65.77,72.57,72.57,38.56,-43.09,-43.09,38.56,95.25,99.79,-104.33,99.79,210.92,8,SBD,Single-ply,F
Molly Dennany,Plainwell,74.84,Open,68.08,149.69,163.29,174.63,174.63,90.72,99.79,-104.33,99.79,149.69,158.76,165.56,165.56,439.98,1,SBD,Single-ply,F
Alussa Marriner,Athlerton,74.84,Open,72.39,97.52,104.33,113.4,113.4,61.23,-63.5,68.04,68.04,102.06,115.67,124.74,124.74,306.17,2,SBD,Single-ply,F
Jessica Johnson,Montague,74.84,Open,74.66,111.13,-120.2,120.2,120.2,52.16,-61.23,-61.23,52.16,113.4,129.27,-133.81,129.27,301.64,3,SBD,Single-ply,F
Danielle Roden,Climax-Scotts,74.84,Open,68.22,92.99,102.06,-113.4,102.06,52.16,-61.23,-61.23,52.16,117.93,131.54,-147.42,131.54,285.76,4,SBD,Single-ply,F
Autumn Burns,Athlerton,74.84,Open,69.04,74.84,81.65,-86.18,81.65,47.63,52.16,-54.43,52.16,-115.67,122.47,-127.01,122.47,256.28,5,SBD,Single-ply,F
Jessica Munguis,Edwardsburg,74.84,Open,73.03,-74.84,-83.91,90.72,90.72,43.09,-45.36,-45.36,43.09,111.13,115.67,120.2,120.2,254.01,6,SBD,Single-ply,F
Katie Hoxie,Armada,74.84,Open,73.3,61.23,-68.04,68.04,68.04,47.63,-52.16,-52.16,47.63,106.59,115.67,124.74,124.74,240.4,7,SBD,Single-ply,F
Corissa Carlson,Flushing,74.84,Open,70.76,61.23,70.31,81.65,81.65,38.56,43.09,-47.63,43.09,77.11,92.99,113.4,113.4,238.14,8,SBD,Single-ply,F
Robin Weber #2,Kinglsey,74.84,Open,72.3,97.52,102.06,-106.59,102.06,-70.31,-74.84,-74.84,,113.4,124.74,136.08,136.08,238.14,9,SBD,Single-ply,F
Sam Longerman,Almont,74.84,Open,74.34,61.23,68.04,74.84,74.84,36.29,40.82,-45.36,40.82,86.18,92.99,99.79,99.79,215.46,10,SBD,Single-ply,F
Katheryn Batema,Flushing,74.84,Open,74.03,-81.65,-81.65,-81.65,,49.9,52.16,-54.43,52.16,83.91,88.45,92.99,92.99,,DQ,SBD,Single-ply,F
Katy Durham,Mt. Morris,82.1,Open,78.34,117.93,129.27,138.35,138.35,72.57,81.65,-86.18,81.65,127.01,136.08,-145.15,136.08,356.07,1,SBD,Single-ply,F
Jesse DeGryse,Plainwell,82.1,Open,82.1,92.99,97.52,102.06,102.06,49.9,54.43,61.23,61.23,95.25,99.79,108.86,108.86,272.16,2,SBD,Single-ply,F
Jillian Wright,Newaygo,82.1,Open,75.02,-61.23,-61.23,68.04,68.04,36.29,-43.09,-43.09,36.29,102.06,-108.86,-108.86,102.06,206.38,3,SBD,Single-ply,F
Andrea Lindeman,Climax-Scotts,82.1,Open,75.61,102.06,-106.59,-111.13,102.06,45.36,-49.9,-49.9,45.36,-136.08,-136.08,-136.08,,,DQ,SBD,Single-ply,F
Bonica Brown,Climax-Scotts,89.81,Open,88.36,185.97,204.12,-226.8,204.12,104.33,113.4,120.2,120.2,176.9,197.31,,197.31,521.63,1,SBD,Single-ply,F
Nicole Turner,Mt. Morris,89.81,Open,84.46,79.38,90.72,102.06,102.06,49.9,56.7,-63.5,56.7,127.01,-136.08,-136.08,127.01,285.76,2,SBD,Single-ply,F
Andrea Estep,Lake Fenton,89.81,Open,87.45,102.06,-113.4,-113.4,102.06,56.7,-61.23,-61.23,56.7,102.06,113.4,-120.2,113.4,272.16,3,SBD,Single-ply,F
Jackie Gibbson,Mt. Morris,99.79,Open,99.29,147.42,156.49,161.03,161.03,56.7,-61.23,-61.23,56.7,133.81,142.88,-161.03,142.88,360.61,1,SBD,Single-ply,F
Maggie Cornell,Clarkston,99.79,Open,99.47,102.06,111.13,-117.93,111.13,56.7,-61.23,-61.23,56.7,127.01,133.81,-140.61,133.81,301.64,2,SBD,Single-ply,F
Jamie Hooker,Flushing,99.79+,Open,105.69,124.74,136.08,-145.15,136.08,-68.04,-68.04,68.04,68.04,117.93,133.81,-145.15,133.81,337.93,1,SBD,Single-ply,F
Jessica DeLarosa,Mt. Morris,99.79+,Open,119.61,124.74,136.08,-140.61,136.08,52.16,56.7,-63.5,56.7,127.01,136.08,-142.88,136.08,328.85,2,SBD,Single-ply,F
Cayla Sieweka,Almont,99.79+,Open,106.78,56.7,63.5,70.31,70.31,31.75,-36.29,-36.29,31.75,92.99,97.52,-104.33,97.52,199.58,3,SBD,Single-ply,F
Amanda Thayer,Lake Fenton,99.79+,Open,106.73,-36.29,45.36,-61.23,45.36,34.02,38.56,-45.36,38.56,63.5,72.57,-104.33,72.57,156.49,4,SBD,Single-ply,F
