Division,WeightClassKg,Place,Name,Team,BodyweightKg,Best3SquatKg,Best3BenchKg,Best3DeadliftKg,TotalKg,Equipment,Event,Sex
Boys,51.71,1,Jesus Rios,Palacios,51.71,165.56,124.74,206.38,496.68,Single-ply,SBD,M
Boys,51.71,2,Dylan McMullen,Splendora,50.62,97.52,61.23,108.86,267.62,Single-ply,SBD,M
Boys,51.71,3,Danny Sowell,Shepherd,48.44,88.45,47.63,90.72,226.8,Single-ply,SBD,M
Boys,55.79,1,Ricky Villafana,Splendora,55.47,156.49,97.52,165.56,419.57,Single-ply,SBD,M
Boys,55.79,2,Clayton Coogler,Shepherd,53.52,111.13,52.16,111.13,274.42,Single-ply,SBD,M
Boys,55.79,3,Timothy Wilson,Conroe Caney Creek,53.43,92.99,52.16,113.4,258.55,Single-ply,SBD,M
Boys,55.79,4,Gage Franklin,Friendswood Clear Brook,52.62,68.04,40.82,72.57,181.44,Single-ply,SBD,M
Boys,59.87,1,Tyler Le,Palacios,58.15,158.76,81.65,179.17,419.57,Single-ply,SBD,M
Boys,59.87,2,Ryan Collette,Huffman Hargrave,59.87,140.61,95.25,167.83,403.7,Single-ply,SBD,M
Boys,59.87,3,Chase Watson,Shepherd,59.51,161.03,88.45,147.42,396.89,Single-ply,SBD,M
Boys,59.87,4,Nathan Erickson,Splendora,59.51,136.08,92.99,145.15,374.21,Single-ply,SBD,M
Boys,59.87,5,Lane Goodwin,Splendora,59.51,131.54,74.84,124.74,331.12,Single-ply,SBD,M
Boys,59.87,6,Colby Vauter,Dayton,58.06,102.06,56.7,113.4,272.16,Single-ply,SBD,M
Boys,59.87,7,Corey Scott,Livingston,58.33,83.91,61.23,102.06,247.21,Single-ply,SBD,M
Boys,67.13,1,Garet Stuckey,Conroe Caney Creek,67.13,179.17,117.93,185.97,483.08,Single-ply,SBD,M
Boys,67.13,2,Sal Pruneda,Dayton,67.13,158.76,97.52,185.97,442.25,Single-ply,SBD,M
Boys,67.13,3,Colton Boatright,Shepherd,66.77,156.49,102.06,181.44,439.98,Single-ply,SBD,M
Boys,67.13,4,Jose Estupinan,Beaumont Ozen,67.13,158.76,81.65,181.44,421.84,Single-ply,SBD,M
Boys,67.13,5,Caleb Jackson,Huffman Hargrave,65.95,149.69,97.52,172.37,419.57,Single-ply,SBD,M
Boys,67.13,6,Ismael Orduna,Livingston,65.68,167.83,86.18,151.95,405.97,Single-ply,SBD,M
Boys,67.13,7,JJ White,Willis,61.69,142.88,74.84,149.69,367.41,Single-ply,SBD,M
Boys,67.13,8,Joel Dees,Trinity,66.32,120.2,77.11,151.95,349.27,Single-ply,SBD,M
Boys,67.13,9,Ivan Fuentes,Willis,60.78,124.74,79.38,131.54,335.66,Single-ply,SBD,M
Boys,67.13,10,Chase Long,Cleveland Tarkington,62.87,120.2,70.31,136.08,326.59,Single-ply,SBD,M
Boys,67.13,11,Sean Pitts,Splendora,63.96,113.4,83.91,127.01,324.32,Single-ply,SBD,M
Boys,67.13,12,Tyler Bond,New Caney,66.22,113.4,81.65,122.47,317.51,Single-ply,SBD,M
Boys,67.13,13,Nathan Gruber,Huffman Hargrave,62.6,113.4,63.5,108.86,285.76,Single-ply,SBD,M
Boys,67.13,14,John Eccles,Huffman Hargrave,66.5,113.4,65.77,99.79,278.96,Single-ply,SBD,M
Boys,67.13,15,Blake Haggler,Splendora,67.13,90.72,79.38,104.33,274.42,Single-ply,SBD,M
Boys,67.13,16,Joseph Hlavaty,Cleveland Tarkington,65.5,106.59,58.97,106.59,272.16,Single-ply,SBD,M
Boys,67.13,DQ,Zach Pike,Dayton,63.32,127.01,68.04,,,Single-ply,SBD,M
Boys,67.13,DQ,Landen Spellman,Livingston,63.32,120.2,65.77,,,Single-ply,SBD,M
Boys,74.84,1,Asa Spade,Splendora,74.39,219.99,124.74,206.38,551.11,Single-ply,SBD,M
Boys,74.84,2,Seth Alvarez,Palacios,74.39,226.8,104.33,204.12,535.24,Single-ply,SBD,M
Boys,74.84,3,Javier Vela,Shepherd,69.58,201.85,115.67,210.92,528.44,Single-ply,SBD,M
Boys,74.84,4,Lucas Erickson,Splendora,70.22,192.78,115.67,201.85,510.29,Single-ply,SBD,M
Boys,74.84,5,Alex Palacios,Conroe Caney Creek,73.48,170.1,113.4,192.78,476.27,Single-ply,SBD,M
Boys,74.84,6,Randy Cornejo,Conroe Caney Creek,69.85,174.63,97.52,192.78,464.93,Single-ply,SBD,M
Boys,74.84,7,Uri Martinez,New Caney Porter,74.84,167.83,108.86,181.44,458.13,Single-ply,SBD,M
Boys,74.84,8,Irric Deyon,Palestine,70.76,167.83,97.52,183.7,449.06,Single-ply,SBD,M
Boys,74.84,9,Brandon Cheves,Shepherd,72.3,176.9,95.25,176.9,449.06,Single-ply,SBD,M
Boys,74.84,10,Morgan Segovia,Palacios,74.57,163.29,102.06,163.29,428.64,Single-ply,SBD,M
Boys,74.84,11,Sam Jones #3,New Caney,74.84,167.83,102.06,156.49,426.38,Single-ply,SBD,M
Boys,74.84,12,Tim Clay,New Caney Porter,74.84,158.76,102.06,163.29,424.11,Single-ply,SBD,M
Boys,74.84,13,Troy Cook,Dayton,70.13,161.03,88.45,163.29,412.77,Single-ply,SBD,M
Boys,74.84,14,Parker Hay,Trinity,70.13,151.95,83.91,172.37,408.23,Single-ply,SBD,M
Boys,74.84,15,Kaylen Manzi,Huffman Hargrave,71.49,142.88,95.25,158.76,396.89,Single-ply,SBD,M
Boys,74.84,16,Devin Kelly,Huffman Hargrave,71.49,158.76,83.91,149.69,392.36,Single-ply,SBD,M
Boys,74.84,17,Kolby Hvamstad,Cleveland Tarkington,74.66,142.88,90.72,149.69,383.29,Single-ply,SBD,M
Boys,74.84,18,Caden Whigham,Huffman Hargrave,72.12,127.01,88.45,156.49,371.95,Single-ply,SBD,M
Boys,74.84,19,Brock Squier,Cleveland Tarkington,70.49,131.54,90.72,147.42,369.68,Single-ply,SBD,M
Boys,74.84,20,Pranav Murugan,Friendswood Clear Brook,74.84,142.88,65.77,154.22,362.87,Single-ply,SBD,M
Boys,74.84,21,Savian Hancock,Huffman Hargrave,70.58,133.81,68.04,142.88,344.73,Single-ply,SBD,M
Boys,74.84,DQ,William Broussard,Livingston,73.39,163.29,,,,Single-ply,SBD,M
Boys,74.84,DQ,Leo Guerrero,Trinity,74.84,174.63,,,,Single-ply,SBD,M
Boys,82.1,1,Kris Narcisse,Beaumont Ozen,81.65,219.99,142.88,197.31,560.19,Single-ply,SBD,M
Boys,82.1,2,Sterling Winzor,Beaumont Ozen,81.47,192.78,122.47,219.99,535.24,Single-ply,SBD,M
Boys,82.1,3,Markell Perry,Beaumont Ozen,80.38,181.44,115.67,197.31,494.42,Single-ply,SBD,M
Boys,82.1,4,Jaxen Halbaedier,Willis,82.1,197.31,113.4,181.44,492.15,Single-ply,SBD,M
Boys,82.1,5,Michael Morris #2,Splendora,78.65,188.24,106.59,192.78,487.61,Single-ply,SBD,M
Boys,82.1,6,Dalton Reichardt,Friendswood Clear Brook,77.56,181.44,97.52,192.78,471.74,Single-ply,SBD,M
Boys,82.1,7,Brett Patton,Conroe Caney Creek,82.1,183.7,115.67,167.83,467.2,Single-ply,SBD,M
Boys,82.1,8,Treyvaun Crawford,Trinity,80.92,167.83,104.33,181.44,453.59,Single-ply,SBD,M
Boys,82.1,9,Roderick Deyon,Palestine,78.2,167.83,102.06,172.37,442.25,Single-ply,SBD,M
Boys,82.1,10,Jared Burke,Shepherd,79.38,151.95,115.67,156.49,424.11,Single-ply,SBD,M
Boys,82.1,11,Darryl Davis,Cleveland Tarkington,78.29,156.49,90.72,170.1,417.3,Single-ply,SBD,M
Boys,82.1,12,Jacob Wheat,Palestine,79.11,151.95,86.18,158.76,396.89,Single-ply,SBD,M
Boys,82.1,13,Bennet Ruby,Friendswood Clear Brook,77.93,154.22,77.11,149.69,381.02,Single-ply,SBD,M
Boys,82.1,14,Andy Garcia,Trinity,77.38,117.93,88.45,147.42,353.8,Single-ply,SBD,M
Boys,82.1,DQ,Charles McMillen,Trinity,80.65,190.51,,,,Single-ply,SBD,M
Boys,82.1,DQ,Javonte Oliphant,Trinity,77.02,,,,,Single-ply,SBD,M
Boys,82.1,DQ,Brandon Halton,Cleveland Tarkington,81.47,115.67,,,,Single-ply,SBD,M
Boys,82.1,DQ,Dakota Piper,Livingston,81.83,163.29,129.27,,,Single-ply,SBD,M
Boys,89.81,1,Jonathan Jones,Willis,88.36,226.8,129.27,219.99,576.06,Single-ply,SBD,M
Boys,89.81,2,Dominic Garcia,Palacios,85.55,197.31,124.74,229.06,551.11,Single-ply,SBD,M
Boys,89.81,3,Tyler Shirey,Shepherd,87.36,192.78,147.42,206.38,546.58,Single-ply,SBD,M
Boys,89.81,4,Kyle Haynes #2,Livingston,89.81,199.58,138.35,199.58,537.51,Single-ply,SBD,M
Boys,89.81,5,Stephen Rowe,Friendswood Clear Brook,88.36,195.04,117.93,222.26,535.24,Single-ply,SBD,M
Boys,89.81,6,Jared Hull,New Caney,87.54,210.92,129.27,192.78,532.97,Single-ply,SBD,M
Boys,89.81,7,Josh Saltsman,New Caney,83.37,195.04,122.47,183.7,501.22,Single-ply,SBD,M
Boys,89.81,8,Adam Nguyen,Palacios,86,195.04,102.06,204.12,501.22,Single-ply,SBD,M
Boys,89.81,9,Jon Hay,Willis,88.36,204.12,95.25,181.44,480.81,Single-ply,SBD,M
Boys,89.81,10,Isaac Guinn,Friendswood Clear Brook,86.82,181.44,104.33,167.83,453.59,Single-ply,SBD,M
Boys,89.81,11,Noah Young #2,Huffman Hargrave,87.18,158.76,106.59,176.9,442.25,Single-ply,SBD,M
Boys,89.81,12,Brent Patton,Conroe Caney Creek,83.28,183.7,106.59,142.88,433.18,Single-ply,SBD,M
Boys,89.81,13,David Alsip,Conroe Caney Creek,89.18,151.95,88.45,167.83,408.23,Single-ply,SBD,M
Boys,89.81,14,Jason Navarro,Huffman Hargrave,86.91,142.88,79.38,147.42,369.68,Single-ply,SBD,M
Boys,89.81,15,Justin Vandekamp,Cleveland Tarkington,83.28,136.08,90.72,131.54,358.34,Single-ply,SBD,M
Boys,89.81,16,Jake Allison #2,Friendswood Clear Brook,86.64,131.54,70.31,124.74,326.59,Single-ply,SBD,M
Boys,89.81,17,Trey Keel,Shepherd,85.37,213.19,49.9,56.7,319.78,Single-ply,SBD,M
Boys,89.81,18,Ben Arnold,Huffman Hargrave,83.55,97.52,79.38,131.54,308.44,Single-ply,SBD,M
Boys,89.81,19,Eduardo Maury,Beaumont Ozen,84.1,74.84,63.5,136.08,274.42,Single-ply,SBD,M
Boys,89.81,DQ,Morgan Garcia #1,Livingston,88.54,142.88,102.06,,,Single-ply,SBD,M
Boys,99.79,1,David Caddie,Livingston,93.53,260.82,158.76,260.82,680.39,Single-ply,SBD,M
Boys,99.79,2,Joe Thomas,Beaumont Ozen,96.25,272.16,129.27,269.89,671.32,Single-ply,SBD,M
Boys,99.79,3,Seward Kolin,Livingston,97.25,229.06,115.67,183.7,528.44,Single-ply,SBD,M
Boys,99.79,4,Micahel Hoy,Dayton,92.44,183.7,124.74,215.46,523.9,Single-ply,SBD,M
Boys,99.79,5,James Mower,Friendswood Clear Brook,97.98,208.65,117.93,190.51,517.1,Single-ply,SBD,M
Boys,99.79,6,Michael Taylor #2,Splendora,98.61,183.7,129.27,188.24,501.22,Single-ply,SBD,M
Boys,99.79,7,Chance Hodgekinson,New Caney Porter,96.62,183.7,124.74,156.49,464.93,Single-ply,SBD,M
Boys,99.79,8,Caleb Richardson,New Caney,93.17,174.63,102.06,185.97,462.66,Single-ply,SBD,M
Boys,99.79,9,Cameron Easley,New Caney Porter,92.62,142.88,129.27,181.44,453.59,Single-ply,SBD,M
Boys,99.79,10,Jake Jones,Willis,91.17,158.76,92.99,170.1,421.84,Single-ply,SBD,M
Boys,99.79,11,Jesus Rocha,New Caney,90.54,131.54,90.72,133.81,356.07,Single-ply,SBD,M
Boys,99.79,DQ,Alex Murillo,Dayton,93.8,190.51,,,,Single-ply,SBD,M
Boys,109.77,1,Diundre Washington,Beaumont Ozen,109.32,272.16,172.37,210.92,655.44,Single-ply,SBD,M
Boys,109.77,2,Kevin Nguyen #9,Friendswood Clear Brook,103.51,244.94,142.88,247.21,635.03,Single-ply,SBD,M
Boys,109.77,3,Cameron Providence,New Caney Porter,107.41,217.72,127.01,226.8,571.53,Single-ply,SBD,M
Boys,109.77,4,Seth Mericle,Splendora,107.5,190.51,149.69,190.51,530.7,Single-ply,SBD,M
Boys,109.77,5,Caleb Chute,Conroe Caney Creek,101.06,226.8,113.4,188.24,528.44,Single-ply,SBD,M
Boys,109.77,6,Glen Bonner,Trinity,104.24,185.97,122.47,190.51,498.95,Single-ply,SBD,M
Boys,109.77,7,Caleb Johnson,New Caney Porter,109.13,181.44,124.74,188.24,494.42,Single-ply,SBD,M
Boys,109.77,8,Dominique Brazil,Palacios,103.78,185.97,104.33,201.85,492.15,Single-ply,SBD,M
Boys,109.77,9,Taylor Grice,New Caney Porter,102.06,170.1,120.2,181.44,471.74,Single-ply,SBD,M
Boys,109.77,10,Donovan Rocha,Splendora,109.77,190.51,95.25,183.7,469.47,Single-ply,SBD,M
Boys,109.77,11,Arthur Harmon,Beaumont Ozen,109.5,181.44,102.06,181.44,464.93,Single-ply,SBD,M
Boys,109.77,12,Blake Haight,Willis,106.59,204.12,102.06,151.95,458.13,Single-ply,SBD,M
Boys,109.77,13,Michael Stubblefield,Cleveland Tarkington,106.87,183.7,111.13,136.08,430.91,Single-ply,SBD,M
Boys,109.77,14,Peyton McCormick,Cleveland Tarkington,108.77,151.95,86.18,174.63,412.77,Single-ply,SBD,M
Boys,109.77,15,Jamaal Edwards,Beaumont Ozen,101.42,145.15,95.25,170.1,410.5,Single-ply,SBD,M
Boys,109.77,16,Johnny Hoy,Dayton,105.05,151.95,83.91,133.81,369.68,Single-ply,SBD,M
Boys,109.77,17,Tyler Puffer,Friendswood Clear Brook,102.78,136.08,77.11,151.95,365.14,Single-ply,SBD,M
Boys,109.77,18,Christian Crooks,New Caney,103.15,124.74,81.65,158.76,365.14,Single-ply,SBD,M
Boys,109.77,19,Neeairus Withers,Beaumont Ozen,104.51,102.06,92.99,136.08,331.12,Single-ply,SBD,M
Boys,109.77,DQ,Eric Taylor,Beaumont Ozen,103.42,158.76,,,,Single-ply,SBD,M
Boys,109.77,DQ,Marcus Garza,Conroe Caney Creek,107.77,249.48,,,,Single-ply,SBD,M
Boys,109.77,DQ,Barcenas Cruz,Huffman Hargrave,109.77,140.61,,,,Single-ply,SBD,M
Boys,124.74,1,Cedric Green,Shepherd,119.66,317.51,156.49,229.06,703.07,Single-ply,SBD,M
Boys,124.74,2,Chase Kellar,Conroe Caney Creek,121.47,274.42,167.83,249.48,691.73,Single-ply,SBD,M
Boys,124.74,3,Josh Tillis,Palestine,116.57,240.4,174.63,219.99,635.03,Single-ply,SBD,M
Boys,124.74,4,Hunter Crooks,Dayton,121.79,249.48,136.08,249.48,635.03,Single-ply,SBD,M
Boys,124.74,5,Alex Nguyen,Palacios,114.94,242.67,156.49,192.78,591.94,Single-ply,SBD,M
Boys,124.74,6,Dustin Willis,Splendora,124.74,265.35,131.54,181.44,578.33,Single-ply,SBD,M
Boys,124.74,7,Cameron Townsend,Friendswood Clear Brook,113.85,217.72,136.08,208.65,562.45,Single-ply,SBD,M
Boys,124.74,8,Dylan Poindexter,New Caney,111.95,210.92,138.35,195.04,544.31,Single-ply,SBD,M
Boys,124.74,9,Chuck U,New Caney,113.94,222.26,133.81,183.7,539.77,Single-ply,SBD,M
Boys,124.74,10,Andrew Cassity,Friendswood Clear Brook,120.02,210.92,97.52,204.12,512.56,Single-ply,SBD,M
Boys,124.74,11,Kollin Beyer,New Caney Porter,116.21,204.12,117.93,181.44,503.49,Single-ply,SBD,M
Boys,124.74,12,John Legg,Conroe Caney Creek,113.4,197.31,102.06,192.78,492.15,Single-ply,SBD,M
Boys,124.74,13,JG Head,Cleveland Tarkington,114.17,195.04,113.4,181.44,489.88,Single-ply,SBD,M
Boys,124.74,14,Allen Sowell,Dayton,119.84,181.44,122.47,181.44,485.34,Single-ply,SBD,M
Boys,124.74,15,Jason Vargas,Willis,115.03,217.72,104.33,151.95,474,Single-ply,SBD,M
Boys,124.74,16,James Burns,New Caney Porter,115.48,181.44,127.01,158.76,467.2,Single-ply,SBD,M
Boys,124.74,17,Manvel Alamanza,New Caney,111.31,158.76,97.52,174.63,430.91,Single-ply,SBD,M
Boys,124.74,18,Jerome Harmon,Beaumont Ozen,119.02,142.88,102.06,183.7,428.64,Single-ply,SBD,M
Boys,124.74,19,Eric Mendoza,Friendswood Clear Brook,116.39,167.83,81.65,158.76,408.23,Single-ply,SBD,M
Boys,124.74,20,Travis Cudworth,Friendswood Clear Brook,116.57,154.22,95.25,158.76,408.23,Single-ply,SBD,M
Boys,124.74,DQ,DeJante Granger,Beaumont Ozen,124.47,204.12,122.47,,,Single-ply,SBD,M
Boys,124.74,DQ,Jake Neal,Palestine,124.38,181.44,,,,Single-ply,SBD,M
Boys,124.74,DQ,CJ Knighton,Livingston,116.94,204.12,,,,Single-ply,SBD,M
Boys,124.74,DQ,Brandon Philips,Trinity,123.01,181.44,102.06,,,Single-ply,SBD,M
Boys,124.74+,1,Terrance Manning,Dayton,148.42,317.51,165.56,267.62,750.7,Single-ply,SBD,M
Boys,124.74+,2,Jimmy White,Willis,143.61,294.84,174.63,226.8,696.26,Single-ply,SBD,M
Boys,124.74+,3,Quinlan Beck,Shepherd,141.07,226.8,154.22,210.92,591.94,Single-ply,SBD,M
Boys,124.74+,4,Colton Lowe,Conroe Caney Creek,155.76,226.8,140.61,183.7,551.11,Single-ply,SBD,M
Boys,124.74+,5,Ambrows Moreland,Beaumont Ozen,144.61,204.12,124.74,213.19,542.04,Single-ply,SBD,M
Boys,124.74+,6,Brent Holmes,Conroe Caney Creek,127.19,208.65,124.74,181.44,514.83,Single-ply,SBD,M
Boys,124.74+,7,Jake Carr,Palacios,135.99,195.04,111.13,181.44,487.61,Single-ply,SBD,M
Boys,124.74+,DQ,Bill Dobbins,Livingston,129,201.85,,,,Single-ply,SBD,M
Boys,,NS,Tylynn Sidney,Palacios,,,,,,Single-ply,SBD,M
Boys,,NS,Caden LaFontaine,Palestine,,,,,,Single-ply,SBD,M
Boys,,NS,Osvaldo Palacias,Palestine,,,,,,Single-ply,SBD,M
Boys,,NS,Waylon Nickerson,Palestine,,,,,,Single-ply,SBD,M
Boys,,NS,Demetric Mills,Trinity,,,,,,Single-ply,SBD,M
Boys,,NS,Trevan Marcrum,Dayton,,,,,,Single-ply,SBD,M
Boys,,NS,Dwight Daniel,Friendswood Clear Brook,,,,,,Single-ply,SBD,M
Boys,,NS,Zachary Scabora,Friendswood Clear Brook,,,,,,Single-ply,SBD,M
Boys,,NS,Evan Wyble,Beaumont Ozen,,,,,,Single-ply,SBD,M
Boys,,NS,Christian Reza,Beaumont Ozen,,,,,,Single-ply,SBD,M
Boys,,NS,Phillip Locklear,Cleveland Tarkington,,,,,,Single-ply,SBD,M
Boys,,NS,Jorge Zumarrago,Willis,,,,,,Single-ply,SBD,M
Boys,,NS,Logan Hines,Willis,,,,,,Single-ply,SBD,M
Boys,,NS,Karsten Mack,Trinity,,,,,,Single-ply,SBD,M
