Place,Name,State,WeightClassKg,BodyweightKg,Age,Best3SquatKg,Best3BenchKg,Best3DeadliftKg,TotalKg,Sex,Division,Equipment,Event,Squat4Kg,Bench4Kg,Deadlift4Kg
1,Jay'Lynn Cummings,CA,56,52.5,14,77.5,42.5,90,210,F,Juniors 13-15,Raw,SBD,,,
DQ,Tarah Shively,CO,56,52.7,20,82.5,37.5,,,F,Juniors 20-23,Raw,SBD,,,
1,Sharon Luan,NY,60,58.15,21,115,52.5,165,332.5,F,Juniors 20-23,Raw,SBD,,,
2,Jaclynn Phan,CA,60,59.2,21,105,50,137.5,292.5,F,Juniors 20-23,Raw,SBD,,,
3,Ashley Snow,CA,60,59.15,22,110,60,112.5,282.5,F,Juniors 20-23,Raw,SBD,,,
1,Ayzha Quidit,CA,75,70.95,21,117.5,70,130,317.5,F,Juniors 20-23,Raw,SBD,,,
2,Christina Falk,CA,75,70.4,22,70,42.5,87.5,200,F,Juniors 20-23,Raw,SBD,,,
1,Mindy Chen,CA,56,54.5,26,122.5,75,142.5,340,F,Open,Raw,SBD,,,
2,Carolyn Chen,CA,56,55.6,24,100,67.5,120,287.5,F,Open,Raw,SBD,,,
3,Megan Valencia,CA,56,54.7,25,75,42.5,102.5,220,F,Open,Raw,SBD,,,
1,Shannon Woo,CA,60,59.4,25,107.5,60,157.5,325,F,Open,Raw,SBD,,,
2,Mikenna Kossow,CA,60,59.7,25,107.5,60,120,287.5,F,Open,Raw,SBD,,,
3,Andrea Passwater,CA,60,58.25,30,102.5,60,117.5,280,F,Open,Raw,SBD,,,
1,Cynthia Leu,CA,67.5,65.75,25,150,80,175,405,F,Open,Raw,SBD,,,
2,Aubrey Yip,CA,67.5,67.1,24,140,75,145,360,F,Open,Raw,SBD,,,
3,Patricia Denyer,CA,67.5,65.5,26,125,75,152.5,352.5,F,Open,Raw,SBD,,,
4,Chelsie Satterfield,CA,67.5,67.35,28,117.5,85,142.5,345,F,Open,Raw,SBD,,,
5,Monica Benavides #2,CA,67.5,66.5,25,125,55,127.5,307.5,F,Open,Raw,SBD,,,
6,Samantha Bueghly,CA,67.5,63.75,27,105,62.5,110,277.5,F,Open,Raw,SBD,,,
7,Elicia Ada,CA,67.5,63.1,24,80,40,127.5,247.5,F,Open,Raw,SBD,,,
8,Silvia Yesenia Lopez Torres,CA,67.5,64.65,19,87.5,45,110,242.5,F,Open,Raw,SBD,,,
1,Rebecca Van Vianen,CA,75,73.55,32,110,70,147.5,327.5,F,Open,Raw,SBD,,,
2,Betty Heriford,OR,75,70.4,67,92.5,87.5,142.5,322.5,F,Open,Raw,SBD,,92.5,
4,Ayzha Quidit,CA,75,70.95,21,117.5,70,130,317.5,F,Open,Raw,SBD,,,
1,Traviz Cabatingan,CA,82.5,79.8,31,142.5,95,170,407.5,F,Open,Raw,SBD,,,
2,Brittney Gates,CA,82.5,75.3,28,135,67.5,160,362.5,F,Open,Raw,SBD,,,
3,Alex Baudendistel,CA,82.5,76.7,27,120,75,157.5,352.5,F,Open,Raw,SBD,,,
1,Kateri Nguyen,CA,90,89.4,26,122.5,50,125,297.5,F,Open,Raw,SBD,,,
1,Jessica Thompson #2,CA,90+,98.4,29,137.5,75,150,362.5,F,Open,Raw,SBD,,,
2,Ashleigh Campbell,CA,90+,98.55,30,130,62.5,152.5,345,F,Open,Raw,SBD,,,
1,Mirtha Delatorre,CA,75,74.25,47,133.5,67.5,153,354,F,Masters 45-49,Raw,SBD,137.5,,160
1,Betty Heriford,OR,75,70.4,67,92.5,87.5,142.5,322.5,F,Masters 65-69,Raw,SBD,,92.5,
1,Ty Benigno,CA,67.5,66.6,18,185,82.5,192.5,460,M,Juniors 18-19,Raw,SBD,,,
1,Mauricio Ornelas,CA,75,73.85,21,195,107.5,247.5,550,M,Juniors 20-23,Raw,SBD,,,
2,Miguel Hurtado,CA,75,71.7,21,182.5,122.5,205,510,M,Juniors 20-23,Raw,SBD,,,
3,Oscar Alvarado,CA,75,73.8,21,172.5,100,190,462.5,M,Juniors 20-23,Raw,SBD,,,
1,Anselmo Rivera,CA,82.5,81,19,155,107.5,200,462.5,M,Juniors 18-19,Raw,SBD,,,
1,Chandler Burdick,CA,90,84.3,18,220,132.5,205,557.5,M,Juniors 18-19,Raw,SBD,,,
2,Van Willem Peralta,CA,90,89,19,207.5,87.5,237.5,532.5,M,Juniors 18-19,Raw,SBD,,,
1,Joshua Turner,CA,100,98.1,19,222.5,160,300.5,683,M,Juniors 18-19,Raw,SBD,,,305
2,Andrew Sullivan,CA,100,98.4,18,242.5,162.5,275,680,M,Juniors 18-19,Raw,SBD,,,
1,Andre Blugh,CA,100,90.4,21,265,185,260,710,M,Juniors 20-23,Raw,SBD,,,
2,Joseph Karamatic,CA,100,99.1,23,205,155,227.5,587.5,M,Juniors 20-23,Raw,SBD,,,
1,Micheal Lucero,CA,110,108.5,23,235,165,245,645,M,Juniors 20-23,Raw,SBD,,,
2,Olalekan Ajayi,CA,110,107.1,22,230,132.5,265,627.5,M,Juniors 20-23,Raw,SBD,,,
1,Joseph Shepard,CA,125,118,23,232.5,182.5,282.5,697.5,M,Juniors 20-23,Raw,SBD,,,
1,Nhan Le,CA,67.5,66.05,27,147.5,107.5,145,400,M,Open,Raw,SBD,,,
2,Jeremy Wong,CA,67.5,64.4,27,122.5,87.5,155,365,M,Open,Raw,SBD,,,
1,Crisanto Matta,CA,75,75,33,220,167.5,250,637.5,M,Open,Raw,SBD,,,
2,Branden Buentipo,CA,75,74.45,26,187.5,110,247.5,545,M,Open,Raw,SBD,,,
3,Dustin Lazaga,CA,75,73.05,25,177.5,122.5,202.5,502.5,M,Open,Raw,SBD,,,
4,Alvin Villadelgado,CA,75,74.75,26,175,117.5,205,497.5,M,Open,Raw,SBD,,,
5,Gabriel Nguyen,CA,75,73.05,27,162.5,127.5,192.5,482.5,M,Open,Raw,SBD,,,
6,Nicholas Austria,CA,75,74.4,33,142.5,85,170,397.5,M,Open,Raw,SBD,,,
7,Anson Cheung,CA,75,74.45,28,152.5,80,152.5,385,M,Open,Raw,SBD,,,
DQ,Ryan San Miguel,CA,75,74.55,26,,102.5,182.5,,M,Open,Raw,SBD,,,
1,Jonathan Sanchez,CA,82.5,79,25,177.5,120,210,507.5,M,Open,Raw,SBD,,,
2,Jacob Greenstein,CA,82.5,81.25,24,172.5,122.5,165,460,M,Open,Raw,SBD,,,
3,Jeffrey Famisan,CA,82.5,80.25,29,135,117.5,182.5,435,M,Open,Raw,SBD,,,
1,Dale King,CA,90,88.2,26,227.5,150,280,657.5,M,Open,Raw,SBD,,,
2,Eduardo Cervantes,CA,90,89.8,24,222.5,135,277.5,635,M,Open,Raw,SBD,,,
3,James Streig,CA,90,87.3,25,202.5,152.5,260,615,M,Open,Raw,SBD,,,
4,Andrew Fong,CA,90,85.8,36,202.5,147.5,195,545,M,Open,Raw,SBD,,,
5,Musni Jerome,CA,90,89,28,185,125,235,545,M,Open,Raw,SBD,,,
6,Westley Colebank,CA,90,88.8,26,160,147.5,220,527.5,M,Open,Raw,SBD,,,
7,Nick Ezzo,CA,90,89.9,24,125,90,185,400,M,Open,Raw,SBD,,,
1,Stephen Rubalcaba,CA,100,98.3,25,255,177.5,290,722.5,M,Open,Raw,SBD,,,
2,Houston Saxe,CA,100,99.85,24,210,132.5,255,597.5,M,Open,Raw,SBD,,,
3,Nate Coogan,CA,100,96.2,40,172.5,130,260,562.5,M,Open,Raw,SBD,,,
4,Giovanni Escutia,CA,100,94.4,29,172.5,125,202.5,500,M,Open,Raw,SBD,,,
DQ,Marcos Vazquez,CA,100,95.2,22,207.5,,247.5,,M,Open,Raw,SBD,,,
1,Alan Thrall,CA,110,109.65,29,242.5,155,265,662.5,M,Open,Raw,SBD,,,
2,Michael Hannon,CA,110,104.1,28,235,150,260,645,M,Open,Raw,SBD,,,
3,Micheal Lucero,CA,110,108.5,23,235,165,245,645,M,Open,Raw,SBD,,,
4,Jared Greenstein,CA,110,108.3,26,210,142.5,245,597.5,M,Open,Raw,SBD,,,
5,Wayne Conrad,CA,110,103.1,34,192.5,145,227.5,565,M,Open,Raw,SBD,,,
1,Victtor Lopez,CA,125,123.2,27,265,170,280,715,M,Open,Raw,SBD,,,
2,Joseph Shepard,CA,125,118,23,232.5,182.5,282.5,697.5,M,Open,Raw,SBD,,,
3,Kevin Jacobson,CA,125,112.1,25,195,135,252.5,582.5,M,Open,Raw,SBD,,,
1,Colby Ballinger,CA,140,127.6,25,237.5,192.5,335,765,M,Open,Raw,SBD,,,
1,Andrew Lynch #1,CA,140+,150.15,30,232.5,165,250,647.5,M,Open,Raw,SBD,,,
1,Mark Lazo,CA,75,72.8,38,135,85,160,380,M,Submasters 35-39,Raw,SBD,,,
1,Andrew Fong,CA,90,85.8,36,202.5,147.5,195,545,M,Submasters 35-39,Raw,SBD,,,
2,Joshua Johnson,CA,90,89.95,36,182.5,130,207.5,520,M,Submasters 35-39,Raw,SBD,,,
1,Antonio Machuca,CA,100,98,37,255,177.5,335,767.5,M,Submasters 35-39,Raw,SBD,,,
1,John Custer,CA,125,112.8,38,197.5,147.5,260,605,M,Submasters 35-39,Raw,SBD,,,
1,Abe Kirschenbaum,CA,90,87.9,46,187.5,162.5,220,570,M,Masters 45-49,Raw,SBD,,,
1,Nate Coogan,CA,100,96.2,40,172.5,130,260,562.5,M,Masters 40-44,Raw,SBD,,,
2,Greg Slavin,CA,100,98.5,44,147.5,137.5,205,490,M,Masters 40-44,Raw,SBD,,,
3,Eric Kapke,CA,100,99.1,41,165,117.5,205,487.5,M,Masters 40-44,Raw,SBD,,,
1,Chandra Jenkins,CA,75,70.7,45,175,102.5,185,462.5,F,Open,Wraps,SBD,,,
1,Chandra Jenkins,CA,75,70.7,45,175,102.5,185,462.5,F,Masters 45-49,Wraps,SBD,,,
1,Adelmo Rodriguez,CA,75,74.7,21,200,105,185,490,M,Juniors 20-23,Wraps,SBD,,,
1,Nicolas Herrera,CA,90,89.5,23,260,147.5,302.5,710,M,Juniors 20-23,Wraps,SBD,,,
1,Angel Figueroa,CA,100,98.2,21,260,137.5,265,662.5,M,Juniors 20-23,Wraps,SBD,,,
1,Eduardo Castaneda,CA,110,109.3,21,267.5,132.5,277.5,677.5,M,Juniors 20-23,Wraps,SBD,,,
1,Nicolas Herrera,CA,90,89.5,23,260,147.5,302.5,710,M,Open,Wraps,SBD,,,
2,Chris Cessna,CA,90,86.8,31,227.5,125,240,592.5,M,Open,Wraps,SBD,,,
3,Andres Salgado,CA,90,89.2,25,197.5,125,235,557.5,M,Open,Wraps,SBD,,,
DQ,Cheng Saelee,CA,90,89.2,35,,,,,M,Open,Wraps,SBD,,,
1,Dennis Hardin,CA,125,121.4,53,277.5,182.5,275,735,M,Open,Wraps,SBD,,,
1,Doug Allen,CA,140+,171.7,24,365,205,302.5,872.5,M,Open,Wraps,SBD,,,
1,Dennis Hardin,CA,125,121.4,53,277.5,182.5,275,735,M,Masters 50-54,Wraps,SBD,,,
1,Betty Heriford,OR,75,70.4,67,,87.5,,87.5,F,Open,Raw,B,,92.5,
1,Teresa DeLao,CA,67.5,66.2,81,,30,,30,F,Masters 80+,Raw,B,,,
1,Betty Heriford,OR,75,70.4,67,,87.5,,87.5,F,Masters 65-69,Raw,B,,92.5,
1,Ryan Reynolds,CA,100,99.2,19,,130,,130,M,Juniors 18-19,Raw,B,,,
1,Crisanto Matta,CA,75,75,33,,167.5,,167.5,M,Open,Raw,B,,,
1,Westley Colebank,CA,90,88.8,26,,147.5,,147.5,M,Open,Raw,B,,,
1,Steven O'Brien,CA,100,90.05,69,,125,,125,M,Masters 65-69,Raw,B,,,
1,Betty Heriford,OR,75,70.4,67,,,142.5,142.5,F,Open,Raw,D,,,
1,Betty Heriford,OR,75,70.4,67,,,142.5,142.5,F,Masters 65-69,Raw,D,,,
